^C:\MIKEY_CLEAN\IPL - DELIVERY 2\CODE\WINDOWS\SECOLLAB-MINISIP-ANDROID-ABFB2CE0694B\LIBMUTIL\VS8_PROJ\DEBUG\CACHEITEM.OBJ|C:\MIKEY_CLEAN\IPL - DELIVERY 2\CODE\WINDOWS\SECOLLAB-MINISIP-ANDROID-ABFB2CE0694B\LIBMUTIL\VS8_PROJ\DEBUG\CIRCULARBUFFER.OBJ|C:\MIKEY_CLEAN\IPL - DELIVERY 2\CODE\WINDOWS\SECOLLAB-MINISIP-ANDROID-ABFB2CE0694B\LIBMUTIL\VS8_PROJ\DEBUG\COMMANDSTRING.OBJ|C:\MIKEY_CLEAN\IPL - DELIVERY 2\CODE\WINDOWS\SECOLLAB-MINISIP-ANDROID-ABFB2CE0694B\LIBMUTIL\VS8_PROJ\DEBUG\CONDVARWIN32.OBJ|C:\MIKEY_CLEAN\IPL - DELIVERY 2\CODE\WINDOWS\SECOLLAB-MINISIP-ANDROID-ABFB2CE0694B\LIBMUTIL\VS8_PROJ\DEBUG\CRITICALSECTION.OBJ|C:\MIKEY_CLEAN\IPL - DELIVERY 2\CODE\WINDOWS\SECOLLAB-MINISIP-ANDROID-ABFB2CE0694B\LIBMUTIL\VS8_PROJ\DEBUG\DBG.OBJ|C:\MIKEY_CLEAN\IPL - DELIVERY 2\CODE\WINDOWS\SECOLLAB-MINISIP-ANDROID-ABFB2CE0694B\LIBMUTIL\VS8_PROJ\DEBUG\EXCEPTION.OBJ|C:\MIKEY_CLEAN\IPL - DELIVERY 2\CODE\WINDOWS\SECOLLAB-MINISIP-ANDROID-ABFB2CE0694B\LIBMUTIL\VS8_PROJ\DEBUG\FILESYSTEM.OBJ|C:\MIKEY_CLEAN\IPL - DELIVERY 2\CODE\WINDOWS\SECOLLAB-MINISIP-ANDROID-ABFB2CE0694B\LIBMUTIL\VS8_PROJ\DEBUG\FILESYSTEMUTILS.OBJ|C:\MIKEY_CLEAN\IPL - DELIVERY 2\CODE\WINDOWS\SECOLLAB-MINISIP-ANDROID-ABFB2CE0694B\LIBMUTIL\VS8_PROJ\DEBUG\ISTRING.OBJ|C:\MIKEY_CLEAN\IPL - DELIVERY 2\CODE\WINDOWS\SECOLLAB-MINISIP-ANDROID-ABFB2CE0694B\LIBMUTIL\VS8_PROJ\DEBUG\LIBRARYWIN32.OBJ|C:\MIKEY_CLEAN\IPL - DELIVERY 2\CODE\WINDOWS\SECOLLAB-MINISIP-ANDROID-ABFB2CE0694B\LIBMUTIL\VS8_PROJ\DEBUG\MASSERT.OBJ|C:\MIKEY_CLEAN\IPL - DELIVERY 2\CODE\WINDOWS\SECOLLAB-MINISIP-ANDROID-ABFB2CE0694B\LIBMUTIL\VS8_PROJ\DEBUG\MEMOBJECT.OBJ|C:\MIKEY_CLEAN\IPL - DELIVERY 2\CODE\WINDOWS\SECOLLAB-MINISIP-ANDROID-ABFB2CE0694B\LIBMUTIL\VS8_PROJ\DEBUG\MERROR.OBJ|C:\MIKEY_CLEAN\IPL - DELIVERY 2\CODE\WINDOWS\SECOLLAB-MINISIP-ANDROID-ABFB2CE0694B\LIBMUTIL\VS8_PROJ\DEBUG\MESSAGEROUTER.OBJ|C:\MIKEY_CLEAN\IPL - DELIVERY 2\CODE\WINDOWS\SECOLLAB-MINISIP-ANDROID-ABFB2CE0694B\LIBMUTIL\VS8_PROJ\DEBUG\MPLUGINWIN32.OBJ|C:\MIKEY_CLEAN\IPL - DELIVERY 2\CODE\WINDOWS\SECOLLAB-MINISIP-ANDROID-ABFB2CE0694B\LIBMUTIL\VS8_PROJ\DEBUG\MTIMEWIN32.OBJ|C:\MIKEY_CLEAN\IPL - DELIVERY 2\CODE\WINDOWS\SECOLLAB-MINISIP-ANDROID-ABFB2CE0694B\LIBMUTIL\VS8_PROJ\DEBUG\MUTEXWIN32.OBJ|C:\MIKEY_CLEAN\IPL - DELIVERY 2\CODE\WINDOWS\SECOLLAB-MINISIP-ANDROID-ABFB2CE0694B\LIBMUTIL\VS8_PROJ\DEBUG\SEMAPHOREWIN32.OBJ|C:\MIKEY_CLEAN\IPL - DELIVERY 2\CODE\WINDOWS\SECOLLAB-MINISIP-ANDROID-ABFB2CE0694B\LIBMUTIL\VS8_PROJ\DEBUG\SIPURI.OBJ|C:\MIKEY_CLEAN\IPL - DELIVERY 2\CODE\WINDOWS\SECOLLAB-MINISIP-ANDROID-ABFB2CE0694B\LIBMUTIL\VS8_PROJ\DEBUG\STRINGUTILS.OBJ|C:\MIKEY_CLEAN\IPL - DELIVERY 2\CODE\WINDOWS\SECOLLAB-MINISIP-ANDROID-ABFB2CE0694B\LIBMUTIL\VS8_PROJ\DEBUG\TEXTUI.OBJ|C:\MIKEY_CLEAN\IPL - DELIVERY 2\CODE\WINDOWS\SECOLLAB-MINISIP-ANDROID-ABFB2CE0694B\LIBMUTIL\VS8_PROJ\DEBUG\THREADWIN32.OBJ|C:\MIKEY_CLEAN\IPL - DELIVERY 2\CODE\WINDOWS\SECOLLAB-MINISIP-ANDROID-ABFB2CE0694B\LIBMUTIL\VS8_PROJ\DEBUG\TIMESTAMP.OBJ|C:\MIKEY_CLEAN\IPL - DELIVERY 2\CODE\WINDOWS\SECOLLAB-MINISIP-ANDROID-ABFB2CE0694B\LIBMUTIL\VS8_PROJ\DEBUG\VMD5.OBJ|C:\MIKEY_CLEAN\IPL - DELIVERY 2\CODE\WINDOWS\SECOLLAB-MINISIP-ANDROID-ABFB2CE0694B\LIBMUTIL\VS8_PROJ\DEBUG\XMLPARSER.OBJ
C:\WINDOWS\SYSTEM32\TZRES.DLL
C:\MIKEY_CLEAN\IPL - DELIVERY 2\CODE\WINDOWS\SECOLLAB-MINISIP-ANDROID-ABFB2CE0694B\LIBMUTIL\VS8_PROJ\DEBUG\CACHEITEM.OBJ
C:\MIKEY_CLEAN\IPL - DELIVERY 2\CODE\WINDOWS\SECOLLAB-MINISIP-ANDROID-ABFB2CE0694B\LIBMUTIL\VS8_PROJ\DEBUG\CIRCULARBUFFER.OBJ
C:\MIKEY_CLEAN\IPL - DELIVERY 2\CODE\WINDOWS\SECOLLAB-MINISIP-ANDROID-ABFB2CE0694B\LIBMUTIL\VS8_PROJ\DEBUG\COMMANDSTRING.OBJ
C:\MIKEY_CLEAN\IPL - DELIVERY 2\CODE\WINDOWS\SECOLLAB-MINISIP-ANDROID-ABFB2CE0694B\LIBMUTIL\VS8_PROJ\DEBUG\CONDVARWIN32.OBJ
C:\MIKEY_CLEAN\IPL - DELIVERY 2\CODE\WINDOWS\SECOLLAB-MINISIP-ANDROID-ABFB2CE0694B\LIBMUTIL\VS8_PROJ\DEBUG\CRITICALSECTION.OBJ
C:\MIKEY_CLEAN\IPL - DELIVERY 2\CODE\WINDOWS\SECOLLAB-MINISIP-ANDROID-ABFB2CE0694B\LIBMUTIL\VS8_PROJ\DEBUG\DBG.OBJ
C:\MIKEY_CLEAN\IPL - DELIVERY 2\CODE\WINDOWS\SECOLLAB-MINISIP-ANDROID-ABFB2CE0694B\LIBMUTIL\VS8_PROJ\DEBUG\EXCEPTION.OBJ
C:\MIKEY_CLEAN\IPL - DELIVERY 2\CODE\WINDOWS\SECOLLAB-MINISIP-ANDROID-ABFB2CE0694B\LIBMUTIL\VS8_PROJ\DEBUG\FILESYSTEM.OBJ
C:\MIKEY_CLEAN\IPL - DELIVERY 2\CODE\WINDOWS\SECOLLAB-MINISIP-ANDROID-ABFB2CE0694B\LIBMUTIL\VS8_PROJ\DEBUG\FILESYSTEMUTILS.OBJ
C:\MIKEY_CLEAN\IPL - DELIVERY 2\CODE\WINDOWS\SECOLLAB-MINISIP-ANDROID-ABFB2CE0694B\LIBMUTIL\VS8_PROJ\DEBUG\ISTRING.OBJ
C:\MIKEY_CLEAN\IPL - DELIVERY 2\CODE\WINDOWS\SECOLLAB-MINISIP-ANDROID-ABFB2CE0694B\LIBMUTIL\VS8_PROJ\DEBUG\LIBRARYWIN32.OBJ
C:\MIKEY_CLEAN\IPL - DELIVERY 2\CODE\WINDOWS\SECOLLAB-MINISIP-ANDROID-ABFB2CE0694B\LIBMUTIL\VS8_PROJ\DEBUG\MASSERT.OBJ
C:\MIKEY_CLEAN\IPL - DELIVERY 2\CODE\WINDOWS\SECOLLAB-MINISIP-ANDROID-ABFB2CE0694B\LIBMUTIL\VS8_PROJ\DEBUG\MEMOBJECT.OBJ
C:\MIKEY_CLEAN\IPL - DELIVERY 2\CODE\WINDOWS\SECOLLAB-MINISIP-ANDROID-ABFB2CE0694B\LIBMUTIL\VS8_PROJ\DEBUG\MERROR.OBJ
C:\MIKEY_CLEAN\IPL - DELIVERY 2\CODE\WINDOWS\SECOLLAB-MINISIP-ANDROID-ABFB2CE0694B\LIBMUTIL\VS8_PROJ\DEBUG\MESSAGEROUTER.OBJ
C:\MIKEY_CLEAN\IPL - DELIVERY 2\CODE\WINDOWS\SECOLLAB-MINISIP-ANDROID-ABFB2CE0694B\LIBMUTIL\VS8_PROJ\DEBUG\MPLUGINWIN32.OBJ
C:\MIKEY_CLEAN\IPL - DELIVERY 2\CODE\WINDOWS\SECOLLAB-MINISIP-ANDROID-ABFB2CE0694B\LIBMUTIL\VS8_PROJ\DEBUG\MTIMEWIN32.OBJ
C:\MIKEY_CLEAN\IPL - DELIVERY 2\CODE\WINDOWS\SECOLLAB-MINISIP-ANDROID-ABFB2CE0694B\LIBMUTIL\VS8_PROJ\DEBUG\MUTEXWIN32.OBJ
C:\MIKEY_CLEAN\IPL - DELIVERY 2\CODE\WINDOWS\SECOLLAB-MINISIP-ANDROID-ABFB2CE0694B\LIBMUTIL\VS8_PROJ\DEBUG\SEMAPHOREWIN32.OBJ
C:\MIKEY_CLEAN\IPL - DELIVERY 2\CODE\WINDOWS\SECOLLAB-MINISIP-ANDROID-ABFB2CE0694B\LIBMUTIL\VS8_PROJ\DEBUG\SIPURI.OBJ
C:\MIKEY_CLEAN\IPL - DELIVERY 2\CODE\WINDOWS\SECOLLAB-MINISIP-ANDROID-ABFB2CE0694B\LIBMUTIL\VS8_PROJ\DEBUG\STRINGUTILS.OBJ
C:\MIKEY_CLEAN\IPL - DELIVERY 2\CODE\WINDOWS\SECOLLAB-MINISIP-ANDROID-ABFB2CE0694B\LIBMUTIL\VS8_PROJ\DEBUG\TEXTUI.OBJ
C:\MIKEY_CLEAN\IPL - DELIVERY 2\CODE\WINDOWS\SECOLLAB-MINISIP-ANDROID-ABFB2CE0694B\LIBMUTIL\VS8_PROJ\DEBUG\THREADWIN32.OBJ
C:\MIKEY_CLEAN\IPL - DELIVERY 2\CODE\WINDOWS\SECOLLAB-MINISIP-ANDROID-ABFB2CE0694B\LIBMUTIL\VS8_PROJ\DEBUG\TIMESTAMP.OBJ
C:\MIKEY_CLEAN\IPL - DELIVERY 2\CODE\WINDOWS\SECOLLAB-MINISIP-ANDROID-ABFB2CE0694B\LIBMUTIL\VS8_PROJ\DEBUG\VMD5.OBJ
C:\MIKEY_CLEAN\IPL - DELIVERY 2\CODE\WINDOWS\SECOLLAB-MINISIP-ANDROID-ABFB2CE0694B\LIBMUTIL\VS8_PROJ\DEBUG\XMLPARSER.OBJ
C:\WINDOWS\GLOBALIZATION\SORTING\SORTDEFAULT.NLS
