^C:\CODE\IPL - DELIVERY 2\CODE\WINDOWS\SECOLLAB-MINISIP-ANDROID-ABFB2CE0694B\LIBMIKEY\KEYAGREEMENT\KEYAGREEMENT.CXX
/c /I..\include /I..\..\libmutil\include /I..\..\libmcrypto\include /Zi /nologo /W3 /WX- /O2 /Oy- /D LIBMIKEY_EXPORTS /D _UNICODE /D UNICODE /Gm- /EHsc /MD /GS /fp:precise /Zc:wchar_t /Zc:forScope /Fo"RELEASE\\" /Fd"RELEASE\VC110.PDB" /Gd /TP /analyze- C:\CODE\IPL - DELIVERY 2\CODE\WINDOWS\SECOLLAB-MINISIP-ANDROID-ABFB2CE0694B\LIBMIKEY\KEYAGREEMENT\KEYAGREEMENT.CXX
^C:\CODE\IPL - DELIVERY 2\CODE\WINDOWS\SECOLLAB-MINISIP-ANDROID-ABFB2CE0694B\LIBMIKEY\KEYAGREEMENT\KEYAGREEMENTDH.CXX
/c /I..\include /I..\..\libmutil\include /I..\..\libmcrypto\include /Zi /nologo /W3 /WX- /O2 /Oy- /D LIBMIKEY_EXPORTS /D _UNICODE /D UNICODE /Gm- /EHsc /MD /GS /fp:precise /Zc:wchar_t /Zc:forScope /Fo"RELEASE\\" /Fd"RELEASE\VC110.PDB" /Gd /TP /analyze- C:\CODE\IPL - DELIVERY 2\CODE\WINDOWS\SECOLLAB-MINISIP-ANDROID-ABFB2CE0694B\LIBMIKEY\KEYAGREEMENT\KEYAGREEMENTDH.CXX
^C:\CODE\IPL - DELIVERY 2\CODE\WINDOWS\SECOLLAB-MINISIP-ANDROID-ABFB2CE0694B\LIBMIKEY\KEYAGREEMENT\KEYAGREEMENTDHHMAC.CXX
/c /I..\include /I..\..\libmutil\include /I..\..\libmcrypto\include /Zi /nologo /W3 /WX- /O2 /Oy- /D LIBMIKEY_EXPORTS /D _UNICODE /D UNICODE /Gm- /EHsc /MD /GS /fp:precise /Zc:wchar_t /Zc:forScope /Fo"RELEASE\\" /Fd"RELEASE\VC110.PDB" /Gd /TP /analyze- C:\CODE\IPL - DELIVERY 2\CODE\WINDOWS\SECOLLAB-MINISIP-ANDROID-ABFB2CE0694B\LIBMIKEY\KEYAGREEMENT\KEYAGREEMENTDHHMAC.CXX
^C:\CODE\IPL - DELIVERY 2\CODE\WINDOWS\SECOLLAB-MINISIP-ANDROID-ABFB2CE0694B\LIBMIKEY\KEYAGREEMENT\KEYAGREEMENTPKE.CXX
/c /I..\include /I..\..\libmutil\include /I..\..\libmcrypto\include /Zi /nologo /W3 /WX- /O2 /Oy- /D LIBMIKEY_EXPORTS /D _UNICODE /D UNICODE /Gm- /EHsc /MD /GS /fp:precise /Zc:wchar_t /Zc:forScope /Fo"RELEASE\\" /Fd"RELEASE\VC110.PDB" /Gd /TP /analyze- C:\CODE\IPL - DELIVERY 2\CODE\WINDOWS\SECOLLAB-MINISIP-ANDROID-ABFB2CE0694B\LIBMIKEY\KEYAGREEMENT\KEYAGREEMENTPKE.CXX
^C:\CODE\IPL - DELIVERY 2\CODE\WINDOWS\SECOLLAB-MINISIP-ANDROID-ABFB2CE0694B\LIBMIKEY\KEYAGREEMENT\KEYAGREEMENTPSK.CXX
/c /I..\include /I..\..\libmutil\include /I..\..\libmcrypto\include /Zi /nologo /W3 /WX- /O2 /Oy- /D LIBMIKEY_EXPORTS /D _UNICODE /D UNICODE /Gm- /EHsc /MD /GS /fp:precise /Zc:wchar_t /Zc:forScope /Fo"RELEASE\\" /Fd"RELEASE\VC110.PDB" /Gd /TP /analyze- C:\CODE\IPL - DELIVERY 2\CODE\WINDOWS\SECOLLAB-MINISIP-ANDROID-ABFB2CE0694B\LIBMIKEY\KEYAGREEMENT\KEYAGREEMENTPSK.CXX
^C:\CODE\IPL - DELIVERY 2\CODE\WINDOWS\SECOLLAB-MINISIP-ANDROID-ABFB2CE0694B\LIBMIKEY\KEYAGREEMENT\KEYAGREEMENTRSAR.CXX
/c /I..\include /I..\..\libmutil\include /I..\..\libmcrypto\include /Zi /nologo /W3 /WX- /O2 /Oy- /D LIBMIKEY_EXPORTS /D _UNICODE /D UNICODE /Gm- /EHsc /MD /GS /fp:precise /Zc:wchar_t /Zc:forScope /Fo"RELEASE\\" /Fd"RELEASE\VC110.PDB" /Gd /TP /analyze- C:\CODE\IPL - DELIVERY 2\CODE\WINDOWS\SECOLLAB-MINISIP-ANDROID-ABFB2CE0694B\LIBMIKEY\KEYAGREEMENT\KEYAGREEMENTRSAR.CXX
^C:\CODE\IPL - DELIVERY 2\CODE\WINDOWS\SECOLLAB-MINISIP-ANDROID-ABFB2CE0694B\LIBMIKEY\KEYAGREEMENT\KEYAGREEMENTSAKKE.CXX
/c /I..\include /I..\..\libmutil\include /I..\..\libmcrypto\include /Zi /nologo /W3 /WX- /O2 /Oy- /D LIBMIKEY_EXPORTS /D _UNICODE /D UNICODE /Gm- /EHsc /MD /GS /fp:precise /Zc:wchar_t /Zc:forScope /Fo"RELEASE\\" /Fd"RELEASE\VC110.PDB" /Gd /TP /analyze- C:\CODE\IPL - DELIVERY 2\CODE\WINDOWS\SECOLLAB-MINISIP-ANDROID-ABFB2CE0694B\LIBMIKEY\KEYAGREEMENT\KEYAGREEMENTSAKKE.CXX
^C:\CODE\IPL - DELIVERY 2\CODE\WINDOWS\SECOLLAB-MINISIP-ANDROID-ABFB2CE0694B\LIBMIKEY\KEYAGREEMENT\KEYVALIDITY.CXX
/c /I..\include /I..\..\libmutil\include /I..\..\libmcrypto\include /Zi /nologo /W3 /WX- /O2 /Oy- /D LIBMIKEY_EXPORTS /D _UNICODE /D UNICODE /Gm- /EHsc /MD /GS /fp:precise /Zc:wchar_t /Zc:forScope /Fo"RELEASE\\" /Fd"RELEASE\VC110.PDB" /Gd /TP /analyze- C:\CODE\IPL - DELIVERY 2\CODE\WINDOWS\SECOLLAB-MINISIP-ANDROID-ABFB2CE0694B\LIBMIKEY\KEYAGREEMENT\KEYVALIDITY.CXX
^C:\CODE\IPL - DELIVERY 2\CODE\WINDOWS\SECOLLAB-MINISIP-ANDROID-ABFB2CE0694B\LIBMIKEY\MIKEY\MIKEY.CXX
/c /I..\include /I..\..\libmutil\include /I..\..\libmcrypto\include /Zi /nologo /W3 /WX- /O2 /Oy- /D LIBMIKEY_EXPORTS /D _UNICODE /D UNICODE /Gm- /EHsc /MD /GS /fp:precise /Zc:wchar_t /Zc:forScope /Fo"RELEASE\\" /Fd"RELEASE\VC110.PDB" /Gd /TP /analyze- C:\CODE\IPL - DELIVERY 2\CODE\WINDOWS\SECOLLAB-MINISIP-ANDROID-ABFB2CE0694B\LIBMIKEY\MIKEY\MIKEY.CXX
^C:\CODE\IPL - DELIVERY 2\CODE\WINDOWS\SECOLLAB-MINISIP-ANDROID-ABFB2CE0694B\LIBMIKEY\MIKEY\MIKEYCSIDMAP.CXX
/c /I..\include /I..\..\libmutil\include /I..\..\libmcrypto\include /Zi /nologo /W3 /WX- /O2 /Oy- /D LIBMIKEY_EXPORTS /D _UNICODE /D UNICODE /Gm- /EHsc /MD /GS /fp:precise /Zc:wchar_t /Zc:forScope /Fo"RELEASE\\" /Fd"RELEASE\VC110.PDB" /Gd /TP /analyze- C:\CODE\IPL - DELIVERY 2\CODE\WINDOWS\SECOLLAB-MINISIP-ANDROID-ABFB2CE0694B\LIBMIKEY\MIKEY\MIKEYCSIDMAP.CXX
^C:\CODE\IPL - DELIVERY 2\CODE\WINDOWS\SECOLLAB-MINISIP-ANDROID-ABFB2CE0694B\LIBMIKEY\MIKEY\MIKEYEXCEPTION.CXX
/c /I..\include /I..\..\libmutil\include /I..\..\libmcrypto\include /Zi /nologo /W3 /WX- /O2 /Oy- /D LIBMIKEY_EXPORTS /D _UNICODE /D UNICODE /Gm- /EHsc /MD /GS /fp:precise /Zc:wchar_t /Zc:forScope /Fo"RELEASE\\" /Fd"RELEASE\VC110.PDB" /Gd /TP /analyze- C:\CODE\IPL - DELIVERY 2\CODE\WINDOWS\SECOLLAB-MINISIP-ANDROID-ABFB2CE0694B\LIBMIKEY\MIKEY\MIKEYEXCEPTION.CXX
^C:\CODE\IPL - DELIVERY 2\CODE\WINDOWS\SECOLLAB-MINISIP-ANDROID-ABFB2CE0694B\LIBMIKEY\MIKEY\MIKEYMESSAGE.CXX
/c /I..\include /I..\..\libmutil\include /I..\..\libmcrypto\include /Zi /nologo /W3 /WX- /O2 /Oy- /D LIBMIKEY_EXPORTS /D _UNICODE /D UNICODE /Gm- /EHsc /MD /GS /fp:precise /Zc:wchar_t /Zc:forScope /Fo"RELEASE\\" /Fd"RELEASE\VC110.PDB" /Gd /TP /analyze- C:\CODE\IPL - DELIVERY 2\CODE\WINDOWS\SECOLLAB-MINISIP-ANDROID-ABFB2CE0694B\LIBMIKEY\MIKEY\MIKEYMESSAGE.CXX
^C:\CODE\IPL - DELIVERY 2\CODE\WINDOWS\SECOLLAB-MINISIP-ANDROID-ABFB2CE0694B\LIBMIKEY\MIKEY\MIKEYMESSAGEDH.CXX
/c /I..\include /I..\..\libmutil\include /I..\..\libmcrypto\include /Zi /nologo /W3 /WX- /O2 /Oy- /D LIBMIKEY_EXPORTS /D _UNICODE /D UNICODE /Gm- /EHsc /MD /GS /fp:precise /Zc:wchar_t /Zc:forScope /Fo"RELEASE\\" /Fd"RELEASE\VC110.PDB" /Gd /TP /analyze- C:\CODE\IPL - DELIVERY 2\CODE\WINDOWS\SECOLLAB-MINISIP-ANDROID-ABFB2CE0694B\LIBMIKEY\MIKEY\MIKEYMESSAGEDH.CXX
^C:\CODE\IPL - DELIVERY 2\CODE\WINDOWS\SECOLLAB-MINISIP-ANDROID-ABFB2CE0694B\LIBMIKEY\MIKEY\MIKEYMESSAGEDHHMAC.CXX
/c /I..\include /I..\..\libmutil\include /I..\..\libmcrypto\include /Zi /nologo /W3 /WX- /O2 /Oy- /D LIBMIKEY_EXPORTS /D _UNICODE /D UNICODE /Gm- /EHsc /MD /GS /fp:precise /Zc:wchar_t /Zc:forScope /Fo"RELEASE\\" /Fd"RELEASE\VC110.PDB" /Gd /TP /analyze- C:\CODE\IPL - DELIVERY 2\CODE\WINDOWS\SECOLLAB-MINISIP-ANDROID-ABFB2CE0694B\LIBMIKEY\MIKEY\MIKEYMESSAGEDHHMAC.CXX
^C:\CODE\IPL - DELIVERY 2\CODE\WINDOWS\SECOLLAB-MINISIP-ANDROID-ABFB2CE0694B\LIBMIKEY\MIKEY\MIKEYMESSAGEPKE.CXX
/c /I..\include /I..\..\libmutil\include /I..\..\libmcrypto\include /Zi /nologo /W3 /WX- /O2 /Oy- /D LIBMIKEY_EXPORTS /D _UNICODE /D UNICODE /Gm- /EHsc /MD /GS /fp:precise /Zc:wchar_t /Zc:forScope /Fo"RELEASE\\" /Fd"RELEASE\VC110.PDB" /Gd /TP /analyze- C:\CODE\IPL - DELIVERY 2\CODE\WINDOWS\SECOLLAB-MINISIP-ANDROID-ABFB2CE0694B\LIBMIKEY\MIKEY\MIKEYMESSAGEPKE.CXX
^C:\CODE\IPL - DELIVERY 2\CODE\WINDOWS\SECOLLAB-MINISIP-ANDROID-ABFB2CE0694B\LIBMIKEY\MIKEY\MIKEYMESSAGEPSK.CXX
/c /I..\include /I..\..\libmutil\include /I..\..\libmcrypto\include /Zi /nologo /W3 /WX- /O2 /Oy- /D LIBMIKEY_EXPORTS /D _UNICODE /D UNICODE /Gm- /EHsc /MD /GS /fp:precise /Zc:wchar_t /Zc:forScope /Fo"RELEASE\\" /Fd"RELEASE\VC110.PDB" /Gd /TP /analyze- C:\CODE\IPL - DELIVERY 2\CODE\WINDOWS\SECOLLAB-MINISIP-ANDROID-ABFB2CE0694B\LIBMIKEY\MIKEY\MIKEYMESSAGEPSK.CXX
^C:\CODE\IPL - DELIVERY 2\CODE\WINDOWS\SECOLLAB-MINISIP-ANDROID-ABFB2CE0694B\LIBMIKEY\MIKEY\MIKEYMESSAGERSAR.CXX
/c /I..\include /I..\..\libmutil\include /I..\..\libmcrypto\include /Zi /nologo /W3 /WX- /O2 /Oy- /D LIBMIKEY_EXPORTS /D _UNICODE /D UNICODE /Gm- /EHsc /MD /GS /fp:precise /Zc:wchar_t /Zc:forScope /Fo"RELEASE\\" /Fd"RELEASE\VC110.PDB" /Gd /TP /analyze- C:\CODE\IPL - DELIVERY 2\CODE\WINDOWS\SECOLLAB-MINISIP-ANDROID-ABFB2CE0694B\LIBMIKEY\MIKEY\MIKEYMESSAGERSAR.CXX
^C:\CODE\IPL - DELIVERY 2\CODE\WINDOWS\SECOLLAB-MINISIP-ANDROID-ABFB2CE0694B\LIBMIKEY\MIKEY\MIKEYPAYLOAD.CXX
/c /I..\include /I..\..\libmutil\include /I..\..\libmcrypto\include /Zi /nologo /W3 /WX- /O2 /Oy- /D LIBMIKEY_EXPORTS /D _UNICODE /D UNICODE /Gm- /EHsc /MD /GS /fp:precise /Zc:wchar_t /Zc:forScope /Fo"RELEASE\\" /Fd"RELEASE\VC110.PDB" /Gd /TP /analyze- C:\CODE\IPL - DELIVERY 2\CODE\WINDOWS\SECOLLAB-MINISIP-ANDROID-ABFB2CE0694B\LIBMIKEY\MIKEY\MIKEYPAYLOAD.CXX
^C:\CODE\IPL - DELIVERY 2\CODE\WINDOWS\SECOLLAB-MINISIP-ANDROID-ABFB2CE0694B\LIBMIKEY\MIKEY\MIKEYPAYLOADCERT.CXX
/c /I..\include /I..\..\libmutil\include /I..\..\libmcrypto\include /Zi /nologo /W3 /WX- /O2 /Oy- /D LIBMIKEY_EXPORTS /D _UNICODE /D UNICODE /Gm- /EHsc /MD /GS /fp:precise /Zc:wchar_t /Zc:forScope /Fo"RELEASE\\" /Fd"RELEASE\VC110.PDB" /Gd /TP /analyze- C:\CODE\IPL - DELIVERY 2\CODE\WINDOWS\SECOLLAB-MINISIP-ANDROID-ABFB2CE0694B\LIBMIKEY\MIKEY\MIKEYPAYLOADCERT.CXX
^C:\CODE\IPL - DELIVERY 2\CODE\WINDOWS\SECOLLAB-MINISIP-ANDROID-ABFB2CE0694B\LIBMIKEY\MIKEY\MIKEYPAYLOADCHASH.CXX
/c /I..\include /I..\..\libmutil\include /I..\..\libmcrypto\include /Zi /nologo /W3 /WX- /O2 /Oy- /D LIBMIKEY_EXPORTS /D _UNICODE /D UNICODE /Gm- /EHsc /MD /GS /fp:precise /Zc:wchar_t /Zc:forScope /Fo"RELEASE\\" /Fd"RELEASE\VC110.PDB" /Gd /TP /analyze- C:\CODE\IPL - DELIVERY 2\CODE\WINDOWS\SECOLLAB-MINISIP-ANDROID-ABFB2CE0694B\LIBMIKEY\MIKEY\MIKEYPAYLOADCHASH.CXX
^C:\CODE\IPL - DELIVERY 2\CODE\WINDOWS\SECOLLAB-MINISIP-ANDROID-ABFB2CE0694B\LIBMIKEY\MIKEY\MIKEYPAYLOADDH.CXX
/c /I..\include /I..\..\libmutil\include /I..\..\libmcrypto\include /Zi /nologo /W3 /WX- /O2 /Oy- /D LIBMIKEY_EXPORTS /D _UNICODE /D UNICODE /Gm- /EHsc /MD /GS /fp:precise /Zc:wchar_t /Zc:forScope /Fo"RELEASE\\" /Fd"RELEASE\VC110.PDB" /Gd /TP /analyze- C:\CODE\IPL - DELIVERY 2\CODE\WINDOWS\SECOLLAB-MINISIP-ANDROID-ABFB2CE0694B\LIBMIKEY\MIKEY\MIKEYPAYLOADDH.CXX
^C:\CODE\IPL - DELIVERY 2\CODE\WINDOWS\SECOLLAB-MINISIP-ANDROID-ABFB2CE0694B\LIBMIKEY\MIKEY\MIKEYPAYLOADERR.CXX
/c /I..\include /I..\..\libmutil\include /I..\..\libmcrypto\include /Zi /nologo /W3 /WX- /O2 /Oy- /D LIBMIKEY_EXPORTS /D _UNICODE /D UNICODE /Gm- /EHsc /MD /GS /fp:precise /Zc:wchar_t /Zc:forScope /Fo"RELEASE\\" /Fd"RELEASE\VC110.PDB" /Gd /TP /analyze- C:\CODE\IPL - DELIVERY 2\CODE\WINDOWS\SECOLLAB-MINISIP-ANDROID-ABFB2CE0694B\LIBMIKEY\MIKEY\MIKEYPAYLOADERR.CXX
^C:\CODE\IPL - DELIVERY 2\CODE\WINDOWS\SECOLLAB-MINISIP-ANDROID-ABFB2CE0694B\LIBMIKEY\MIKEY\MIKEYPAYLOADGENERALEXTENSION.CXX
/c /I..\include /I..\..\libmutil\include /I..\..\libmcrypto\include /Zi /nologo /W3 /WX- /O2 /Oy- /D LIBMIKEY_EXPORTS /D _UNICODE /D UNICODE /Gm- /EHsc /MD /GS /fp:precise /Zc:wchar_t /Zc:forScope /Fo"RELEASE\\" /Fd"RELEASE\VC110.PDB" /Gd /TP /analyze- C:\CODE\IPL - DELIVERY 2\CODE\WINDOWS\SECOLLAB-MINISIP-ANDROID-ABFB2CE0694B\LIBMIKEY\MIKEY\MIKEYPAYLOADGENERALEXTENSION.CXX
^C:\CODE\IPL - DELIVERY 2\CODE\WINDOWS\SECOLLAB-MINISIP-ANDROID-ABFB2CE0694B\LIBMIKEY\MIKEY\MIKEYPAYLOADHDR.CXX
/c /I..\include /I..\..\libmutil\include /I..\..\libmcrypto\include /Zi /nologo /W3 /WX- /O2 /Oy- /D LIBMIKEY_EXPORTS /D _UNICODE /D UNICODE /Gm- /EHsc /MD /GS /fp:precise /Zc:wchar_t /Zc:forScope /Fo"RELEASE\\" /Fd"RELEASE\VC110.PDB" /Gd /TP /analyze- C:\CODE\IPL - DELIVERY 2\CODE\WINDOWS\SECOLLAB-MINISIP-ANDROID-ABFB2CE0694B\LIBMIKEY\MIKEY\MIKEYPAYLOADHDR.CXX
^C:\CODE\IPL - DELIVERY 2\CODE\WINDOWS\SECOLLAB-MINISIP-ANDROID-ABFB2CE0694B\LIBMIKEY\MIKEY\MIKEYPAYLOADID.CXX
/c /I..\include /I..\..\libmutil\include /I..\..\libmcrypto\include /Zi /nologo /W3 /WX- /O2 /Oy- /D LIBMIKEY_EXPORTS /D _UNICODE /D UNICODE /Gm- /EHsc /MD /GS /fp:precise /Zc:wchar_t /Zc:forScope /Fo"RELEASE\\" /Fd"RELEASE\VC110.PDB" /Gd /TP /analyze- C:\CODE\IPL - DELIVERY 2\CODE\WINDOWS\SECOLLAB-MINISIP-ANDROID-ABFB2CE0694B\LIBMIKEY\MIKEY\MIKEYPAYLOADID.CXX
^C:\CODE\IPL - DELIVERY 2\CODE\WINDOWS\SECOLLAB-MINISIP-ANDROID-ABFB2CE0694B\LIBMIKEY\MIKEY\MIKEYPAYLOADKEMAC.CXX
/c /I..\include /I..\..\libmutil\include /I..\..\libmcrypto\include /Zi /nologo /W3 /WX- /O2 /Oy- /D LIBMIKEY_EXPORTS /D _UNICODE /D UNICODE /Gm- /EHsc /MD /GS /fp:precise /Zc:wchar_t /Zc:forScope /Fo"RELEASE\\" /Fd"RELEASE\VC110.PDB" /Gd /TP /analyze- C:\CODE\IPL - DELIVERY 2\CODE\WINDOWS\SECOLLAB-MINISIP-ANDROID-ABFB2CE0694B\LIBMIKEY\MIKEY\MIKEYPAYLOADKEMAC.CXX
^C:\CODE\IPL - DELIVERY 2\CODE\WINDOWS\SECOLLAB-MINISIP-ANDROID-ABFB2CE0694B\LIBMIKEY\MIKEY\MIKEYPAYLOADKEYDATA.CXX
/c /I..\include /I..\..\libmutil\include /I..\..\libmcrypto\include /Zi /nologo /W3 /WX- /O2 /Oy- /D LIBMIKEY_EXPORTS /D _UNICODE /D UNICODE /Gm- /EHsc /MD /GS /fp:precise /Zc:wchar_t /Zc:forScope /Fo"RELEASE\\" /Fd"RELEASE\VC110.PDB" /Gd /TP /analyze- C:\CODE\IPL - DELIVERY 2\CODE\WINDOWS\SECOLLAB-MINISIP-ANDROID-ABFB2CE0694B\LIBMIKEY\MIKEY\MIKEYPAYLOADKEYDATA.CXX
^C:\CODE\IPL - DELIVERY 2\CODE\WINDOWS\SECOLLAB-MINISIP-ANDROID-ABFB2CE0694B\LIBMIKEY\MIKEY\MIKEYPAYLOADPKE.CXX
/c /I..\include /I..\..\libmutil\include /I..\..\libmcrypto\include /Zi /nologo /W3 /WX- /O2 /Oy- /D LIBMIKEY_EXPORTS /D _UNICODE /D UNICODE /Gm- /EHsc /MD /GS /fp:precise /Zc:wchar_t /Zc:forScope /Fo"RELEASE\\" /Fd"RELEASE\VC110.PDB" /Gd /TP /analyze- C:\CODE\IPL - DELIVERY 2\CODE\WINDOWS\SECOLLAB-MINISIP-ANDROID-ABFB2CE0694B\LIBMIKEY\MIKEY\MIKEYPAYLOADPKE.CXX
^C:\CODE\IPL - DELIVERY 2\CODE\WINDOWS\SECOLLAB-MINISIP-ANDROID-ABFB2CE0694B\LIBMIKEY\MIKEY\MIKEYPAYLOADRAND.CXX
/c /I..\include /I..\..\libmutil\include /I..\..\libmcrypto\include /Zi /nologo /W3 /WX- /O2 /Oy- /D LIBMIKEY_EXPORTS /D _UNICODE /D UNICODE /Gm- /EHsc /MD /GS /fp:precise /Zc:wchar_t /Zc:forScope /Fo"RELEASE\\" /Fd"RELEASE\VC110.PDB" /Gd /TP /analyze- C:\CODE\IPL - DELIVERY 2\CODE\WINDOWS\SECOLLAB-MINISIP-ANDROID-ABFB2CE0694B\LIBMIKEY\MIKEY\MIKEYPAYLOADRAND.CXX
^C:\CODE\IPL - DELIVERY 2\CODE\WINDOWS\SECOLLAB-MINISIP-ANDROID-ABFB2CE0694B\LIBMIKEY\MIKEY\MIKEYPAYLOADSIGN.CXX
/c /I..\include /I..\..\libmutil\include /I..\..\libmcrypto\include /Zi /nologo /W3 /WX- /O2 /Oy- /D LIBMIKEY_EXPORTS /D _UNICODE /D UNICODE /Gm- /EHsc /MD /GS /fp:precise /Zc:wchar_t /Zc:forScope /Fo"RELEASE\\" /Fd"RELEASE\VC110.PDB" /Gd /TP /analyze- C:\CODE\IPL - DELIVERY 2\CODE\WINDOWS\SECOLLAB-MINISIP-ANDROID-ABFB2CE0694B\LIBMIKEY\MIKEY\MIKEYPAYLOADSIGN.CXX
^C:\CODE\IPL - DELIVERY 2\CODE\WINDOWS\SECOLLAB-MINISIP-ANDROID-ABFB2CE0694B\LIBMIKEY\MIKEY\MIKEYPAYLOADSP.CXX
/c /I..\include /I..\..\libmutil\include /I..\..\libmcrypto\include /Zi /nologo /W3 /WX- /O2 /Oy- /D LIBMIKEY_EXPORTS /D _UNICODE /D UNICODE /Gm- /EHsc /MD /GS /fp:precise /Zc:wchar_t /Zc:forScope /Fo"RELEASE\\" /Fd"RELEASE\VC110.PDB" /Gd /TP /analyze- C:\CODE\IPL - DELIVERY 2\CODE\WINDOWS\SECOLLAB-MINISIP-ANDROID-ABFB2CE0694B\LIBMIKEY\MIKEY\MIKEYPAYLOADSP.CXX
^C:\CODE\IPL - DELIVERY 2\CODE\WINDOWS\SECOLLAB-MINISIP-ANDROID-ABFB2CE0694B\LIBMIKEY\MIKEY\MIKEYPAYLOADT.CXX
/c /I..\include /I..\..\libmutil\include /I..\..\libmcrypto\include /Zi /nologo /W3 /WX- /O2 /Oy- /D LIBMIKEY_EXPORTS /D _UNICODE /D UNICODE /Gm- /EHsc /MD /GS /fp:precise /Zc:wchar_t /Zc:forScope /Fo"RELEASE\\" /Fd"RELEASE\VC110.PDB" /Gd /TP /analyze- C:\CODE\IPL - DELIVERY 2\CODE\WINDOWS\SECOLLAB-MINISIP-ANDROID-ABFB2CE0694B\LIBMIKEY\MIKEY\MIKEYPAYLOADT.CXX
^C:\CODE\IPL - DELIVERY 2\CODE\WINDOWS\SECOLLAB-MINISIP-ANDROID-ABFB2CE0694B\LIBMIKEY\MIKEY\MIKEYPAYLOADV.CXX
/c /I..\include /I..\..\libmutil\include /I..\..\libmcrypto\include /Zi /nologo /W3 /WX- /O2 /Oy- /D LIBMIKEY_EXPORTS /D _UNICODE /D UNICODE /Gm- /EHsc /MD /GS /fp:precise /Zc:wchar_t /Zc:forScope /Fo"RELEASE\\" /Fd"RELEASE\VC110.PDB" /Gd /TP /analyze- C:\CODE\IPL - DELIVERY 2\CODE\WINDOWS\SECOLLAB-MINISIP-ANDROID-ABFB2CE0694B\LIBMIKEY\MIKEY\MIKEYPAYLOADV.CXX
