^\\NDR-STORAGE.BLACK.NDR\HOMES\AJCOUSI\LATEST LAPTOP BACKUP\MIKEY_CLEAN\IPL - DELIVERY 2\CODE\WINDOWS\SECOLLAB-MINISIP-ANDROID-ABFB2CE0694B\LIBMSIP\SOURCE\HEADERS\SIPHEADERSNAKESM.CXX
/c /I..\include /I..\..\libmcrypto\include /I..\..\libmnetutil\include /I..\..\libmutil\include /Zi /nologo /W3 /WX- /O2 /Oy- /GL /D _UNICODE /D UNICODE /Gm- /EHsc /MD /GS /fp:precise /Zc:wchar_t /Zc:forScope /Fo"RELEASE\\" /Fd"RELEASE\VC120.PDB" /Gd /TP /analyze- \\NDR-STORAGE.BLACK.NDR\HOMES\AJCOUSI\LATEST LAPTOP BACKUP\MIKEY_CLEAN\IPL - DELIVERY 2\CODE\WINDOWS\SECOLLAB-MINISIP-ANDROID-ABFB2CE0694B\LIBMSIP\SOURCE\HEADERS\SIPHEADERSNAKESM.CXX
^\\NDR-STORAGE.BLACK.NDR\HOMES\AJCOUSI\LATEST LAPTOP BACKUP\MIKEY_CLEAN\IPL - DELIVERY 2\CODE\WINDOWS\SECOLLAB-MINISIP-ANDROID-ABFB2CE0694B\LIBMSIP\SOURCE\DIALOGS\SIPDIALOG.CXX
/c /I..\include /I..\..\libmcrypto\include /I..\..\libmnetutil\include /I..\..\libmutil\include /Zi /nologo /W3 /WX- /O2 /Oy- /GL /D _UNICODE /D UNICODE /Gm- /EHsc /MD /GS /fp:precise /Zc:wchar_t /Zc:forScope /Fo"RELEASE\\" /Fd"RELEASE\VC120.PDB" /Gd /TP /analyze- \\NDR-STORAGE.BLACK.NDR\HOMES\AJCOUSI\LATEST LAPTOP BACKUP\MIKEY_CLEAN\IPL - DELIVERY 2\CODE\WINDOWS\SECOLLAB-MINISIP-ANDROID-ABFB2CE0694B\LIBMSIP\SOURCE\DIALOGS\SIPDIALOG.CXX
^\\NDR-STORAGE.BLACK.NDR\HOMES\AJCOUSI\LATEST LAPTOP BACKUP\MIKEY_CLEAN\IPL - DELIVERY 2\CODE\WINDOWS\SECOLLAB-MINISIP-ANDROID-ABFB2CE0694B\LIBMSIP\SOURCE\DIALOGS\SIPDIALOGMANAGEMENT.CXX
/c /I..\include /I..\..\libmcrypto\include /I..\..\libmnetutil\include /I..\..\libmutil\include /Zi /nologo /W3 /WX- /O2 /Oy- /GL /D _UNICODE /D UNICODE /Gm- /EHsc /MD /GS /fp:precise /Zc:wchar_t /Zc:forScope /Fo"RELEASE\\" /Fd"RELEASE\VC120.PDB" /Gd /TP /analyze- \\NDR-STORAGE.BLACK.NDR\HOMES\AJCOUSI\LATEST LAPTOP BACKUP\MIKEY_CLEAN\IPL - DELIVERY 2\CODE\WINDOWS\SECOLLAB-MINISIP-ANDROID-ABFB2CE0694B\LIBMSIP\SOURCE\DIALOGS\SIPDIALOGMANAGEMENT.CXX
^\\NDR-STORAGE.BLACK.NDR\HOMES\AJCOUSI\LATEST LAPTOP BACKUP\MIKEY_CLEAN\IPL - DELIVERY 2\CODE\WINDOWS\SECOLLAB-MINISIP-ANDROID-ABFB2CE0694B\LIBMSIP\SOURCE\DIALOGS\SIPDIALOGREGISTER.CXX
/c /I..\include /I..\..\libmcrypto\include /I..\..\libmnetutil\include /I..\..\libmutil\include /Zi /nologo /W3 /WX- /O2 /Oy- /GL /D _UNICODE /D UNICODE /Gm- /EHsc /MD /GS /fp:precise /Zc:wchar_t /Zc:forScope /Fo"RELEASE\\" /Fd"RELEASE\VC120.PDB" /Gd /TP /analyze- \\NDR-STORAGE.BLACK.NDR\HOMES\AJCOUSI\LATEST LAPTOP BACKUP\MIKEY_CLEAN\IPL - DELIVERY 2\CODE\WINDOWS\SECOLLAB-MINISIP-ANDROID-ABFB2CE0694B\LIBMSIP\SOURCE\DIALOGS\SIPDIALOGREGISTER.CXX
^\\NDR-STORAGE.BLACK.NDR\HOMES\AJCOUSI\LATEST LAPTOP BACKUP\MIKEY_CLEAN\IPL - DELIVERY 2\CODE\WINDOWS\SECOLLAB-MINISIP-ANDROID-ABFB2CE0694B\LIBMSIP\SOURCE\HEADERS\SIPHEADER.CXX
/c /I..\include /I..\..\libmcrypto\include /I..\..\libmnetutil\include /I..\..\libmutil\include /Zi /nologo /W3 /WX- /O2 /Oy- /GL /D _UNICODE /D UNICODE /Gm- /EHsc /MD /GS /fp:precise /Zc:wchar_t /Zc:forScope /Fo"RELEASE\\" /Fd"RELEASE\VC120.PDB" /Gd /TP /analyze- \\NDR-STORAGE.BLACK.NDR\HOMES\AJCOUSI\LATEST LAPTOP BACKUP\MIKEY_CLEAN\IPL - DELIVERY 2\CODE\WINDOWS\SECOLLAB-MINISIP-ANDROID-ABFB2CE0694B\LIBMSIP\SOURCE\HEADERS\SIPHEADER.CXX
^\\NDR-STORAGE.BLACK.NDR\HOMES\AJCOUSI\LATEST LAPTOP BACKUP\MIKEY_CLEAN\IPL - DELIVERY 2\CODE\WINDOWS\SECOLLAB-MINISIP-ANDROID-ABFB2CE0694B\LIBMSIP\SOURCE\HEADERS\SIPHEADERACCEPT.CXX
/c /I..\include /I..\..\libmcrypto\include /I..\..\libmnetutil\include /I..\..\libmutil\include /Zi /nologo /W3 /WX- /O2 /Oy- /GL /D _UNICODE /D UNICODE /Gm- /EHsc /MD /GS /fp:precise /Zc:wchar_t /Zc:forScope /Fo"RELEASE\\" /Fd"RELEASE\VC120.PDB" /Gd /TP /analyze- \\NDR-STORAGE.BLACK.NDR\HOMES\AJCOUSI\LATEST LAPTOP BACKUP\MIKEY_CLEAN\IPL - DELIVERY 2\CODE\WINDOWS\SECOLLAB-MINISIP-ANDROID-ABFB2CE0694B\LIBMSIP\SOURCE\HEADERS\SIPHEADERACCEPT.CXX
^\\NDR-STORAGE.BLACK.NDR\HOMES\AJCOUSI\LATEST LAPTOP BACKUP\MIKEY_CLEAN\IPL - DELIVERY 2\CODE\WINDOWS\SECOLLAB-MINISIP-ANDROID-ABFB2CE0694B\LIBMSIP\SOURCE\HEADERS\SIPHEADERACCEPTCONTACT.CXX
/c /I..\include /I..\..\libmcrypto\include /I..\..\libmnetutil\include /I..\..\libmutil\include /Zi /nologo /W3 /WX- /O2 /Oy- /GL /D _UNICODE /D UNICODE /Gm- /EHsc /MD /GS /fp:precise /Zc:wchar_t /Zc:forScope /Fo"RELEASE\\" /Fd"RELEASE\VC120.PDB" /Gd /TP /analyze- \\NDR-STORAGE.BLACK.NDR\HOMES\AJCOUSI\LATEST LAPTOP BACKUP\MIKEY_CLEAN\IPL - DELIVERY 2\CODE\WINDOWS\SECOLLAB-MINISIP-ANDROID-ABFB2CE0694B\LIBMSIP\SOURCE\HEADERS\SIPHEADERACCEPTCONTACT.CXX
^\\NDR-STORAGE.BLACK.NDR\HOMES\AJCOUSI\LATEST LAPTOP BACKUP\MIKEY_CLEAN\IPL - DELIVERY 2\CODE\WINDOWS\SECOLLAB-MINISIP-ANDROID-ABFB2CE0694B\LIBMSIP\SOURCE\HEADERS\SIPHEADERALLOW.CXX
/c /I..\include /I..\..\libmcrypto\include /I..\..\libmnetutil\include /I..\..\libmutil\include /Zi /nologo /W3 /WX- /O2 /Oy- /GL /D _UNICODE /D UNICODE /Gm- /EHsc /MD /GS /fp:precise /Zc:wchar_t /Zc:forScope /Fo"RELEASE\\" /Fd"RELEASE\VC120.PDB" /Gd /TP /analyze- \\NDR-STORAGE.BLACK.NDR\HOMES\AJCOUSI\LATEST LAPTOP BACKUP\MIKEY_CLEAN\IPL - DELIVERY 2\CODE\WINDOWS\SECOLLAB-MINISIP-ANDROID-ABFB2CE0694B\LIBMSIP\SOURCE\HEADERS\SIPHEADERALLOW.CXX
^\\NDR-STORAGE.BLACK.NDR\HOMES\AJCOUSI\LATEST LAPTOP BACKUP\MIKEY_CLEAN\IPL - DELIVERY 2\CODE\WINDOWS\SECOLLAB-MINISIP-ANDROID-ABFB2CE0694B\LIBMSIP\SOURCE\HEADERS\SIPHEADERALLOWEVENTS.CXX
/c /I..\include /I..\..\libmcrypto\include /I..\..\libmnetutil\include /I..\..\libmutil\include /Zi /nologo /W3 /WX- /O2 /Oy- /GL /D _UNICODE /D UNICODE /Gm- /EHsc /MD /GS /fp:precise /Zc:wchar_t /Zc:forScope /Fo"RELEASE\\" /Fd"RELEASE\VC120.PDB" /Gd /TP /analyze- \\NDR-STORAGE.BLACK.NDR\HOMES\AJCOUSI\LATEST LAPTOP BACKUP\MIKEY_CLEAN\IPL - DELIVERY 2\CODE\WINDOWS\SECOLLAB-MINISIP-ANDROID-ABFB2CE0694B\LIBMSIP\SOURCE\HEADERS\SIPHEADERALLOWEVENTS.CXX
^\\NDR-STORAGE.BLACK.NDR\HOMES\AJCOUSI\LATEST LAPTOP BACKUP\MIKEY_CLEAN\IPL - DELIVERY 2\CODE\WINDOWS\SECOLLAB-MINISIP-ANDROID-ABFB2CE0694B\LIBMSIP\SOURCE\HEADERS\SIPHEADERAUTHORIZATION.CXX
/c /I..\include /I..\..\libmcrypto\include /I..\..\libmnetutil\include /I..\..\libmutil\include /Zi /nologo /W3 /WX- /O2 /Oy- /GL /D _UNICODE /D UNICODE /Gm- /EHsc /MD /GS /fp:precise /Zc:wchar_t /Zc:forScope /Fo"RELEASE\\" /Fd"RELEASE\VC120.PDB" /Gd /TP /analyze- \\NDR-STORAGE.BLACK.NDR\HOMES\AJCOUSI\LATEST LAPTOP BACKUP\MIKEY_CLEAN\IPL - DELIVERY 2\CODE\WINDOWS\SECOLLAB-MINISIP-ANDROID-ABFB2CE0694B\LIBMSIP\SOURCE\HEADERS\SIPHEADERAUTHORIZATION.CXX
^\\NDR-STORAGE.BLACK.NDR\HOMES\AJCOUSI\LATEST LAPTOP BACKUP\MIKEY_CLEAN\IPL - DELIVERY 2\CODE\WINDOWS\SECOLLAB-MINISIP-ANDROID-ABFB2CE0694B\LIBMSIP\SOURCE\HEADERS\SIPHEADERCALLID.CXX
/c /I..\include /I..\..\libmcrypto\include /I..\..\libmnetutil\include /I..\..\libmutil\include /Zi /nologo /W3 /WX- /O2 /Oy- /GL /D _UNICODE /D UNICODE /Gm- /EHsc /MD /GS /fp:precise /Zc:wchar_t /Zc:forScope /Fo"RELEASE\\" /Fd"RELEASE\VC120.PDB" /Gd /TP /analyze- \\NDR-STORAGE.BLACK.NDR\HOMES\AJCOUSI\LATEST LAPTOP BACKUP\MIKEY_CLEAN\IPL - DELIVERY 2\CODE\WINDOWS\SECOLLAB-MINISIP-ANDROID-ABFB2CE0694B\LIBMSIP\SOURCE\HEADERS\SIPHEADERCALLID.CXX
^\\NDR-STORAGE.BLACK.NDR\HOMES\AJCOUSI\LATEST LAPTOP BACKUP\MIKEY_CLEAN\IPL - DELIVERY 2\CODE\WINDOWS\SECOLLAB-MINISIP-ANDROID-ABFB2CE0694B\LIBMSIP\SOURCE\HEADERS\SIPHEADERCONTACT.CXX
/c /I..\include /I..\..\libmcrypto\include /I..\..\libmnetutil\include /I..\..\libmutil\include /Zi /nologo /W3 /WX- /O2 /Oy- /GL /D _UNICODE /D UNICODE /Gm- /EHsc /MD /GS /fp:precise /Zc:wchar_t /Zc:forScope /Fo"RELEASE\\" /Fd"RELEASE\VC120.PDB" /Gd /TP /analyze- \\NDR-STORAGE.BLACK.NDR\HOMES\AJCOUSI\LATEST LAPTOP BACKUP\MIKEY_CLEAN\IPL - DELIVERY 2\CODE\WINDOWS\SECOLLAB-MINISIP-ANDROID-ABFB2CE0694B\LIBMSIP\SOURCE\HEADERS\SIPHEADERCONTACT.CXX
^\\NDR-STORAGE.BLACK.NDR\HOMES\AJCOUSI\LATEST LAPTOP BACKUP\MIKEY_CLEAN\IPL - DELIVERY 2\CODE\WINDOWS\SECOLLAB-MINISIP-ANDROID-ABFB2CE0694B\LIBMSIP\SOURCE\HEADERS\SIPHEADERCONTENTLENGTH.CXX
/c /I..\include /I..\..\libmcrypto\include /I..\..\libmnetutil\include /I..\..\libmutil\include /Zi /nologo /W3 /WX- /O2 /Oy- /GL /D _UNICODE /D UNICODE /Gm- /EHsc /MD /GS /fp:precise /Zc:wchar_t /Zc:forScope /Fo"RELEASE\\" /Fd"RELEASE\VC120.PDB" /Gd /TP /analyze- \\NDR-STORAGE.BLACK.NDR\HOMES\AJCOUSI\LATEST LAPTOP BACKUP\MIKEY_CLEAN\IPL - DELIVERY 2\CODE\WINDOWS\SECOLLAB-MINISIP-ANDROID-ABFB2CE0694B\LIBMSIP\SOURCE\HEADERS\SIPHEADERCONTENTLENGTH.CXX
^\\NDR-STORAGE.BLACK.NDR\HOMES\AJCOUSI\LATEST LAPTOP BACKUP\MIKEY_CLEAN\IPL - DELIVERY 2\CODE\WINDOWS\SECOLLAB-MINISIP-ANDROID-ABFB2CE0694B\LIBMSIP\SOURCE\HEADERS\SIPHEADERCONTENTTYPE.CXX
/c /I..\include /I..\..\libmcrypto\include /I..\..\libmnetutil\include /I..\..\libmutil\include /Zi /nologo /W3 /WX- /O2 /Oy- /GL /D _UNICODE /D UNICODE /Gm- /EHsc /MD /GS /fp:precise /Zc:wchar_t /Zc:forScope /Fo"RELEASE\\" /Fd"RELEASE\VC120.PDB" /Gd /TP /analyze- \\NDR-STORAGE.BLACK.NDR\HOMES\AJCOUSI\LATEST LAPTOP BACKUP\MIKEY_CLEAN\IPL - DELIVERY 2\CODE\WINDOWS\SECOLLAB-MINISIP-ANDROID-ABFB2CE0694B\LIBMSIP\SOURCE\HEADERS\SIPHEADERCONTENTTYPE.CXX
^\\NDR-STORAGE.BLACK.NDR\HOMES\AJCOUSI\LATEST LAPTOP BACKUP\MIKEY_CLEAN\IPL - DELIVERY 2\CODE\WINDOWS\SECOLLAB-MINISIP-ANDROID-ABFB2CE0694B\LIBMSIP\SOURCE\HEADERS\SIPHEADERCSEQ.CXX
/c /I..\include /I..\..\libmcrypto\include /I..\..\libmnetutil\include /I..\..\libmutil\include /Zi /nologo /W3 /WX- /O2 /Oy- /GL /D _UNICODE /D UNICODE /Gm- /EHsc /MD /GS /fp:precise /Zc:wchar_t /Zc:forScope /Fo"RELEASE\\" /Fd"RELEASE\VC120.PDB" /Gd /TP /analyze- \\NDR-STORAGE.BLACK.NDR\HOMES\AJCOUSI\LATEST LAPTOP BACKUP\MIKEY_CLEAN\IPL - DELIVERY 2\CODE\WINDOWS\SECOLLAB-MINISIP-ANDROID-ABFB2CE0694B\LIBMSIP\SOURCE\HEADERS\SIPHEADERCSEQ.CXX
^\\NDR-STORAGE.BLACK.NDR\HOMES\AJCOUSI\LATEST LAPTOP BACKUP\MIKEY_CLEAN\IPL - DELIVERY 2\CODE\WINDOWS\SECOLLAB-MINISIP-ANDROID-ABFB2CE0694B\LIBMSIP\SOURCE\HEADERS\SIPHEADEREVENT.CXX
/c /I..\include /I..\..\libmcrypto\include /I..\..\libmnetutil\include /I..\..\libmutil\include /Zi /nologo /W3 /WX- /O2 /Oy- /GL /D _UNICODE /D UNICODE /Gm- /EHsc /MD /GS /fp:precise /Zc:wchar_t /Zc:forScope /Fo"RELEASE\\" /Fd"RELEASE\VC120.PDB" /Gd /TP /analyze- \\NDR-STORAGE.BLACK.NDR\HOMES\AJCOUSI\LATEST LAPTOP BACKUP\MIKEY_CLEAN\IPL - DELIVERY 2\CODE\WINDOWS\SECOLLAB-MINISIP-ANDROID-ABFB2CE0694B\LIBMSIP\SOURCE\HEADERS\SIPHEADEREVENT.CXX
^\\NDR-STORAGE.BLACK.NDR\HOMES\AJCOUSI\LATEST LAPTOP BACKUP\MIKEY_CLEAN\IPL - DELIVERY 2\CODE\WINDOWS\SECOLLAB-MINISIP-ANDROID-ABFB2CE0694B\LIBMSIP\SOURCE\HEADERS\SIPHEADEREXPIRES.CXX
/c /I..\include /I..\..\libmcrypto\include /I..\..\libmnetutil\include /I..\..\libmutil\include /Zi /nologo /W3 /WX- /O2 /Oy- /GL /D _UNICODE /D UNICODE /Gm- /EHsc /MD /GS /fp:precise /Zc:wchar_t /Zc:forScope /Fo"RELEASE\\" /Fd"RELEASE\VC120.PDB" /Gd /TP /analyze- \\NDR-STORAGE.BLACK.NDR\HOMES\AJCOUSI\LATEST LAPTOP BACKUP\MIKEY_CLEAN\IPL - DELIVERY 2\CODE\WINDOWS\SECOLLAB-MINISIP-ANDROID-ABFB2CE0694B\LIBMSIP\SOURCE\HEADERS\SIPHEADEREXPIRES.CXX
^\\NDR-STORAGE.BLACK.NDR\HOMES\AJCOUSI\LATEST LAPTOP BACKUP\MIKEY_CLEAN\IPL - DELIVERY 2\CODE\WINDOWS\SECOLLAB-MINISIP-ANDROID-ABFB2CE0694B\LIBMSIP\SOURCE\HEADERS\SIPHEADERFROM.CXX
/c /I..\include /I..\..\libmcrypto\include /I..\..\libmnetutil\include /I..\..\libmutil\include /Zi /nologo /W3 /WX- /O2 /Oy- /GL /D _UNICODE /D UNICODE /Gm- /EHsc /MD /GS /fp:precise /Zc:wchar_t /Zc:forScope /Fo"RELEASE\\" /Fd"RELEASE\VC120.PDB" /Gd /TP /analyze- \\NDR-STORAGE.BLACK.NDR\HOMES\AJCOUSI\LATEST LAPTOP BACKUP\MIKEY_CLEAN\IPL - DELIVERY 2\CODE\WINDOWS\SECOLLAB-MINISIP-ANDROID-ABFB2CE0694B\LIBMSIP\SOURCE\HEADERS\SIPHEADERFROM.CXX
^\\NDR-STORAGE.BLACK.NDR\HOMES\AJCOUSI\LATEST LAPTOP BACKUP\MIKEY_CLEAN\IPL - DELIVERY 2\CODE\WINDOWS\SECOLLAB-MINISIP-ANDROID-ABFB2CE0694B\LIBMSIP\SOURCE\HEADERS\SIPHEADERMAXFORWARDS.CXX
/c /I..\include /I..\..\libmcrypto\include /I..\..\libmnetutil\include /I..\..\libmutil\include /Zi /nologo /W3 /WX- /O2 /Oy- /GL /D _UNICODE /D UNICODE /Gm- /EHsc /MD /GS /fp:precise /Zc:wchar_t /Zc:forScope /Fo"RELEASE\\" /Fd"RELEASE\VC120.PDB" /Gd /TP /analyze- \\NDR-STORAGE.BLACK.NDR\HOMES\AJCOUSI\LATEST LAPTOP BACKUP\MIKEY_CLEAN\IPL - DELIVERY 2\CODE\WINDOWS\SECOLLAB-MINISIP-ANDROID-ABFB2CE0694B\LIBMSIP\SOURCE\HEADERS\SIPHEADERMAXFORWARDS.CXX
^\\NDR-STORAGE.BLACK.NDR\HOMES\AJCOUSI\LATEST LAPTOP BACKUP\MIKEY_CLEAN\IPL - DELIVERY 2\CODE\WINDOWS\SECOLLAB-MINISIP-ANDROID-ABFB2CE0694B\LIBMSIP\SOURCE\HEADERS\SIPHEADERPROXYAUTHENTICATE.CXX
/c /I..\include /I..\..\libmcrypto\include /I..\..\libmnetutil\include /I..\..\libmutil\include /Zi /nologo /W3 /WX- /O2 /Oy- /GL /D _UNICODE /D UNICODE /Gm- /EHsc /MD /GS /fp:precise /Zc:wchar_t /Zc:forScope /Fo"RELEASE\\" /Fd"RELEASE\VC120.PDB" /Gd /TP /analyze- \\NDR-STORAGE.BLACK.NDR\HOMES\AJCOUSI\LATEST LAPTOP BACKUP\MIKEY_CLEAN\IPL - DELIVERY 2\CODE\WINDOWS\SECOLLAB-MINISIP-ANDROID-ABFB2CE0694B\LIBMSIP\SOURCE\HEADERS\SIPHEADERPROXYAUTHENTICATE.CXX
^\\NDR-STORAGE.BLACK.NDR\HOMES\AJCOUSI\LATEST LAPTOP BACKUP\MIKEY_CLEAN\IPL - DELIVERY 2\CODE\WINDOWS\SECOLLAB-MINISIP-ANDROID-ABFB2CE0694B\LIBMSIP\SOURCE\HEADERS\SIPHEADERPROXYAUTHORIZATION.CXX
/c /I..\include /I..\..\libmcrypto\include /I..\..\libmnetutil\include /I..\..\libmutil\include /Zi /nologo /W3 /WX- /O2 /Oy- /GL /D _UNICODE /D UNICODE /Gm- /EHsc /MD /GS /fp:precise /Zc:wchar_t /Zc:forScope /Fo"RELEASE\\" /Fd"RELEASE\VC120.PDB" /Gd /TP /analyze- \\NDR-STORAGE.BLACK.NDR\HOMES\AJCOUSI\LATEST LAPTOP BACKUP\MIKEY_CLEAN\IPL - DELIVERY 2\CODE\WINDOWS\SECOLLAB-MINISIP-ANDROID-ABFB2CE0694B\LIBMSIP\SOURCE\HEADERS\SIPHEADERPROXYAUTHORIZATION.CXX
^\\NDR-STORAGE.BLACK.NDR\HOMES\AJCOUSI\LATEST LAPTOP BACKUP\MIKEY_CLEAN\IPL - DELIVERY 2\CODE\WINDOWS\SECOLLAB-MINISIP-ANDROID-ABFB2CE0694B\LIBMSIP\SOURCE\HEADERS\SIPHEADERRACK.CXX
/c /I..\include /I..\..\libmcrypto\include /I..\..\libmnetutil\include /I..\..\libmutil\include /Zi /nologo /W3 /WX- /O2 /Oy- /GL /D _UNICODE /D UNICODE /Gm- /EHsc /MD /GS /fp:precise /Zc:wchar_t /Zc:forScope /Fo"RELEASE\\" /Fd"RELEASE\VC120.PDB" /Gd /TP /analyze- \\NDR-STORAGE.BLACK.NDR\HOMES\AJCOUSI\LATEST LAPTOP BACKUP\MIKEY_CLEAN\IPL - DELIVERY 2\CODE\WINDOWS\SECOLLAB-MINISIP-ANDROID-ABFB2CE0694B\LIBMSIP\SOURCE\HEADERS\SIPHEADERRACK.CXX
^\\NDR-STORAGE.BLACK.NDR\HOMES\AJCOUSI\LATEST LAPTOP BACKUP\MIKEY_CLEAN\IPL - DELIVERY 2\CODE\WINDOWS\SECOLLAB-MINISIP-ANDROID-ABFB2CE0694B\LIBMSIP\SOURCE\HEADERS\SIPHEADERRECORDROUTE.CXX
/c /I..\include /I..\..\libmcrypto\include /I..\..\libmnetutil\include /I..\..\libmutil\include /Zi /nologo /W3 /WX- /O2 /Oy- /GL /D _UNICODE /D UNICODE /Gm- /EHsc /MD /GS /fp:precise /Zc:wchar_t /Zc:forScope /Fo"RELEASE\\" /Fd"RELEASE\VC120.PDB" /Gd /TP /analyze- \\NDR-STORAGE.BLACK.NDR\HOMES\AJCOUSI\LATEST LAPTOP BACKUP\MIKEY_CLEAN\IPL - DELIVERY 2\CODE\WINDOWS\SECOLLAB-MINISIP-ANDROID-ABFB2CE0694B\LIBMSIP\SOURCE\HEADERS\SIPHEADERRECORDROUTE.CXX
^\\NDR-STORAGE.BLACK.NDR\HOMES\AJCOUSI\LATEST LAPTOP BACKUP\MIKEY_CLEAN\IPL - DELIVERY 2\CODE\WINDOWS\SECOLLAB-MINISIP-ANDROID-ABFB2CE0694B\LIBMSIP\SOURCE\HEADERS\SIPHEADERREFERTO.CXX
/c /I..\include /I..\..\libmcrypto\include /I..\..\libmnetutil\include /I..\..\libmutil\include /Zi /nologo /W3 /WX- /O2 /Oy- /GL /D _UNICODE /D UNICODE /Gm- /EHsc /MD /GS /fp:precise /Zc:wchar_t /Zc:forScope /Fo"RELEASE\\" /Fd"RELEASE\VC120.PDB" /Gd /TP /analyze- \\NDR-STORAGE.BLACK.NDR\HOMES\AJCOUSI\LATEST LAPTOP BACKUP\MIKEY_CLEAN\IPL - DELIVERY 2\CODE\WINDOWS\SECOLLAB-MINISIP-ANDROID-ABFB2CE0694B\LIBMSIP\SOURCE\HEADERS\SIPHEADERREFERTO.CXX
^\\NDR-STORAGE.BLACK.NDR\HOMES\AJCOUSI\LATEST LAPTOP BACKUP\MIKEY_CLEAN\IPL - DELIVERY 2\CODE\WINDOWS\SECOLLAB-MINISIP-ANDROID-ABFB2CE0694B\LIBMSIP\SOURCE\HEADERS\SIPHEADERREQUIRE.CXX
/c /I..\include /I..\..\libmcrypto\include /I..\..\libmnetutil\include /I..\..\libmutil\include /Zi /nologo /W3 /WX- /O2 /Oy- /GL /D _UNICODE /D UNICODE /Gm- /EHsc /MD /GS /fp:precise /Zc:wchar_t /Zc:forScope /Fo"RELEASE\\" /Fd"RELEASE\VC120.PDB" /Gd /TP /analyze- \\NDR-STORAGE.BLACK.NDR\HOMES\AJCOUSI\LATEST LAPTOP BACKUP\MIKEY_CLEAN\IPL - DELIVERY 2\CODE\WINDOWS\SECOLLAB-MINISIP-ANDROID-ABFB2CE0694B\LIBMSIP\SOURCE\HEADERS\SIPHEADERREQUIRE.CXX
^\\NDR-STORAGE.BLACK.NDR\HOMES\AJCOUSI\LATEST LAPTOP BACKUP\MIKEY_CLEAN\IPL - DELIVERY 2\CODE\WINDOWS\SECOLLAB-MINISIP-ANDROID-ABFB2CE0694B\LIBMSIP\SOURCE\HEADERS\SIPHEADERROUTE.CXX
/c /I..\include /I..\..\libmcrypto\include /I..\..\libmnetutil\include /I..\..\libmutil\include /Zi /nologo /W3 /WX- /O2 /Oy- /GL /D _UNICODE /D UNICODE /Gm- /EHsc /MD /GS /fp:precise /Zc:wchar_t /Zc:forScope /Fo"RELEASE\\" /Fd"RELEASE\VC120.PDB" /Gd /TP /analyze- \\NDR-STORAGE.BLACK.NDR\HOMES\AJCOUSI\LATEST LAPTOP BACKUP\MIKEY_CLEAN\IPL - DELIVERY 2\CODE\WINDOWS\SECOLLAB-MINISIP-ANDROID-ABFB2CE0694B\LIBMSIP\SOURCE\HEADERS\SIPHEADERROUTE.CXX
^\\NDR-STORAGE.BLACK.NDR\HOMES\AJCOUSI\LATEST LAPTOP BACKUP\MIKEY_CLEAN\IPL - DELIVERY 2\CODE\WINDOWS\SECOLLAB-MINISIP-ANDROID-ABFB2CE0694B\LIBMSIP\SOURCE\HEADERS\SIPHEADERRSEQ.CXX
/c /I..\include /I..\..\libmcrypto\include /I..\..\libmnetutil\include /I..\..\libmutil\include /Zi /nologo /W3 /WX- /O2 /Oy- /GL /D _UNICODE /D UNICODE /Gm- /EHsc /MD /GS /fp:precise /Zc:wchar_t /Zc:forScope /Fo"RELEASE\\" /Fd"RELEASE\VC120.PDB" /Gd /TP /analyze- \\NDR-STORAGE.BLACK.NDR\HOMES\AJCOUSI\LATEST LAPTOP BACKUP\MIKEY_CLEAN\IPL - DELIVERY 2\CODE\WINDOWS\SECOLLAB-MINISIP-ANDROID-ABFB2CE0694B\LIBMSIP\SOURCE\HEADERS\SIPHEADERRSEQ.CXX
^\\NDR-STORAGE.BLACK.NDR\HOMES\AJCOUSI\LATEST LAPTOP BACKUP\MIKEY_CLEAN\IPL - DELIVERY 2\CODE\WINDOWS\SECOLLAB-MINISIP-ANDROID-ABFB2CE0694B\LIBMSIP\SOURCE\HEADERS\SIPHEADERSTRING.CXX
/c /I..\include /I..\..\libmcrypto\include /I..\..\libmnetutil\include /I..\..\libmutil\include /Zi /nologo /W3 /WX- /O2 /Oy- /GL /D _UNICODE /D UNICODE /Gm- /EHsc /MD /GS /fp:precise /Zc:wchar_t /Zc:forScope /Fo"RELEASE\\" /Fd"RELEASE\VC120.PDB" /Gd /TP /analyze- \\NDR-STORAGE.BLACK.NDR\HOMES\AJCOUSI\LATEST LAPTOP BACKUP\MIKEY_CLEAN\IPL - DELIVERY 2\CODE\WINDOWS\SECOLLAB-MINISIP-ANDROID-ABFB2CE0694B\LIBMSIP\SOURCE\HEADERS\SIPHEADERSTRING.CXX
^\\NDR-STORAGE.BLACK.NDR\HOMES\AJCOUSI\LATEST LAPTOP BACKUP\MIKEY_CLEAN\IPL - DELIVERY 2\CODE\WINDOWS\SECOLLAB-MINISIP-ANDROID-ABFB2CE0694B\LIBMSIP\SOURCE\HEADERS\SIPHEADERSUBJECT.CXX
/c /I..\include /I..\..\libmcrypto\include /I..\..\libmnetutil\include /I..\..\libmutil\include /Zi /nologo /W3 /WX- /O2 /Oy- /GL /D _UNICODE /D UNICODE /Gm- /EHsc /MD /GS /fp:precise /Zc:wchar_t /Zc:forScope /Fo"RELEASE\\" /Fd"RELEASE\VC120.PDB" /Gd /TP /analyze- \\NDR-STORAGE.BLACK.NDR\HOMES\AJCOUSI\LATEST LAPTOP BACKUP\MIKEY_CLEAN\IPL - DELIVERY 2\CODE\WINDOWS\SECOLLAB-MINISIP-ANDROID-ABFB2CE0694B\LIBMSIP\SOURCE\HEADERS\SIPHEADERSUBJECT.CXX
^\\NDR-STORAGE.BLACK.NDR\HOMES\AJCOUSI\LATEST LAPTOP BACKUP\MIKEY_CLEAN\IPL - DELIVERY 2\CODE\WINDOWS\SECOLLAB-MINISIP-ANDROID-ABFB2CE0694B\LIBMSIP\SOURCE\HEADERS\SIPHEADERSUBSCRIPTIONSTATE.CXX
/c /I..\include /I..\..\libmcrypto\include /I..\..\libmnetutil\include /I..\..\libmutil\include /Zi /nologo /W3 /WX- /O2 /Oy- /GL /D _UNICODE /D UNICODE /Gm- /EHsc /MD /GS /fp:precise /Zc:wchar_t /Zc:forScope /Fo"RELEASE\\" /Fd"RELEASE\VC120.PDB" /Gd /TP /analyze- \\NDR-STORAGE.BLACK.NDR\HOMES\AJCOUSI\LATEST LAPTOP BACKUP\MIKEY_CLEAN\IPL - DELIVERY 2\CODE\WINDOWS\SECOLLAB-MINISIP-ANDROID-ABFB2CE0694B\LIBMSIP\SOURCE\HEADERS\SIPHEADERSUBSCRIPTIONSTATE.CXX
^\\NDR-STORAGE.BLACK.NDR\HOMES\AJCOUSI\LATEST LAPTOP BACKUP\MIKEY_CLEAN\IPL - DELIVERY 2\CODE\WINDOWS\SECOLLAB-MINISIP-ANDROID-ABFB2CE0694B\LIBMSIP\SOURCE\HEADERS\SIPHEADERSUPPORTED.CXX
/c /I..\include /I..\..\libmcrypto\include /I..\..\libmnetutil\include /I..\..\libmutil\include /Zi /nologo /W3 /WX- /O2 /Oy- /GL /D _UNICODE /D UNICODE /Gm- /EHsc /MD /GS /fp:precise /Zc:wchar_t /Zc:forScope /Fo"RELEASE\\" /Fd"RELEASE\VC120.PDB" /Gd /TP /analyze- \\NDR-STORAGE.BLACK.NDR\HOMES\AJCOUSI\LATEST LAPTOP BACKUP\MIKEY_CLEAN\IPL - DELIVERY 2\CODE\WINDOWS\SECOLLAB-MINISIP-ANDROID-ABFB2CE0694B\LIBMSIP\SOURCE\HEADERS\SIPHEADERSUPPORTED.CXX
^\\NDR-STORAGE.BLACK.NDR\HOMES\AJCOUSI\LATEST LAPTOP BACKUP\MIKEY_CLEAN\IPL - DELIVERY 2\CODE\WINDOWS\SECOLLAB-MINISIP-ANDROID-ABFB2CE0694B\LIBMSIP\SOURCE\HEADERS\SIPHEADERTO.CXX
/c /I..\include /I..\..\libmcrypto\include /I..\..\libmnetutil\include /I..\..\libmutil\include /Zi /nologo /W3 /WX- /O2 /Oy- /GL /D _UNICODE /D UNICODE /Gm- /EHsc /MD /GS /fp:precise /Zc:wchar_t /Zc:forScope /Fo"RELEASE\\" /Fd"RELEASE\VC120.PDB" /Gd /TP /analyze- \\NDR-STORAGE.BLACK.NDR\HOMES\AJCOUSI\LATEST LAPTOP BACKUP\MIKEY_CLEAN\IPL - DELIVERY 2\CODE\WINDOWS\SECOLLAB-MINISIP-ANDROID-ABFB2CE0694B\LIBMSIP\SOURCE\HEADERS\SIPHEADERTO.CXX
^\\NDR-STORAGE.BLACK.NDR\HOMES\AJCOUSI\LATEST LAPTOP BACKUP\MIKEY_CLEAN\IPL - DELIVERY 2\CODE\WINDOWS\SECOLLAB-MINISIP-ANDROID-ABFB2CE0694B\LIBMSIP\SOURCE\HEADERS\SIPHEADERUNKNOWN.CXX
/c /I..\include /I..\..\libmcrypto\include /I..\..\libmnetutil\include /I..\..\libmutil\include /Zi /nologo /W3 /WX- /O2 /Oy- /GL /D _UNICODE /D UNICODE /Gm- /EHsc /MD /GS /fp:precise /Zc:wchar_t /Zc:forScope /Fo"RELEASE\\" /Fd"RELEASE\VC120.PDB" /Gd /TP /analyze- \\NDR-STORAGE.BLACK.NDR\HOMES\AJCOUSI\LATEST LAPTOP BACKUP\MIKEY_CLEAN\IPL - DELIVERY 2\CODE\WINDOWS\SECOLLAB-MINISIP-ANDROID-ABFB2CE0694B\LIBMSIP\SOURCE\HEADERS\SIPHEADERUNKNOWN.CXX
^\\NDR-STORAGE.BLACK.NDR\HOMES\AJCOUSI\LATEST LAPTOP BACKUP\MIKEY_CLEAN\IPL - DELIVERY 2\CODE\WINDOWS\SECOLLAB-MINISIP-ANDROID-ABFB2CE0694B\LIBMSIP\SOURCE\HEADERS\SIPHEADERUNSUPPORTED.CXX
/c /I..\include /I..\..\libmcrypto\include /I..\..\libmnetutil\include /I..\..\libmutil\include /Zi /nologo /W3 /WX- /O2 /Oy- /GL /D _UNICODE /D UNICODE /Gm- /EHsc /MD /GS /fp:precise /Zc:wchar_t /Zc:forScope /Fo"RELEASE\\" /Fd"RELEASE\VC120.PDB" /Gd /TP /analyze- \\NDR-STORAGE.BLACK.NDR\HOMES\AJCOUSI\LATEST LAPTOP BACKUP\MIKEY_CLEAN\IPL - DELIVERY 2\CODE\WINDOWS\SECOLLAB-MINISIP-ANDROID-ABFB2CE0694B\LIBMSIP\SOURCE\HEADERS\SIPHEADERUNSUPPORTED.CXX
^\\NDR-STORAGE.BLACK.NDR\HOMES\AJCOUSI\LATEST LAPTOP BACKUP\MIKEY_CLEAN\IPL - DELIVERY 2\CODE\WINDOWS\SECOLLAB-MINISIP-ANDROID-ABFB2CE0694B\LIBMSIP\SOURCE\HEADERS\SIPHEADERUSERAGENT.CXX
/c /I..\include /I..\..\libmcrypto\include /I..\..\libmnetutil\include /I..\..\libmutil\include /Zi /nologo /W3 /WX- /O2 /Oy- /GL /D _UNICODE /D UNICODE /Gm- /EHsc /MD /GS /fp:precise /Zc:wchar_t /Zc:forScope /Fo"RELEASE\\" /Fd"RELEASE\VC120.PDB" /Gd /TP /analyze- \\NDR-STORAGE.BLACK.NDR\HOMES\AJCOUSI\LATEST LAPTOP BACKUP\MIKEY_CLEAN\IPL - DELIVERY 2\CODE\WINDOWS\SECOLLAB-MINISIP-ANDROID-ABFB2CE0694B\LIBMSIP\SOURCE\HEADERS\SIPHEADERUSERAGENT.CXX
^\\NDR-STORAGE.BLACK.NDR\HOMES\AJCOUSI\LATEST LAPTOP BACKUP\MIKEY_CLEAN\IPL - DELIVERY 2\CODE\WINDOWS\SECOLLAB-MINISIP-ANDROID-ABFB2CE0694B\LIBMSIP\SOURCE\HEADERS\SIPHEADERVIA.CXX
/c /I..\include /I..\..\libmcrypto\include /I..\..\libmnetutil\include /I..\..\libmutil\include /Zi /nologo /W3 /WX- /O2 /Oy- /GL /D _UNICODE /D UNICODE /Gm- /EHsc /MD /GS /fp:precise /Zc:wchar_t /Zc:forScope /Fo"RELEASE\\" /Fd"RELEASE\VC120.PDB" /Gd /TP /analyze- \\NDR-STORAGE.BLACK.NDR\HOMES\AJCOUSI\LATEST LAPTOP BACKUP\MIKEY_CLEAN\IPL - DELIVERY 2\CODE\WINDOWS\SECOLLAB-MINISIP-ANDROID-ABFB2CE0694B\LIBMSIP\SOURCE\HEADERS\SIPHEADERVIA.CXX
^\\NDR-STORAGE.BLACK.NDR\HOMES\AJCOUSI\LATEST LAPTOP BACKUP\MIKEY_CLEAN\IPL - DELIVERY 2\CODE\WINDOWS\SECOLLAB-MINISIP-ANDROID-ABFB2CE0694B\LIBMSIP\SOURCE\HEADERS\SIPHEADERWARNING.CXX
/c /I..\include /I..\..\libmcrypto\include /I..\..\libmnetutil\include /I..\..\libmutil\include /Zi /nologo /W3 /WX- /O2 /Oy- /GL /D _UNICODE /D UNICODE /Gm- /EHsc /MD /GS /fp:precise /Zc:wchar_t /Zc:forScope /Fo"RELEASE\\" /Fd"RELEASE\VC120.PDB" /Gd /TP /analyze- \\NDR-STORAGE.BLACK.NDR\HOMES\AJCOUSI\LATEST LAPTOP BACKUP\MIKEY_CLEAN\IPL - DELIVERY 2\CODE\WINDOWS\SECOLLAB-MINISIP-ANDROID-ABFB2CE0694B\LIBMSIP\SOURCE\HEADERS\SIPHEADERWARNING.CXX
^\\NDR-STORAGE.BLACK.NDR\HOMES\AJCOUSI\LATEST LAPTOP BACKUP\MIKEY_CLEAN\IPL - DELIVERY 2\CODE\WINDOWS\SECOLLAB-MINISIP-ANDROID-ABFB2CE0694B\LIBMSIP\SOURCE\HEADERS\SIPHEADERWWWAUTHENTICATE.CXX
/c /I..\include /I..\..\libmcrypto\include /I..\..\libmnetutil\include /I..\..\libmutil\include /Zi /nologo /W3 /WX- /O2 /Oy- /GL /D _UNICODE /D UNICODE /Gm- /EHsc /MD /GS /fp:precise /Zc:wchar_t /Zc:forScope /Fo"RELEASE\\" /Fd"RELEASE\VC120.PDB" /Gd /TP /analyze- \\NDR-STORAGE.BLACK.NDR\HOMES\AJCOUSI\LATEST LAPTOP BACKUP\MIKEY_CLEAN\IPL - DELIVERY 2\CODE\WINDOWS\SECOLLAB-MINISIP-ANDROID-ABFB2CE0694B\LIBMSIP\SOURCE\HEADERS\SIPHEADERWWWAUTHENTICATE.CXX
^\\NDR-STORAGE.BLACK.NDR\HOMES\AJCOUSI\LATEST LAPTOP BACKUP\MIKEY_CLEAN\IPL - DELIVERY 2\CODE\WINDOWS\SECOLLAB-MINISIP-ANDROID-ABFB2CE0694B\LIBMSIP\SOURCE\MESSAGES\SIPMESSAGE.CXX
/c /I..\include /I..\..\libmcrypto\include /I..\..\libmnetutil\include /I..\..\libmutil\include /Zi /nologo /W3 /WX- /O2 /Oy- /GL /D _UNICODE /D UNICODE /Gm- /EHsc /MD /GS /fp:precise /Zc:wchar_t /Zc:forScope /Fo"RELEASE\\" /Fd"RELEASE\VC120.PDB" /Gd /TP /analyze- \\NDR-STORAGE.BLACK.NDR\HOMES\AJCOUSI\LATEST LAPTOP BACKUP\MIKEY_CLEAN\IPL - DELIVERY 2\CODE\WINDOWS\SECOLLAB-MINISIP-ANDROID-ABFB2CE0694B\LIBMSIP\SOURCE\MESSAGES\SIPMESSAGE.CXX
^\\NDR-STORAGE.BLACK.NDR\HOMES\AJCOUSI\LATEST LAPTOP BACKUP\MIKEY_CLEAN\IPL - DELIVERY 2\CODE\WINDOWS\SECOLLAB-MINISIP-ANDROID-ABFB2CE0694B\LIBMSIP\SOURCE\MESSAGES\SIPREQUEST.CXX
/c /I..\include /I..\..\libmcrypto\include /I..\..\libmnetutil\include /I..\..\libmutil\include /Zi /nologo /W3 /WX- /O2 /Oy- /GL /D _UNICODE /D UNICODE /Gm- /EHsc /MD /GS /fp:precise /Zc:wchar_t /Zc:forScope /Fo"RELEASE\\" /Fd"RELEASE\VC120.PDB" /Gd /TP /analyze- \\NDR-STORAGE.BLACK.NDR\HOMES\AJCOUSI\LATEST LAPTOP BACKUP\MIKEY_CLEAN\IPL - DELIVERY 2\CODE\WINDOWS\SECOLLAB-MINISIP-ANDROID-ABFB2CE0694B\LIBMSIP\SOURCE\MESSAGES\SIPREQUEST.CXX
^\\NDR-STORAGE.BLACK.NDR\HOMES\AJCOUSI\LATEST LAPTOP BACKUP\MIKEY_CLEAN\IPL - DELIVERY 2\CODE\WINDOWS\SECOLLAB-MINISIP-ANDROID-ABFB2CE0694B\LIBMSIP\SOURCE\MESSAGES\SIPRESPONSE.CXX
/c /I..\include /I..\..\libmcrypto\include /I..\..\libmnetutil\include /I..\..\libmutil\include /Zi /nologo /W3 /WX- /O2 /Oy- /GL /D _UNICODE /D UNICODE /Gm- /EHsc /MD /GS /fp:precise /Zc:wchar_t /Zc:forScope /Fo"RELEASE\\" /Fd"RELEASE\VC120.PDB" /Gd /TP /analyze- \\NDR-STORAGE.BLACK.NDR\HOMES\AJCOUSI\LATEST LAPTOP BACKUP\MIKEY_CLEAN\IPL - DELIVERY 2\CODE\WINDOWS\SECOLLAB-MINISIP-ANDROID-ABFB2CE0694B\LIBMSIP\SOURCE\MESSAGES\SIPRESPONSE.CXX
^\\NDR-STORAGE.BLACK.NDR\HOMES\AJCOUSI\LATEST LAPTOP BACKUP\MIKEY_CLEAN\IPL - DELIVERY 2\CODE\WINDOWS\SECOLLAB-MINISIP-ANDROID-ABFB2CE0694B\LIBMSIP\SOURCE\TRANSACTIONS\SIPTRANSACTION.CXX
/c /I..\include /I..\..\libmcrypto\include /I..\..\libmnetutil\include /I..\..\libmutil\include /Zi /nologo /W3 /WX- /O2 /Oy- /GL /D _UNICODE /D UNICODE /Gm- /EHsc /MD /GS /fp:precise /Zc:wchar_t /Zc:forScope /Fo"RELEASE\\" /Fd"RELEASE\VC120.PDB" /Gd /TP /analyze- \\NDR-STORAGE.BLACK.NDR\HOMES\AJCOUSI\LATEST LAPTOP BACKUP\MIKEY_CLEAN\IPL - DELIVERY 2\CODE\WINDOWS\SECOLLAB-MINISIP-ANDROID-ABFB2CE0694B\LIBMSIP\SOURCE\TRANSACTIONS\SIPTRANSACTION.CXX
^\\NDR-STORAGE.BLACK.NDR\HOMES\AJCOUSI\LATEST LAPTOP BACKUP\MIKEY_CLEAN\IPL - DELIVERY 2\CODE\WINDOWS\SECOLLAB-MINISIP-ANDROID-ABFB2CE0694B\LIBMSIP\SOURCE\TRANSACTIONS\SIPTRANSACTIONINVITECLIENT.CXX
/c /I..\include /I..\..\libmcrypto\include /I..\..\libmnetutil\include /I..\..\libmutil\include /Zi /nologo /W3 /WX- /O2 /Oy- /GL /D _UNICODE /D UNICODE /Gm- /EHsc /MD /GS /fp:precise /Zc:wchar_t /Zc:forScope /Fo"RELEASE\\" /Fd"RELEASE\VC120.PDB" /Gd /TP /analyze- \\NDR-STORAGE.BLACK.NDR\HOMES\AJCOUSI\LATEST LAPTOP BACKUP\MIKEY_CLEAN\IPL - DELIVERY 2\CODE\WINDOWS\SECOLLAB-MINISIP-ANDROID-ABFB2CE0694B\LIBMSIP\SOURCE\TRANSACTIONS\SIPTRANSACTIONINVITECLIENT.CXX
^\\NDR-STORAGE.BLACK.NDR\HOMES\AJCOUSI\LATEST LAPTOP BACKUP\MIKEY_CLEAN\IPL - DELIVERY 2\CODE\WINDOWS\SECOLLAB-MINISIP-ANDROID-ABFB2CE0694B\LIBMSIP\SOURCE\TRANSACTIONS\SIPTRANSACTIONINVITESERVER.CXX
/c /I..\include /I..\..\libmcrypto\include /I..\..\libmnetutil\include /I..\..\libmutil\include /Zi /nologo /W3 /WX- /O2 /Oy- /GL /D _UNICODE /D UNICODE /Gm- /EHsc /MD /GS /fp:precise /Zc:wchar_t /Zc:forScope /Fo"RELEASE\\" /Fd"RELEASE\VC120.PDB" /Gd /TP /analyze- \\NDR-STORAGE.BLACK.NDR\HOMES\AJCOUSI\LATEST LAPTOP BACKUP\MIKEY_CLEAN\IPL - DELIVERY 2\CODE\WINDOWS\SECOLLAB-MINISIP-ANDROID-ABFB2CE0694B\LIBMSIP\SOURCE\TRANSACTIONS\SIPTRANSACTIONINVITESERVER.CXX
^\\NDR-STORAGE.BLACK.NDR\HOMES\AJCOUSI\LATEST LAPTOP BACKUP\MIKEY_CLEAN\IPL - DELIVERY 2\CODE\WINDOWS\SECOLLAB-MINISIP-ANDROID-ABFB2CE0694B\LIBMSIP\SOURCE\TRANSACTIONS\SIPTRANSACTIONINVITESERVERUA.CXX
/c /I..\include /I..\..\libmcrypto\include /I..\..\libmnetutil\include /I..\..\libmutil\include /Zi /nologo /W3 /WX- /O2 /Oy- /GL /D _UNICODE /D UNICODE /Gm- /EHsc /MD /GS /fp:precise /Zc:wchar_t /Zc:forScope /Fo"RELEASE\\" /Fd"RELEASE\VC120.PDB" /Gd /TP /analyze- \\NDR-STORAGE.BLACK.NDR\HOMES\AJCOUSI\LATEST LAPTOP BACKUP\MIKEY_CLEAN\IPL - DELIVERY 2\CODE\WINDOWS\SECOLLAB-MINISIP-ANDROID-ABFB2CE0694B\LIBMSIP\SOURCE\TRANSACTIONS\SIPTRANSACTIONINVITESERVERUA.CXX
^\\NDR-STORAGE.BLACK.NDR\HOMES\AJCOUSI\LATEST LAPTOP BACKUP\MIKEY_CLEAN\IPL - DELIVERY 2\CODE\WINDOWS\SECOLLAB-MINISIP-ANDROID-ABFB2CE0694B\LIBMSIP\SOURCE\TRANSACTIONS\SIPTRANSACTIONNONINVITECLIENT.CXX
/c /I..\include /I..\..\libmcrypto\include /I..\..\libmnetutil\include /I..\..\libmutil\include /Zi /nologo /W3 /WX- /O2 /Oy- /GL /D _UNICODE /D UNICODE /Gm- /EHsc /MD /GS /fp:precise /Zc:wchar_t /Zc:forScope /Fo"RELEASE\\" /Fd"RELEASE\VC120.PDB" /Gd /TP /analyze- \\NDR-STORAGE.BLACK.NDR\HOMES\AJCOUSI\LATEST LAPTOP BACKUP\MIKEY_CLEAN\IPL - DELIVERY 2\CODE\WINDOWS\SECOLLAB-MINISIP-ANDROID-ABFB2CE0694B\LIBMSIP\SOURCE\TRANSACTIONS\SIPTRANSACTIONNONINVITECLIENT.CXX
^\\NDR-STORAGE.BLACK.NDR\HOMES\AJCOUSI\LATEST LAPTOP BACKUP\MIKEY_CLEAN\IPL - DELIVERY 2\CODE\WINDOWS\SECOLLAB-MINISIP-ANDROID-ABFB2CE0694B\LIBMSIP\SOURCE\TRANSACTIONS\SIPTRANSACTIONNONINVITESERVER.CXX
/c /I..\include /I..\..\libmcrypto\include /I..\..\libmnetutil\include /I..\..\libmutil\include /Zi /nologo /W3 /WX- /O2 /Oy- /GL /D _UNICODE /D UNICODE /Gm- /EHsc /MD /GS /fp:precise /Zc:wchar_t /Zc:forScope /Fo"RELEASE\\" /Fd"RELEASE\VC120.PDB" /Gd /TP /analyze- \\NDR-STORAGE.BLACK.NDR\HOMES\AJCOUSI\LATEST LAPTOP BACKUP\MIKEY_CLEAN\IPL - DELIVERY 2\CODE\WINDOWS\SECOLLAB-MINISIP-ANDROID-ABFB2CE0694B\LIBMSIP\SOURCE\TRANSACTIONS\SIPTRANSACTIONNONINVITESERVER.CXX
^\\NDR-STORAGE.BLACK.NDR\HOMES\AJCOUSI\LATEST LAPTOP BACKUP\MIKEY_CLEAN\IPL - DELIVERY 2\CODE\WINDOWS\SECOLLAB-MINISIP-ANDROID-ABFB2CE0694B\LIBMSIP\SOURCE\DIALOGS\SIPTRANSITIONUTILS.CXX
/c /I..\include /I..\..\libmcrypto\include /I..\..\libmnetutil\include /I..\..\libmutil\include /Zi /nologo /W3 /WX- /O2 /Oy- /GL /D _UNICODE /D UNICODE /Gm- /EHsc /MD /GS /fp:precise /Zc:wchar_t /Zc:forScope /Fo"RELEASE\\" /Fd"RELEASE\VC120.PDB" /Gd /TP /analyze- \\NDR-STORAGE.BLACK.NDR\HOMES\AJCOUSI\LATEST LAPTOP BACKUP\MIKEY_CLEAN\IPL - DELIVERY 2\CODE\WINDOWS\SECOLLAB-MINISIP-ANDROID-ABFB2CE0694B\LIBMSIP\SOURCE\DIALOGS\SIPTRANSITIONUTILS.CXX
^\\NDR-STORAGE.BLACK.NDR\HOMES\AJCOUSI\LATEST LAPTOP BACKUP\MIKEY_CLEAN\IPL - DELIVERY 2\CODE\WINDOWS\SECOLLAB-MINISIP-ANDROID-ABFB2CE0694B\LIBMSIP\SOURCE\TRANSPORTS\SIPTRANSPORT.CXX
/c /I..\include /I..\..\libmcrypto\include /I..\..\libmnetutil\include /I..\..\libmutil\include /Zi /nologo /W3 /WX- /O2 /Oy- /GL /D _UNICODE /D UNICODE /Gm- /EHsc /MD /GS /fp:precise /Zc:wchar_t /Zc:forScope /Fo"RELEASE\\" /Fd"RELEASE\VC120.PDB" /Gd /TP /analyze- \\NDR-STORAGE.BLACK.NDR\HOMES\AJCOUSI\LATEST LAPTOP BACKUP\MIKEY_CLEAN\IPL - DELIVERY 2\CODE\WINDOWS\SECOLLAB-MINISIP-ANDROID-ABFB2CE0694B\LIBMSIP\SOURCE\TRANSPORTS\SIPTRANSPORT.CXX
^\\NDR-STORAGE.BLACK.NDR\HOMES\AJCOUSI\LATEST LAPTOP BACKUP\MIKEY_CLEAN\IPL - DELIVERY 2\CODE\WINDOWS\SECOLLAB-MINISIP-ANDROID-ABFB2CE0694B\LIBMSIP\SOURCE\TRANSPORTS\SIPTRANSPORTTCP.CXX
/c /I..\include /I..\..\libmcrypto\include /I..\..\libmnetutil\include /I..\..\libmutil\include /Zi /nologo /W3 /WX- /O2 /Oy- /GL /D _UNICODE /D UNICODE /Gm- /EHsc /MD /GS /fp:precise /Zc:wchar_t /Zc:forScope /Fo"RELEASE\\" /Fd"RELEASE\VC120.PDB" /Gd /TP /analyze- \\NDR-STORAGE.BLACK.NDR\HOMES\AJCOUSI\LATEST LAPTOP BACKUP\MIKEY_CLEAN\IPL - DELIVERY 2\CODE\WINDOWS\SECOLLAB-MINISIP-ANDROID-ABFB2CE0694B\LIBMSIP\SOURCE\TRANSPORTS\SIPTRANSPORTTCP.CXX
^\\NDR-STORAGE.BLACK.NDR\HOMES\AJCOUSI\LATEST LAPTOP BACKUP\MIKEY_CLEAN\IPL - DELIVERY 2\CODE\WINDOWS\SECOLLAB-MINISIP-ANDROID-ABFB2CE0694B\LIBMSIP\SOURCE\TRANSPORTS\SIPTRANSPORTTLS.CXX
/c /I..\include /I..\..\libmcrypto\include /I..\..\libmnetutil\include /I..\..\libmutil\include /Zi /nologo /W3 /WX- /O2 /Oy- /GL /D _UNICODE /D UNICODE /Gm- /EHsc /MD /GS /fp:precise /Zc:wchar_t /Zc:forScope /Fo"RELEASE\\" /Fd"RELEASE\VC120.PDB" /Gd /TP /analyze- \\NDR-STORAGE.BLACK.NDR\HOMES\AJCOUSI\LATEST LAPTOP BACKUP\MIKEY_CLEAN\IPL - DELIVERY 2\CODE\WINDOWS\SECOLLAB-MINISIP-ANDROID-ABFB2CE0694B\LIBMSIP\SOURCE\TRANSPORTS\SIPTRANSPORTTLS.CXX
^\\NDR-STORAGE.BLACK.NDR\HOMES\AJCOUSI\LATEST LAPTOP BACKUP\MIKEY_CLEAN\IPL - DELIVERY 2\CODE\WINDOWS\SECOLLAB-MINISIP-ANDROID-ABFB2CE0694B\LIBMSIP\SOURCE\TRANSPORTS\SIPTRANSPORTUDP.CXX
/c /I..\include /I..\..\libmcrypto\include /I..\..\libmnetutil\include /I..\..\libmutil\include /Zi /nologo /W3 /WX- /O2 /Oy- /GL /D _UNICODE /D UNICODE /Gm- /EHsc /MD /GS /fp:precise /Zc:wchar_t /Zc:forScope /Fo"RELEASE\\" /Fd"RELEASE\VC120.PDB" /Gd /TP /analyze- \\NDR-STORAGE.BLACK.NDR\HOMES\AJCOUSI\LATEST LAPTOP BACKUP\MIKEY_CLEAN\IPL - DELIVERY 2\CODE\WINDOWS\SECOLLAB-MINISIP-ANDROID-ABFB2CE0694B\LIBMSIP\SOURCE\TRANSPORTS\SIPTRANSPORTUDP.CXX
