^C:\MIKEY_CLEAN\IPL - DELIVERY 2\CODE\WINDOWS\SECOLLAB-LIBMIKEY-SAKKE-1616CF77B1CD\SELEX\BUILD\WIN32LIBMIKEY-SAKKE-TEST\WIN32LIBMIKEY-SAKKE-TEST\DEBUG\KEY_DATA.OBJ|C:\MIKEY_CLEAN\IPL - DELIVERY 2\CODE\WINDOWS\SECOLLAB-LIBMIKEY-SAKKE-1616CF77B1CD\SELEX\BUILD\WIN32LIBMIKEY-SAKKE-TEST\WIN32LIBMIKEY-SAKKE-TEST\DEBUG\STDAFX.OBJ|C:\MIKEY_CLEAN\IPL - DELIVERY 2\CODE\WINDOWS\SECOLLAB-LIBMIKEY-SAKKE-1616CF77B1CD\SELEX\BUILD\WIN32LIBMIKEY-SAKKE-TEST\WIN32LIBMIKEY-SAKKE-TEST\DEBUG\TEST_BIGINT_OCTET_STRING.OBJ|C:\MIKEY_CLEAN\IPL - DELIVERY 2\CODE\WINDOWS\SECOLLAB-LIBMIKEY-SAKKE-1616CF77B1CD\SELEX\BUILD\WIN32LIBMIKEY-SAKKE-TEST\WIN32LIBMIKEY-SAKKE-TEST\DEBUG\TEST_BIGINT_SSL.OBJ|C:\MIKEY_CLEAN\IPL - DELIVERY 2\CODE\WINDOWS\SECOLLAB-LIBMIKEY-SAKKE-1616CF77B1CD\SELEX\BUILD\WIN32LIBMIKEY-SAKKE-TEST\WIN32LIBMIKEY-SAKKE-TEST\DEBUG\TEST_CURVE_OPENSSL.OBJ|C:\MIKEY_CLEAN\IPL - DELIVERY 2\CODE\WINDOWS\SECOLLAB-LIBMIKEY-SAKKE-1616CF77B1CD\SELEX\BUILD\WIN32LIBMIKEY-SAKKE-TEST\WIN32LIBMIKEY-SAKKE-TEST\DEBUG\TEST_EXTRACT_SHARED_SECRET.OBJ|C:\MIKEY_CLEAN\IPL - DELIVERY 2\CODE\WINDOWS\SECOLLAB-LIBMIKEY-SAKKE-1616CF77B1CD\SELEX\BUILD\WIN32LIBMIKEY-SAKKE-TEST\WIN32LIBMIKEY-SAKKE-TEST\DEBUG\TEST_GENERATE_SHARED_SECRET_AND_SED.OBJ|C:\MIKEY_CLEAN\IPL - DELIVERY 2\CODE\WINDOWS\SECOLLAB-LIBMIKEY-SAKKE-1616CF77B1CD\SELEX\BUILD\WIN32LIBMIKEY-SAKKE-TEST\WIN32LIBMIKEY-SAKKE-TEST\DEBUG\TEST_MSCRYPTO_SUCCESS.OBJ|C:\MIKEY_CLEAN\IPL - DELIVERY 2\CODE\WINDOWS\SECOLLAB-LIBMIKEY-SAKKE-1616CF77B1CD\SELEX\BUILD\WIN32LIBMIKEY-SAKKE-TEST\WIN32LIBMIKEY-SAKKE-TEST\DEBUG\TEST_RANDOM_BRUTE_FORCE.OBJ|C:\MIKEY_CLEAN\IPL - DELIVERY 2\CODE\WINDOWS\SECOLLAB-LIBMIKEY-SAKKE-1616CF77B1CD\SELEX\BUILD\WIN32LIBMIKEY-SAKKE-TEST\WIN32LIBMIKEY-SAKKE-TEST\DEBUG\TEST_SIGN.OBJ|C:\MIKEY_CLEAN\IPL - DELIVERY 2\CODE\WINDOWS\SECOLLAB-LIBMIKEY-SAKKE-1616CF77B1CD\SELEX\BUILD\WIN32LIBMIKEY-SAKKE-TEST\WIN32LIBMIKEY-SAKKE-TEST\DEBUG\TEST_VERIFY_MSG_AGAINST_SIGNATURE.OBJ|C:\MIKEY_CLEAN\IPL - DELIVERY 2\CODE\WINDOWS\SECOLLAB-LIBMIKEY-SAKKE-1616CF77B1CD\SELEX\BUILD\WIN32LIBMIKEY-SAKKE-TEST\WIN32LIBMIKEY-SAKKE-TEST\DEBUG\TEST_VERIFY_RSK.OBJ|C:\MIKEY_CLEAN\IPL - DELIVERY 2\CODE\WINDOWS\SECOLLAB-LIBMIKEY-SAKKE-1616CF77B1CD\SELEX\BUILD\WIN32LIBMIKEY-SAKKE-TEST\WIN32LIBMIKEY-SAKKE-TEST\DEBUG\TEST_VERIFY_SIGNING_KEYS.OBJ
C:\MIKEY_CLEAN\IPL - DELIVERY 2\CODE\WINDOWS\SECOLLAB-LIBMIKEY-SAKKE-1616CF77B1CD\SELEX\BUILD\WIN32LIBMIKEY-SAKKE-OVERALL\DEBUG\WIN32LIBMIKEY-SAKKE-CLIENT.LIB
C:\MIKEY_CLEAN\IPL - DELIVERY 2\CODE\WINDOWS\WINDOWS_LIBS\BUILT\BOOST\LIB\LIBBOOST_FILESYSTEM-VC110-MT-GD-1_52.LIB
C:\MIKEY_CLEAN\IPL - DELIVERY 2\CODE\WINDOWS\WINDOWS_LIBS\WIN32_PTHREAD\PTHREADVC2.LIB
C:\MIKEY_CLEAN\IPL - DELIVERY 2\CODE\WINDOWS\SECOLLAB-LIBMIKEY-SAKKE-1616CF77B1CD\SELEX\BUILD\WIN32LIBMIKEY-SAKKE-OVERALL\DEBUG\WIN32LIBMIKEY-SAKKE-MSCRYPTO.LIB
C:\MIKEY_CLEAN\IPL - DELIVERY 2\CODE\WINDOWS\WINDOWS_LIBS\BUILT\BOOST\LIB\LIBBOOST_UNIT_TEST_FRAMEWORK-VC110-MT-GD-1_52.LIB
C:\PROGRAM FILES (X86)\WINDOWS KITS\8.0\LIB\WIN8\UM\X86\KERNEL32.LIB
C:\PROGRAM FILES (X86)\WINDOWS KITS\8.0\LIB\WIN8\UM\X86\USER32.LIB
C:\PROGRAM FILES (X86)\WINDOWS KITS\8.0\LIB\WIN8\UM\X86\GDI32.LIB
C:\PROGRAM FILES (X86)\WINDOWS KITS\8.0\LIB\WIN8\UM\X86\WINSPOOL.LIB
C:\PROGRAM FILES (X86)\WINDOWS KITS\8.0\LIB\WIN8\UM\X86\COMDLG32.LIB
C:\PROGRAM FILES (X86)\WINDOWS KITS\8.0\LIB\WIN8\UM\X86\ADVAPI32.LIB
C:\PROGRAM FILES (X86)\WINDOWS KITS\8.0\LIB\WIN8\UM\X86\SHELL32.LIB
C:\PROGRAM FILES (X86)\WINDOWS KITS\8.0\LIB\WIN8\UM\X86\OLE32.LIB
C:\PROGRAM FILES (X86)\WINDOWS KITS\8.0\LIB\WIN8\UM\X86\OLEAUT32.LIB
C:\PROGRAM FILES (X86)\WINDOWS KITS\8.0\LIB\WIN8\UM\X86\UUID.LIB
C:\PROGRAM FILES (X86)\WINDOWS KITS\8.0\LIB\WIN8\UM\X86\ODBC32.LIB
C:\PROGRAM FILES (X86)\WINDOWS KITS\8.0\LIB\WIN8\UM\X86\ODBCCP32.LIB
C:\MIKEY_CLEAN\IPL - DELIVERY 2\CODE\WINDOWS\SECOLLAB-LIBMIKEY-SAKKE-1616CF77B1CD\SELEX\BUILD\WIN32LIBMIKEY-SAKKE-TEST\WIN32LIBMIKEY-SAKKE-TEST\DEBUG\KEY_DATA.OBJ
C:\MIKEY_CLEAN\IPL - DELIVERY 2\CODE\WINDOWS\SECOLLAB-LIBMIKEY-SAKKE-1616CF77B1CD\SELEX\BUILD\WIN32LIBMIKEY-SAKKE-TEST\WIN32LIBMIKEY-SAKKE-TEST\DEBUG\TEST_BIGINT_OCTET_STRING.OBJ
C:\MIKEY_CLEAN\IPL - DELIVERY 2\CODE\WINDOWS\SECOLLAB-LIBMIKEY-SAKKE-1616CF77B1CD\SELEX\BUILD\WIN32LIBMIKEY-SAKKE-TEST\WIN32LIBMIKEY-SAKKE-TEST\DEBUG\TEST_BIGINT_SSL.OBJ
C:\MIKEY_CLEAN\IPL - DELIVERY 2\CODE\WINDOWS\SECOLLAB-LIBMIKEY-SAKKE-1616CF77B1CD\SELEX\BUILD\WIN32LIBMIKEY-SAKKE-TEST\WIN32LIBMIKEY-SAKKE-TEST\DEBUG\TEST_CURVE_OPENSSL.OBJ
C:\MIKEY_CLEAN\IPL - DELIVERY 2\CODE\WINDOWS\SECOLLAB-LIBMIKEY-SAKKE-1616CF77B1CD\SELEX\BUILD\WIN32LIBMIKEY-SAKKE-TEST\WIN32LIBMIKEY-SAKKE-TEST\DEBUG\TEST_EXTRACT_SHARED_SECRET.OBJ
C:\MIKEY_CLEAN\IPL - DELIVERY 2\CODE\WINDOWS\SECOLLAB-LIBMIKEY-SAKKE-1616CF77B1CD\SELEX\BUILD\WIN32LIBMIKEY-SAKKE-TEST\WIN32LIBMIKEY-SAKKE-TEST\DEBUG\TEST_GENERATE_SHARED_SECRET_AND_SED.OBJ
C:\MIKEY_CLEAN\IPL - DELIVERY 2\CODE\WINDOWS\SECOLLAB-LIBMIKEY-SAKKE-1616CF77B1CD\SELEX\BUILD\WIN32LIBMIKEY-SAKKE-TEST\WIN32LIBMIKEY-SAKKE-TEST\DEBUG\TEST_MSCRYPTO_SUCCESS.OBJ
C:\MIKEY_CLEAN\IPL - DELIVERY 2\CODE\WINDOWS\SECOLLAB-LIBMIKEY-SAKKE-1616CF77B1CD\SELEX\BUILD\WIN32LIBMIKEY-SAKKE-TEST\WIN32LIBMIKEY-SAKKE-TEST\DEBUG\TEST_RANDOM_BRUTE_FORCE.OBJ
C:\MIKEY_CLEAN\IPL - DELIVERY 2\CODE\WINDOWS\SECOLLAB-LIBMIKEY-SAKKE-1616CF77B1CD\SELEX\BUILD\WIN32LIBMIKEY-SAKKE-TEST\WIN32LIBMIKEY-SAKKE-TEST\DEBUG\TEST_SIGN.OBJ
C:\MIKEY_CLEAN\IPL - DELIVERY 2\CODE\WINDOWS\SECOLLAB-LIBMIKEY-SAKKE-1616CF77B1CD\SELEX\BUILD\WIN32LIBMIKEY-SAKKE-TEST\WIN32LIBMIKEY-SAKKE-TEST\DEBUG\TEST_VERIFY_MSG_AGAINST_SIGNATURE.OBJ
C:\MIKEY_CLEAN\IPL - DELIVERY 2\CODE\WINDOWS\SECOLLAB-LIBMIKEY-SAKKE-1616CF77B1CD\SELEX\BUILD\WIN32LIBMIKEY-SAKKE-TEST\WIN32LIBMIKEY-SAKKE-TEST\DEBUG\TEST_VERIFY_RSK.OBJ
C:\MIKEY_CLEAN\IPL - DELIVERY 2\CODE\WINDOWS\SECOLLAB-LIBMIKEY-SAKKE-1616CF77B1CD\SELEX\BUILD\WIN32LIBMIKEY-SAKKE-TEST\WIN32LIBMIKEY-SAKKE-TEST\DEBUG\TEST_VERIFY_SIGNING_KEYS.OBJ
C:\MIKEY_CLEAN\IPL - DELIVERY 2\CODE\WINDOWS\SECOLLAB-LIBMIKEY-SAKKE-1616CF77B1CD\SELEX\BUILD\WIN32LIBMIKEY-SAKKE-TEST\WIN32LIBMIKEY-SAKKE-TEST\DEBUG\STDAFX.OBJ
C:\WINDOWS\GLOBALIZATION\SORTING\SORTDEFAULT.NLS
C:\PROGRAM FILES (X86)\MICROSOFT VISUAL STUDIO 11.0\VC\LIB\MSVCPRTD.LIB
C:\PROGRAM FILES (X86)\MICROSOFT VISUAL STUDIO 11.0\VC\LIB\MSVCRTD.LIB
C:\PROGRAM FILES (X86)\MICROSOFT VISUAL STUDIO 11.0\VC\LIB\OLDNAMES.LIB
C:\PROGRAM FILES (X86)\WINDOWS KITS\8.0\BIN\X86\RC.EXE
C:\PROGRAM FILES (X86)\MICROSOFT VISUAL STUDIO 11.0\VC\BIN\CVTRES.EXE
C:\WINDOWS\SYSTEM32\TZRES.DLL
C:\PROGRAM FILES (X86)\MICROSOFT VISUAL STUDIO 11.0\VC\BIN\1033\LINKUI.DLL
