^C:\MIKEY_CLEAN\IPL - DELIVERY 2\CODE\WINDOWS\SECOLLAB-LIBMIKEY-SAKKE-1616CF77B1CD\SELEX\BUILD\WIN32LIBMIKEY-SAKKE-CLIENT\WIN32LIBMIKEY-SAKKE-CLIENT\RELEASE\CLIENT.OBJ|C:\MIKEY_CLEAN\IPL - DELIVERY 2\CODE\WINDOWS\SECOLLAB-LIBMIKEY-SAKKE-1616CF77B1CD\SELEX\BUILD\WIN32LIBMIKEY-SAKKE-CLIENT\WIN32LIBMIKEY-SAKKE-CLIENT\RELEASE\JSONCPP.OBJ
C:\WINDOWS\SYSTEM32\TZRES.DLL
C:\MIKEY_CLEAN\IPL - DELIVERY 2\CODE\WINDOWS\WINDOWS_LIBS\BUILT\CURL\LIB\LIBCURL_A.LIB
C:\MIKEY_CLEAN\IPL - DELIVERY 2\CODE\WINDOWS\WINDOWS_LIBS\BUILT\OPENSSL\LIB\SSLEAY32.LIB
C:\MIKEY_CLEAN\IPL - DELIVERY 2\CODE\WINDOWS\WINDOWS_LIBS\BUILT\OPENSSL\LIB\LIBEAY32.LIB
C:\MIKEY_CLEAN\IPL - DELIVERY 2\CODE\WINDOWS\WINDOWS_LIBS\BUILT\BOOST\LIB\LIBBOOST_SYSTEM-VC110-MT-1_52.LIB
C:\MIKEY_CLEAN\IPL - DELIVERY 2\CODE\WINDOWS\SECOLLAB-LIBMIKEY-SAKKE-1616CF77B1CD\SELEX\BUILD\WIN32LIBMIKEY-SAKKE-CLIENT\WIN32LIBMIKEY-SAKKE-CLIENT\RELEASE\JSONCPP.OBJ
C:\MIKEY_CLEAN\IPL - DELIVERY 2\CODE\WINDOWS\SECOLLAB-LIBMIKEY-SAKKE-1616CF77B1CD\SELEX\BUILD\WIN32LIBMIKEY-SAKKE-CLIENT\WIN32LIBMIKEY-SAKKE-CLIENT\RELEASE\CLIENT.OBJ
C:\WINDOWS\GLOBALIZATION\SORTING\SORTDEFAULT.NLS
C:\PROGRAM FILES (X86)\MICROSOFT VISUAL STUDIO 11.0\VC\BIN\1033\LINKUI.DLL
