^C:\MIKEY_CLEAN\IPL - DELIVERY 2\CODE\WINDOWS\SECOLLAB-MINISIP-ANDROID-ABFB2CE0694B\LIBMNETUTIL\SOURCE\DATAGRAMSOCKET.CXX|C:\MIKEY_CLEAN\IPL - DELIVERY 2\CODE\WINDOWS\SECOLLAB-MINISIP-ANDROID-ABFB2CE0694B\LIBMNETUTIL\SOURCE\DIRECTORYSET.CXX|C:\MIKEY_CLEAN\IPL - DELIVERY 2\CODE\WINDOWS\SECOLLAB-MINISIP-ANDROID-ABFB2CE0694B\LIBMNETUTIL\SOURCE\DIRECTORYSETITEM.CXX|C:\MIKEY_CLEAN\IPL - DELIVERY 2\CODE\WINDOWS\SECOLLAB-MINISIP-ANDROID-ABFB2CE0694B\LIBMNETUTIL\SOURCE\DNSNAPTR.CXX|C:\MIKEY_CLEAN\IPL - DELIVERY 2\CODE\WINDOWS\SECOLLAB-MINISIP-ANDROID-ABFB2CE0694B\LIBMNETUTIL\SOURCE\DOWNLOADER.CXX|C:\MIKEY_CLEAN\IPL - DELIVERY 2\CODE\WINDOWS\SECOLLAB-MINISIP-ANDROID-ABFB2CE0694B\LIBMNETUTIL\SOURCE\FILEDOWNLOADER.CXX|C:\MIKEY_CLEAN\IPL - DELIVERY 2\CODE\WINDOWS\SECOLLAB-MINISIP-ANDROID-ABFB2CE0694B\LIBMNETUTIL\SOURCE\FILEDOWNLOADEREXCEPTION.CXX|C:\MIKEY_CLEAN\IPL - DELIVERY 2\CODE\WINDOWS\SECOLLAB-MINISIP-ANDROID-ABFB2CE0694B\LIBMNETUTIL\SOURCE\FILEURL.CXX|C:\MIKEY_CLEAN\IPL - DELIVERY 2\CODE\WINDOWS\SECOLLAB-MINISIP-ANDROID-ABFB2CE0694B\LIBMNETUTIL\SOURCE\HTTPDOWNLOADER.CXX|C:\MIKEY_CLEAN\IPL - DELIVERY 2\CODE\WINDOWS\SECOLLAB-MINISIP-ANDROID-ABFB2CE0694B\LIBMNETUTIL\SOURCE\HTTPFILESYSTEM.CXX|C:\MIKEY_CLEAN\IPL - DELIVERY 2\CODE\WINDOWS\SECOLLAB-MINISIP-ANDROID-ABFB2CE0694B\LIBMNETUTIL\SOURCE\INIT.CXX|C:\MIKEY_CLEAN\IPL - DELIVERY 2\CODE\WINDOWS\SECOLLAB-MINISIP-ANDROID-ABFB2CE0694B\LIBMNETUTIL\SOURCE\IP4ADDRESS.CXX|C:\MIKEY_CLEAN\IPL - DELIVERY 2\CODE\WINDOWS\SECOLLAB-MINISIP-ANDROID-ABFB2CE0694B\LIBMNETUTIL\SOURCE\IP6ADDRESS.CXX|C:\MIKEY_CLEAN\IPL - DELIVERY 2\CODE\WINDOWS\SECOLLAB-MINISIP-ANDROID-ABFB2CE0694B\LIBMNETUTIL\SOURCE\IPADDRESS.CXX|C:\MIKEY_CLEAN\IPL - DELIVERY 2\CODE\WINDOWS\SECOLLAB-MINISIP-ANDROID-ABFB2CE0694B\LIBMNETUTIL\SOURCE\LDAPCONNECTION.CXX|C:\MIKEY_CLEAN\IPL - DELIVERY 2\CODE\WINDOWS\SECOLLAB-MINISIP-ANDROID-ABFB2CE0694B\LIBMNETUTIL\SOURCE\LDAPDOWNLOADER.CXX|C:\MIKEY_CLEAN\IPL - DELIVERY 2\CODE\WINDOWS\SECOLLAB-MINISIP-ANDROID-ABFB2CE0694B\LIBMNETUTIL\SOURCE\LDAPENTRY.CXX|C:\MIKEY_CLEAN\IPL - DELIVERY 2\CODE\WINDOWS\SECOLLAB-MINISIP-ANDROID-ABFB2CE0694B\LIBMNETUTIL\SOURCE\LDAPEXCEPTION.CXX|C:\MIKEY_CLEAN\IPL - DELIVERY 2\CODE\WINDOWS\SECOLLAB-MINISIP-ANDROID-ABFB2CE0694B\LIBMNETUTIL\SOURCE\LDAPURL.CXX|C:\MIKEY_CLEAN\IPL - DELIVERY 2\CODE\WINDOWS\SECOLLAB-MINISIP-ANDROID-ABFB2CE0694B\LIBMNETUTIL\SOURCE\NETUTIL.CXX|C:\MIKEY_CLEAN\IPL - DELIVERY 2\CODE\WINDOWS\SECOLLAB-MINISIP-ANDROID-ABFB2CE0694B\LIBMNETUTIL\SOURCE\NETWORKEXCEPTION.CXX|C:\MIKEY_CLEAN\IPL - DELIVERY 2\CODE\WINDOWS\SECOLLAB-MINISIP-ANDROID-ABFB2CE0694B\LIBMNETUTIL\SOURCE\NETWORKFUNCTIONS.CXX|C:\MIKEY_CLEAN\IPL - DELIVERY 2\CODE\WINDOWS\SECOLLAB-MINISIP-ANDROID-ABFB2CE0694B\LIBMNETUTIL\SOURCE\NETWORKFUNCTIONSWIN32.CXX|C:\MIKEY_CLEAN\IPL - DELIVERY 2\CODE\WINDOWS\SECOLLAB-MINISIP-ANDROID-ABFB2CE0694B\LIBMNETUTIL\SOURCE\SERVERSOCKET.CXX|C:\MIKEY_CLEAN\IPL - DELIVERY 2\CODE\WINDOWS\SECOLLAB-MINISIP-ANDROID-ABFB2CE0694B\LIBMNETUTIL\SOURCE\SOCKET.CXX|C:\MIKEY_CLEAN\IPL - DELIVERY 2\CODE\WINDOWS\SECOLLAB-MINISIP-ANDROID-ABFB2CE0694B\LIBMNETUTIL\SOURCE\SOCKETSERVER.CXX|C:\MIKEY_CLEAN\IPL - DELIVERY 2\CODE\WINDOWS\SECOLLAB-MINISIP-ANDROID-ABFB2CE0694B\LIBMNETUTIL\SOURCE\STREAMSOCKET.CXX|C:\MIKEY_CLEAN\IPL - DELIVERY 2\CODE\WINDOWS\SECOLLAB-MINISIP-ANDROID-ABFB2CE0694B\LIBMNETUTIL\SOURCE\TCPSERVERSOCKET.CXX|C:\MIKEY_CLEAN\IPL - DELIVERY 2\CODE\WINDOWS\SECOLLAB-MINISIP-ANDROID-ABFB2CE0694B\LIBMNETUTIL\SOURCE\TCPSOCKET.CXX|C:\MIKEY_CLEAN\IPL - DELIVERY 2\CODE\WINDOWS\SECOLLAB-MINISIP-ANDROID-ABFB2CE0694B\LIBMNETUTIL\SOURCE\UDPSOCKET.CXX
C:\MIKEY_CLEAN\IPL - DELIVERY 2\CODE\WINDOWS\SECOLLAB-MINISIP-ANDROID-ABFB2CE0694B\LIBMNETUTIL\VS8_PROJ\DEBUG\INIT.OBJ
C:\MIKEY_CLEAN\IPL - DELIVERY 2\CODE\WINDOWS\SECOLLAB-MINISIP-ANDROID-ABFB2CE0694B\LIBMNETUTIL\VS8_PROJ\DEBUG\IP4ADDRESS.OBJ
C:\MIKEY_CLEAN\IPL - DELIVERY 2\CODE\WINDOWS\SECOLLAB-MINISIP-ANDROID-ABFB2CE0694B\LIBMNETUTIL\VS8_PROJ\DEBUG\TCPSERVERSOCKET.OBJ
C:\MIKEY_CLEAN\IPL - DELIVERY 2\CODE\WINDOWS\SECOLLAB-MINISIP-ANDROID-ABFB2CE0694B\LIBMNETUTIL\VS8_PROJ\DEBUG\IP6ADDRESS.OBJ
C:\MIKEY_CLEAN\IPL - DELIVERY 2\CODE\WINDOWS\SECOLLAB-MINISIP-ANDROID-ABFB2CE0694B\LIBMNETUTIL\VS8_PROJ\DEBUG\IPADDRESS.OBJ
C:\MIKEY_CLEAN\IPL - DELIVERY 2\CODE\WINDOWS\SECOLLAB-MINISIP-ANDROID-ABFB2CE0694B\LIBMNETUTIL\VS8_PROJ\DEBUG\LDAPCONNECTION.OBJ
C:\MIKEY_CLEAN\IPL - DELIVERY 2\CODE\WINDOWS\SECOLLAB-MINISIP-ANDROID-ABFB2CE0694B\LIBMNETUTIL\VS8_PROJ\DEBUG\LDAPDOWNLOADER.OBJ
C:\MIKEY_CLEAN\IPL - DELIVERY 2\CODE\WINDOWS\SECOLLAB-MINISIP-ANDROID-ABFB2CE0694B\LIBMNETUTIL\VS8_PROJ\DEBUG\LDAPENTRY.OBJ
C:\MIKEY_CLEAN\IPL - DELIVERY 2\CODE\WINDOWS\SECOLLAB-MINISIP-ANDROID-ABFB2CE0694B\LIBMNETUTIL\VS8_PROJ\DEBUG\LDAPEXCEPTION.OBJ
C:\MIKEY_CLEAN\IPL - DELIVERY 2\CODE\WINDOWS\SECOLLAB-MINISIP-ANDROID-ABFB2CE0694B\LIBMNETUTIL\VS8_PROJ\DEBUG\LDAPURL.OBJ
C:\MIKEY_CLEAN\IPL - DELIVERY 2\CODE\WINDOWS\SECOLLAB-MINISIP-ANDROID-ABFB2CE0694B\LIBMNETUTIL\VS8_PROJ\DEBUG\NETUTIL.OBJ
C:\MIKEY_CLEAN\IPL - DELIVERY 2\CODE\WINDOWS\SECOLLAB-MINISIP-ANDROID-ABFB2CE0694B\LIBMNETUTIL\VS8_PROJ\DEBUG\NETWORKEXCEPTION.OBJ
C:\MIKEY_CLEAN\IPL - DELIVERY 2\CODE\WINDOWS\SECOLLAB-MINISIP-ANDROID-ABFB2CE0694B\LIBMNETUTIL\VS8_PROJ\DEBUG\NETWORKFUNCTIONS.OBJ
C:\MIKEY_CLEAN\IPL - DELIVERY 2\CODE\WINDOWS\SECOLLAB-MINISIP-ANDROID-ABFB2CE0694B\LIBMNETUTIL\VS8_PROJ\DEBUG\NETWORKFUNCTIONSWIN32.OBJ
C:\MIKEY_CLEAN\IPL - DELIVERY 2\CODE\WINDOWS\SECOLLAB-MINISIP-ANDROID-ABFB2CE0694B\LIBMNETUTIL\VS8_PROJ\DEBUG\SERVERSOCKET.OBJ
C:\MIKEY_CLEAN\IPL - DELIVERY 2\CODE\WINDOWS\SECOLLAB-MINISIP-ANDROID-ABFB2CE0694B\LIBMNETUTIL\VS8_PROJ\DEBUG\SOCKET.OBJ
C:\MIKEY_CLEAN\IPL - DELIVERY 2\CODE\WINDOWS\SECOLLAB-MINISIP-ANDROID-ABFB2CE0694B\LIBMNETUTIL\VS8_PROJ\DEBUG\SOCKETSERVER.OBJ
C:\MIKEY_CLEAN\IPL - DELIVERY 2\CODE\WINDOWS\SECOLLAB-MINISIP-ANDROID-ABFB2CE0694B\LIBMNETUTIL\VS8_PROJ\DEBUG\STREAMSOCKET.OBJ
C:\MIKEY_CLEAN\IPL - DELIVERY 2\CODE\WINDOWS\SECOLLAB-MINISIP-ANDROID-ABFB2CE0694B\LIBMNETUTIL\VS8_PROJ\DEBUG\TCPSOCKET.OBJ
C:\MIKEY_CLEAN\IPL - DELIVERY 2\CODE\WINDOWS\SECOLLAB-MINISIP-ANDROID-ABFB2CE0694B\LIBMNETUTIL\VS8_PROJ\DEBUG\UDPSOCKET.OBJ
C:\MIKEY_CLEAN\IPL - DELIVERY 2\CODE\WINDOWS\SECOLLAB-MINISIP-ANDROID-ABFB2CE0694B\LIBMNETUTIL\VS8_PROJ\DEBUG\DATAGRAMSOCKET.OBJ
C:\MIKEY_CLEAN\IPL - DELIVERY 2\CODE\WINDOWS\SECOLLAB-MINISIP-ANDROID-ABFB2CE0694B\LIBMNETUTIL\VS8_PROJ\DEBUG\DIRECTORYSET.OBJ
C:\MIKEY_CLEAN\IPL - DELIVERY 2\CODE\WINDOWS\SECOLLAB-MINISIP-ANDROID-ABFB2CE0694B\LIBMNETUTIL\VS8_PROJ\DEBUG\DIRECTORYSETITEM.OBJ
C:\MIKEY_CLEAN\IPL - DELIVERY 2\CODE\WINDOWS\SECOLLAB-MINISIP-ANDROID-ABFB2CE0694B\LIBMNETUTIL\VS8_PROJ\DEBUG\DNSNAPTR.OBJ
C:\MIKEY_CLEAN\IPL - DELIVERY 2\CODE\WINDOWS\SECOLLAB-MINISIP-ANDROID-ABFB2CE0694B\LIBMNETUTIL\VS8_PROJ\DEBUG\DOWNLOADER.OBJ
C:\MIKEY_CLEAN\IPL - DELIVERY 2\CODE\WINDOWS\SECOLLAB-MINISIP-ANDROID-ABFB2CE0694B\LIBMNETUTIL\VS8_PROJ\DEBUG\FILEDOWNLOADER.OBJ
C:\MIKEY_CLEAN\IPL - DELIVERY 2\CODE\WINDOWS\SECOLLAB-MINISIP-ANDROID-ABFB2CE0694B\LIBMNETUTIL\VS8_PROJ\DEBUG\FILEDOWNLOADEREXCEPTION.OBJ
C:\MIKEY_CLEAN\IPL - DELIVERY 2\CODE\WINDOWS\SECOLLAB-MINISIP-ANDROID-ABFB2CE0694B\LIBMNETUTIL\VS8_PROJ\DEBUG\FILEURL.OBJ
C:\MIKEY_CLEAN\IPL - DELIVERY 2\CODE\WINDOWS\SECOLLAB-MINISIP-ANDROID-ABFB2CE0694B\LIBMNETUTIL\VS8_PROJ\DEBUG\HTTPDOWNLOADER.OBJ
C:\MIKEY_CLEAN\IPL - DELIVERY 2\CODE\WINDOWS\SECOLLAB-MINISIP-ANDROID-ABFB2CE0694B\LIBMNETUTIL\VS8_PROJ\DEBUG\HTTPFILESYSTEM.OBJ
^C:\MIKEY_CLEAN\IPL - DELIVERY 2\CODE\WINDOWS\SECOLLAB-MINISIP-ANDROID-ABFB2CE0694B\LIBMNETUTIL\SOURCE\DATAGRAMSOCKET.CXX
C:\MIKEY_CLEAN\IPL - DELIVERY 2\CODE\WINDOWS\SECOLLAB-MINISIP-ANDROID-ABFB2CE0694B\LIBMNETUTIL\VS8_PROJ\DEBUG\VC110.PDB
^C:\MIKEY_CLEAN\IPL - DELIVERY 2\CODE\WINDOWS\SECOLLAB-MINISIP-ANDROID-ABFB2CE0694B\LIBMNETUTIL\SOURCE\DIRECTORYSET.CXX
C:\MIKEY_CLEAN\IPL - DELIVERY 2\CODE\WINDOWS\SECOLLAB-MINISIP-ANDROID-ABFB2CE0694B\LIBMNETUTIL\VS8_PROJ\DEBUG\VC110.PDB
^C:\MIKEY_CLEAN\IPL - DELIVERY 2\CODE\WINDOWS\SECOLLAB-MINISIP-ANDROID-ABFB2CE0694B\LIBMNETUTIL\SOURCE\DIRECTORYSETITEM.CXX
C:\MIKEY_CLEAN\IPL - DELIVERY 2\CODE\WINDOWS\SECOLLAB-MINISIP-ANDROID-ABFB2CE0694B\LIBMNETUTIL\VS8_PROJ\DEBUG\VC110.PDB
^C:\MIKEY_CLEAN\IPL - DELIVERY 2\CODE\WINDOWS\SECOLLAB-MINISIP-ANDROID-ABFB2CE0694B\LIBMNETUTIL\SOURCE\DNSNAPTR.CXX
C:\MIKEY_CLEAN\IPL - DELIVERY 2\CODE\WINDOWS\SECOLLAB-MINISIP-ANDROID-ABFB2CE0694B\LIBMNETUTIL\VS8_PROJ\DEBUG\VC110.PDB
^C:\MIKEY_CLEAN\IPL - DELIVERY 2\CODE\WINDOWS\SECOLLAB-MINISIP-ANDROID-ABFB2CE0694B\LIBMNETUTIL\SOURCE\DOWNLOADER.CXX
C:\MIKEY_CLEAN\IPL - DELIVERY 2\CODE\WINDOWS\SECOLLAB-MINISIP-ANDROID-ABFB2CE0694B\LIBMNETUTIL\VS8_PROJ\DEBUG\VC110.PDB
^C:\MIKEY_CLEAN\IPL - DELIVERY 2\CODE\WINDOWS\SECOLLAB-MINISIP-ANDROID-ABFB2CE0694B\LIBMNETUTIL\SOURCE\FILEDOWNLOADER.CXX
C:\MIKEY_CLEAN\IPL - DELIVERY 2\CODE\WINDOWS\SECOLLAB-MINISIP-ANDROID-ABFB2CE0694B\LIBMNETUTIL\VS8_PROJ\DEBUG\VC110.PDB
^C:\MIKEY_CLEAN\IPL - DELIVERY 2\CODE\WINDOWS\SECOLLAB-MINISIP-ANDROID-ABFB2CE0694B\LIBMNETUTIL\SOURCE\FILEDOWNLOADEREXCEPTION.CXX
C:\MIKEY_CLEAN\IPL - DELIVERY 2\CODE\WINDOWS\SECOLLAB-MINISIP-ANDROID-ABFB2CE0694B\LIBMNETUTIL\VS8_PROJ\DEBUG\VC110.PDB
^C:\MIKEY_CLEAN\IPL - DELIVERY 2\CODE\WINDOWS\SECOLLAB-MINISIP-ANDROID-ABFB2CE0694B\LIBMNETUTIL\SOURCE\FILEURL.CXX
C:\MIKEY_CLEAN\IPL - DELIVERY 2\CODE\WINDOWS\SECOLLAB-MINISIP-ANDROID-ABFB2CE0694B\LIBMNETUTIL\VS8_PROJ\DEBUG\VC110.PDB
^C:\MIKEY_CLEAN\IPL - DELIVERY 2\CODE\WINDOWS\SECOLLAB-MINISIP-ANDROID-ABFB2CE0694B\LIBMNETUTIL\SOURCE\HTTPDOWNLOADER.CXX
C:\MIKEY_CLEAN\IPL - DELIVERY 2\CODE\WINDOWS\SECOLLAB-MINISIP-ANDROID-ABFB2CE0694B\LIBMNETUTIL\VS8_PROJ\DEBUG\VC110.PDB
^C:\MIKEY_CLEAN\IPL - DELIVERY 2\CODE\WINDOWS\SECOLLAB-MINISIP-ANDROID-ABFB2CE0694B\LIBMNETUTIL\SOURCE\HTTPFILESYSTEM.CXX
C:\MIKEY_CLEAN\IPL - DELIVERY 2\CODE\WINDOWS\SECOLLAB-MINISIP-ANDROID-ABFB2CE0694B\LIBMNETUTIL\VS8_PROJ\DEBUG\VC110.PDB
^C:\MIKEY_CLEAN\IPL - DELIVERY 2\CODE\WINDOWS\SECOLLAB-MINISIP-ANDROID-ABFB2CE0694B\LIBMNETUTIL\SOURCE\INIT.CXX
C:\MIKEY_CLEAN\IPL - DELIVERY 2\CODE\WINDOWS\SECOLLAB-MINISIP-ANDROID-ABFB2CE0694B\LIBMNETUTIL\VS8_PROJ\DEBUG\VC110.PDB
^C:\MIKEY_CLEAN\IPL - DELIVERY 2\CODE\WINDOWS\SECOLLAB-MINISIP-ANDROID-ABFB2CE0694B\LIBMNETUTIL\SOURCE\IP4ADDRESS.CXX
C:\MIKEY_CLEAN\IPL - DELIVERY 2\CODE\WINDOWS\SECOLLAB-MINISIP-ANDROID-ABFB2CE0694B\LIBMNETUTIL\VS8_PROJ\DEBUG\VC110.PDB
^C:\MIKEY_CLEAN\IPL - DELIVERY 2\CODE\WINDOWS\SECOLLAB-MINISIP-ANDROID-ABFB2CE0694B\LIBMNETUTIL\SOURCE\TCPSERVERSOCKET.CXX
C:\MIKEY_CLEAN\IPL - DELIVERY 2\CODE\WINDOWS\SECOLLAB-MINISIP-ANDROID-ABFB2CE0694B\LIBMNETUTIL\VS8_PROJ\DEBUG\VC110.PDB
^C:\MIKEY_CLEAN\IPL - DELIVERY 2\CODE\WINDOWS\SECOLLAB-MINISIP-ANDROID-ABFB2CE0694B\LIBMNETUTIL\SOURCE\IP6ADDRESS.CXX
C:\MIKEY_CLEAN\IPL - DELIVERY 2\CODE\WINDOWS\SECOLLAB-MINISIP-ANDROID-ABFB2CE0694B\LIBMNETUTIL\VS8_PROJ\DEBUG\VC110.PDB
^C:\MIKEY_CLEAN\IPL - DELIVERY 2\CODE\WINDOWS\SECOLLAB-MINISIP-ANDROID-ABFB2CE0694B\LIBMNETUTIL\SOURCE\IPADDRESS.CXX
C:\MIKEY_CLEAN\IPL - DELIVERY 2\CODE\WINDOWS\SECOLLAB-MINISIP-ANDROID-ABFB2CE0694B\LIBMNETUTIL\VS8_PROJ\DEBUG\VC110.PDB
^C:\MIKEY_CLEAN\IPL - DELIVERY 2\CODE\WINDOWS\SECOLLAB-MINISIP-ANDROID-ABFB2CE0694B\LIBMNETUTIL\SOURCE\LDAPCONNECTION.CXX
C:\MIKEY_CLEAN\IPL - DELIVERY 2\CODE\WINDOWS\SECOLLAB-MINISIP-ANDROID-ABFB2CE0694B\LIBMNETUTIL\VS8_PROJ\DEBUG\VC110.PDB
^C:\MIKEY_CLEAN\IPL - DELIVERY 2\CODE\WINDOWS\SECOLLAB-MINISIP-ANDROID-ABFB2CE0694B\LIBMNETUTIL\SOURCE\LDAPDOWNLOADER.CXX
C:\MIKEY_CLEAN\IPL - DELIVERY 2\CODE\WINDOWS\SECOLLAB-MINISIP-ANDROID-ABFB2CE0694B\LIBMNETUTIL\VS8_PROJ\DEBUG\VC110.PDB
^C:\MIKEY_CLEAN\IPL - DELIVERY 2\CODE\WINDOWS\SECOLLAB-MINISIP-ANDROID-ABFB2CE0694B\LIBMNETUTIL\SOURCE\LDAPENTRY.CXX
C:\MIKEY_CLEAN\IPL - DELIVERY 2\CODE\WINDOWS\SECOLLAB-MINISIP-ANDROID-ABFB2CE0694B\LIBMNETUTIL\VS8_PROJ\DEBUG\VC110.PDB
^C:\MIKEY_CLEAN\IPL - DELIVERY 2\CODE\WINDOWS\SECOLLAB-MINISIP-ANDROID-ABFB2CE0694B\LIBMNETUTIL\SOURCE\LDAPEXCEPTION.CXX
C:\MIKEY_CLEAN\IPL - DELIVERY 2\CODE\WINDOWS\SECOLLAB-MINISIP-ANDROID-ABFB2CE0694B\LIBMNETUTIL\VS8_PROJ\DEBUG\VC110.PDB
^C:\MIKEY_CLEAN\IPL - DELIVERY 2\CODE\WINDOWS\SECOLLAB-MINISIP-ANDROID-ABFB2CE0694B\LIBMNETUTIL\SOURCE\LDAPURL.CXX
C:\MIKEY_CLEAN\IPL - DELIVERY 2\CODE\WINDOWS\SECOLLAB-MINISIP-ANDROID-ABFB2CE0694B\LIBMNETUTIL\VS8_PROJ\DEBUG\VC110.PDB
^C:\MIKEY_CLEAN\IPL - DELIVERY 2\CODE\WINDOWS\SECOLLAB-MINISIP-ANDROID-ABFB2CE0694B\LIBMNETUTIL\SOURCE\NETUTIL.CXX
C:\MIKEY_CLEAN\IPL - DELIVERY 2\CODE\WINDOWS\SECOLLAB-MINISIP-ANDROID-ABFB2CE0694B\LIBMNETUTIL\VS8_PROJ\DEBUG\VC110.PDB
^C:\MIKEY_CLEAN\IPL - DELIVERY 2\CODE\WINDOWS\SECOLLAB-MINISIP-ANDROID-ABFB2CE0694B\LIBMNETUTIL\SOURCE\NETWORKEXCEPTION.CXX
C:\MIKEY_CLEAN\IPL - DELIVERY 2\CODE\WINDOWS\SECOLLAB-MINISIP-ANDROID-ABFB2CE0694B\LIBMNETUTIL\VS8_PROJ\DEBUG\VC110.PDB
^C:\MIKEY_CLEAN\IPL - DELIVERY 2\CODE\WINDOWS\SECOLLAB-MINISIP-ANDROID-ABFB2CE0694B\LIBMNETUTIL\SOURCE\NETWORKFUNCTIONS.CXX
C:\MIKEY_CLEAN\IPL - DELIVERY 2\CODE\WINDOWS\SECOLLAB-MINISIP-ANDROID-ABFB2CE0694B\LIBMNETUTIL\VS8_PROJ\DEBUG\VC110.PDB
^C:\MIKEY_CLEAN\IPL - DELIVERY 2\CODE\WINDOWS\SECOLLAB-MINISIP-ANDROID-ABFB2CE0694B\LIBMNETUTIL\SOURCE\NETWORKFUNCTIONSWIN32.CXX
C:\MIKEY_CLEAN\IPL - DELIVERY 2\CODE\WINDOWS\SECOLLAB-MINISIP-ANDROID-ABFB2CE0694B\LIBMNETUTIL\VS8_PROJ\DEBUG\VC110.PDB
^C:\MIKEY_CLEAN\IPL - DELIVERY 2\CODE\WINDOWS\SECOLLAB-MINISIP-ANDROID-ABFB2CE0694B\LIBMNETUTIL\SOURCE\SERVERSOCKET.CXX
C:\MIKEY_CLEAN\IPL - DELIVERY 2\CODE\WINDOWS\SECOLLAB-MINISIP-ANDROID-ABFB2CE0694B\LIBMNETUTIL\VS8_PROJ\DEBUG\VC110.PDB
^C:\MIKEY_CLEAN\IPL - DELIVERY 2\CODE\WINDOWS\SECOLLAB-MINISIP-ANDROID-ABFB2CE0694B\LIBMNETUTIL\SOURCE\SOCKET.CXX
C:\MIKEY_CLEAN\IPL - DELIVERY 2\CODE\WINDOWS\SECOLLAB-MINISIP-ANDROID-ABFB2CE0694B\LIBMNETUTIL\VS8_PROJ\DEBUG\VC110.PDB
^C:\MIKEY_CLEAN\IPL - DELIVERY 2\CODE\WINDOWS\SECOLLAB-MINISIP-ANDROID-ABFB2CE0694B\LIBMNETUTIL\SOURCE\SOCKETSERVER.CXX
C:\MIKEY_CLEAN\IPL - DELIVERY 2\CODE\WINDOWS\SECOLLAB-MINISIP-ANDROID-ABFB2CE0694B\LIBMNETUTIL\VS8_PROJ\DEBUG\VC110.PDB
^C:\MIKEY_CLEAN\IPL - DELIVERY 2\CODE\WINDOWS\SECOLLAB-MINISIP-ANDROID-ABFB2CE0694B\LIBMNETUTIL\SOURCE\STREAMSOCKET.CXX
C:\MIKEY_CLEAN\IPL - DELIVERY 2\CODE\WINDOWS\SECOLLAB-MINISIP-ANDROID-ABFB2CE0694B\LIBMNETUTIL\VS8_PROJ\DEBUG\VC110.PDB
^C:\MIKEY_CLEAN\IPL - DELIVERY 2\CODE\WINDOWS\SECOLLAB-MINISIP-ANDROID-ABFB2CE0694B\LIBMNETUTIL\SOURCE\TCPSOCKET.CXX
C:\MIKEY_CLEAN\IPL - DELIVERY 2\CODE\WINDOWS\SECOLLAB-MINISIP-ANDROID-ABFB2CE0694B\LIBMNETUTIL\VS8_PROJ\DEBUG\VC110.PDB
^C:\MIKEY_CLEAN\IPL - DELIVERY 2\CODE\WINDOWS\SECOLLAB-MINISIP-ANDROID-ABFB2CE0694B\LIBMNETUTIL\SOURCE\UDPSOCKET.CXX
C:\MIKEY_CLEAN\IPL - DELIVERY 2\CODE\WINDOWS\SECOLLAB-MINISIP-ANDROID-ABFB2CE0694B\LIBMNETUTIL\VS8_PROJ\DEBUG\VC110.PDB
^C:\MIKEY_CLEAN\IPL - DELIVERY 2\CODE\WINDOWS\SECOLLAB-MINISIP-ANDROID-ABFB2CE0694B\LIBMNETUTIL\INET_ATON.C|C:\MIKEY_CLEAN\IPL - DELIVERY 2\CODE\WINDOWS\SECOLLAB-MINISIP-ANDROID-ABFB2CE0694B\LIBMNETUTIL\INET_NTOP.C|C:\MIKEY_CLEAN\IPL - DELIVERY 2\CODE\WINDOWS\SECOLLAB-MINISIP-ANDROID-ABFB2CE0694B\LIBMNETUTIL\INET_PTON.C|C:\MIKEY_CLEAN\IPL - DELIVERY 2\CODE\WINDOWS\SECOLLAB-MINISIP-ANDROID-ABFB2CE0694B\LIBMNETUTIL\UDNS\SOURCE\UDNS_BL.C|C:\MIKEY_CLEAN\IPL - DELIVERY 2\CODE\WINDOWS\SECOLLAB-MINISIP-ANDROID-ABFB2CE0694B\LIBMNETUTIL\UDNS\SOURCE\UDNS_DN.C|C:\MIKEY_CLEAN\IPL - DELIVERY 2\CODE\WINDOWS\SECOLLAB-MINISIP-ANDROID-ABFB2CE0694B\LIBMNETUTIL\UDNS\SOURCE\UDNS_DNTOSP.C|C:\MIKEY_CLEAN\IPL - DELIVERY 2\CODE\WINDOWS\SECOLLAB-MINISIP-ANDROID-ABFB2CE0694B\LIBMNETUTIL\UDNS\SOURCE\UDNS_MISC.C|C:\MIKEY_CLEAN\IPL - DELIVERY 2\CODE\WINDOWS\SECOLLAB-MINISIP-ANDROID-ABFB2CE0694B\LIBMNETUTIL\UDNS\SOURCE\UDNS_PARSE.C|C:\MIKEY_CLEAN\IPL - DELIVERY 2\CODE\WINDOWS\SECOLLAB-MINISIP-ANDROID-ABFB2CE0694B\LIBMNETUTIL\UDNS\SOURCE\UDNS_RESOLVER.C|C:\MIKEY_CLEAN\IPL - DELIVERY 2\CODE\WINDOWS\SECOLLAB-MINISIP-ANDROID-ABFB2CE0694B\LIBMNETUTIL\UDNS\SOURCE\UDNS_RR_A.C|C:\MIKEY_CLEAN\IPL - DELIVERY 2\CODE\WINDOWS\SECOLLAB-MINISIP-ANDROID-ABFB2CE0694B\LIBMNETUTIL\UDNS\SOURCE\UDNS_RR_MX.C|C:\MIKEY_CLEAN\IPL - DELIVERY 2\CODE\WINDOWS\SECOLLAB-MINISIP-ANDROID-ABFB2CE0694B\LIBMNETUTIL\UDNS\SOURCE\UDNS_RR_NAPTR.C|C:\MIKEY_CLEAN\IPL - DELIVERY 2\CODE\WINDOWS\SECOLLAB-MINISIP-ANDROID-ABFB2CE0694B\LIBMNETUTIL\UDNS\SOURCE\UDNS_RR_PTR.C|C:\MIKEY_CLEAN\IPL - DELIVERY 2\CODE\WINDOWS\SECOLLAB-MINISIP-ANDROID-ABFB2CE0694B\LIBMNETUTIL\UDNS\SOURCE\UDNS_RR_SRV.C|C:\MIKEY_CLEAN\IPL - DELIVERY 2\CODE\WINDOWS\SECOLLAB-MINISIP-ANDROID-ABFB2CE0694B\LIBMNETUTIL\UDNS\SOURCE\UDNS_RR_TXT.C
C:\MIKEY_CLEAN\IPL - DELIVERY 2\CODE\WINDOWS\SECOLLAB-MINISIP-ANDROID-ABFB2CE0694B\LIBMNETUTIL\VS8_PROJ\DEBUG\INET_ATON.OBJ
C:\MIKEY_CLEAN\IPL - DELIVERY 2\CODE\WINDOWS\SECOLLAB-MINISIP-ANDROID-ABFB2CE0694B\LIBMNETUTIL\VS8_PROJ\DEBUG\INET_NTOP.OBJ
C:\MIKEY_CLEAN\IPL - DELIVERY 2\CODE\WINDOWS\SECOLLAB-MINISIP-ANDROID-ABFB2CE0694B\LIBMNETUTIL\VS8_PROJ\DEBUG\INET_PTON.OBJ
C:\MIKEY_CLEAN\IPL - DELIVERY 2\CODE\WINDOWS\SECOLLAB-MINISIP-ANDROID-ABFB2CE0694B\LIBMNETUTIL\VS8_PROJ\DEBUG\UDNS_BL.OBJ
C:\MIKEY_CLEAN\IPL - DELIVERY 2\CODE\WINDOWS\SECOLLAB-MINISIP-ANDROID-ABFB2CE0694B\LIBMNETUTIL\VS8_PROJ\DEBUG\UDNS_DN.OBJ
C:\MIKEY_CLEAN\IPL - DELIVERY 2\CODE\WINDOWS\SECOLLAB-MINISIP-ANDROID-ABFB2CE0694B\LIBMNETUTIL\VS8_PROJ\DEBUG\UDNS_DNTOSP.OBJ
C:\MIKEY_CLEAN\IPL - DELIVERY 2\CODE\WINDOWS\SECOLLAB-MINISIP-ANDROID-ABFB2CE0694B\LIBMNETUTIL\VS8_PROJ\DEBUG\UDNS_MISC.OBJ
C:\MIKEY_CLEAN\IPL - DELIVERY 2\CODE\WINDOWS\SECOLLAB-MINISIP-ANDROID-ABFB2CE0694B\LIBMNETUTIL\VS8_PROJ\DEBUG\UDNS_PARSE.OBJ
C:\MIKEY_CLEAN\IPL - DELIVERY 2\CODE\WINDOWS\SECOLLAB-MINISIP-ANDROID-ABFB2CE0694B\LIBMNETUTIL\VS8_PROJ\DEBUG\UDNS_RESOLVER.OBJ
C:\MIKEY_CLEAN\IPL - DELIVERY 2\CODE\WINDOWS\SECOLLAB-MINISIP-ANDROID-ABFB2CE0694B\LIBMNETUTIL\VS8_PROJ\DEBUG\UDNS_RR_A.OBJ
C:\MIKEY_CLEAN\IPL - DELIVERY 2\CODE\WINDOWS\SECOLLAB-MINISIP-ANDROID-ABFB2CE0694B\LIBMNETUTIL\VS8_PROJ\DEBUG\UDNS_RR_MX.OBJ
C:\MIKEY_CLEAN\IPL - DELIVERY 2\CODE\WINDOWS\SECOLLAB-MINISIP-ANDROID-ABFB2CE0694B\LIBMNETUTIL\VS8_PROJ\DEBUG\UDNS_RR_NAPTR.OBJ
C:\MIKEY_CLEAN\IPL - DELIVERY 2\CODE\WINDOWS\SECOLLAB-MINISIP-ANDROID-ABFB2CE0694B\LIBMNETUTIL\VS8_PROJ\DEBUG\UDNS_RR_PTR.OBJ
C:\MIKEY_CLEAN\IPL - DELIVERY 2\CODE\WINDOWS\SECOLLAB-MINISIP-ANDROID-ABFB2CE0694B\LIBMNETUTIL\VS8_PROJ\DEBUG\UDNS_RR_SRV.OBJ
C:\MIKEY_CLEAN\IPL - DELIVERY 2\CODE\WINDOWS\SECOLLAB-MINISIP-ANDROID-ABFB2CE0694B\LIBMNETUTIL\VS8_PROJ\DEBUG\UDNS_RR_TXT.OBJ
^C:\MIKEY_CLEAN\IPL - DELIVERY 2\CODE\WINDOWS\SECOLLAB-MINISIP-ANDROID-ABFB2CE0694B\LIBMNETUTIL\INET_ATON.C
C:\MIKEY_CLEAN\IPL - DELIVERY 2\CODE\WINDOWS\SECOLLAB-MINISIP-ANDROID-ABFB2CE0694B\LIBMNETUTIL\VS8_PROJ\DEBUG\VC110.PDB
^C:\MIKEY_CLEAN\IPL - DELIVERY 2\CODE\WINDOWS\SECOLLAB-MINISIP-ANDROID-ABFB2CE0694B\LIBMNETUTIL\INET_NTOP.C
C:\MIKEY_CLEAN\IPL - DELIVERY 2\CODE\WINDOWS\SECOLLAB-MINISIP-ANDROID-ABFB2CE0694B\LIBMNETUTIL\VS8_PROJ\DEBUG\VC110.PDB
^C:\MIKEY_CLEAN\IPL - DELIVERY 2\CODE\WINDOWS\SECOLLAB-MINISIP-ANDROID-ABFB2CE0694B\LIBMNETUTIL\INET_PTON.C
C:\MIKEY_CLEAN\IPL - DELIVERY 2\CODE\WINDOWS\SECOLLAB-MINISIP-ANDROID-ABFB2CE0694B\LIBMNETUTIL\VS8_PROJ\DEBUG\VC110.PDB
^C:\MIKEY_CLEAN\IPL - DELIVERY 2\CODE\WINDOWS\SECOLLAB-MINISIP-ANDROID-ABFB2CE0694B\LIBMNETUTIL\UDNS\SOURCE\UDNS_BL.C
C:\MIKEY_CLEAN\IPL - DELIVERY 2\CODE\WINDOWS\SECOLLAB-MINISIP-ANDROID-ABFB2CE0694B\LIBMNETUTIL\VS8_PROJ\DEBUG\VC110.PDB
^C:\MIKEY_CLEAN\IPL - DELIVERY 2\CODE\WINDOWS\SECOLLAB-MINISIP-ANDROID-ABFB2CE0694B\LIBMNETUTIL\UDNS\SOURCE\UDNS_DN.C
C:\MIKEY_CLEAN\IPL - DELIVERY 2\CODE\WINDOWS\SECOLLAB-MINISIP-ANDROID-ABFB2CE0694B\LIBMNETUTIL\VS8_PROJ\DEBUG\VC110.PDB
^C:\MIKEY_CLEAN\IPL - DELIVERY 2\CODE\WINDOWS\SECOLLAB-MINISIP-ANDROID-ABFB2CE0694B\LIBMNETUTIL\UDNS\SOURCE\UDNS_DNTOSP.C
C:\MIKEY_CLEAN\IPL - DELIVERY 2\CODE\WINDOWS\SECOLLAB-MINISIP-ANDROID-ABFB2CE0694B\LIBMNETUTIL\VS8_PROJ\DEBUG\VC110.PDB
^C:\MIKEY_CLEAN\IPL - DELIVERY 2\CODE\WINDOWS\SECOLLAB-MINISIP-ANDROID-ABFB2CE0694B\LIBMNETUTIL\UDNS\SOURCE\UDNS_MISC.C
C:\MIKEY_CLEAN\IPL - DELIVERY 2\CODE\WINDOWS\SECOLLAB-MINISIP-ANDROID-ABFB2CE0694B\LIBMNETUTIL\VS8_PROJ\DEBUG\VC110.PDB
^C:\MIKEY_CLEAN\IPL - DELIVERY 2\CODE\WINDOWS\SECOLLAB-MINISIP-ANDROID-ABFB2CE0694B\LIBMNETUTIL\UDNS\SOURCE\UDNS_PARSE.C
C:\MIKEY_CLEAN\IPL - DELIVERY 2\CODE\WINDOWS\SECOLLAB-MINISIP-ANDROID-ABFB2CE0694B\LIBMNETUTIL\VS8_PROJ\DEBUG\VC110.PDB
^C:\MIKEY_CLEAN\IPL - DELIVERY 2\CODE\WINDOWS\SECOLLAB-MINISIP-ANDROID-ABFB2CE0694B\LIBMNETUTIL\UDNS\SOURCE\UDNS_RESOLVER.C
C:\MIKEY_CLEAN\IPL - DELIVERY 2\CODE\WINDOWS\SECOLLAB-MINISIP-ANDROID-ABFB2CE0694B\LIBMNETUTIL\VS8_PROJ\DEBUG\VC110.PDB
^C:\MIKEY_CLEAN\IPL - DELIVERY 2\CODE\WINDOWS\SECOLLAB-MINISIP-ANDROID-ABFB2CE0694B\LIBMNETUTIL\UDNS\SOURCE\UDNS_RR_A.C
C:\MIKEY_CLEAN\IPL - DELIVERY 2\CODE\WINDOWS\SECOLLAB-MINISIP-ANDROID-ABFB2CE0694B\LIBMNETUTIL\VS8_PROJ\DEBUG\VC110.PDB
^C:\MIKEY_CLEAN\IPL - DELIVERY 2\CODE\WINDOWS\SECOLLAB-MINISIP-ANDROID-ABFB2CE0694B\LIBMNETUTIL\UDNS\SOURCE\UDNS_RR_MX.C
C:\MIKEY_CLEAN\IPL - DELIVERY 2\CODE\WINDOWS\SECOLLAB-MINISIP-ANDROID-ABFB2CE0694B\LIBMNETUTIL\VS8_PROJ\DEBUG\VC110.PDB
^C:\MIKEY_CLEAN\IPL - DELIVERY 2\CODE\WINDOWS\SECOLLAB-MINISIP-ANDROID-ABFB2CE0694B\LIBMNETUTIL\UDNS\SOURCE\UDNS_RR_NAPTR.C
C:\MIKEY_CLEAN\IPL - DELIVERY 2\CODE\WINDOWS\SECOLLAB-MINISIP-ANDROID-ABFB2CE0694B\LIBMNETUTIL\VS8_PROJ\DEBUG\VC110.PDB
^C:\MIKEY_CLEAN\IPL - DELIVERY 2\CODE\WINDOWS\SECOLLAB-MINISIP-ANDROID-ABFB2CE0694B\LIBMNETUTIL\UDNS\SOURCE\UDNS_RR_PTR.C
C:\MIKEY_CLEAN\IPL - DELIVERY 2\CODE\WINDOWS\SECOLLAB-MINISIP-ANDROID-ABFB2CE0694B\LIBMNETUTIL\VS8_PROJ\DEBUG\VC110.PDB
^C:\MIKEY_CLEAN\IPL - DELIVERY 2\CODE\WINDOWS\SECOLLAB-MINISIP-ANDROID-ABFB2CE0694B\LIBMNETUTIL\UDNS\SOURCE\UDNS_RR_SRV.C
C:\MIKEY_CLEAN\IPL - DELIVERY 2\CODE\WINDOWS\SECOLLAB-MINISIP-ANDROID-ABFB2CE0694B\LIBMNETUTIL\VS8_PROJ\DEBUG\VC110.PDB
^C:\MIKEY_CLEAN\IPL - DELIVERY 2\CODE\WINDOWS\SECOLLAB-MINISIP-ANDROID-ABFB2CE0694B\LIBMNETUTIL\UDNS\SOURCE\UDNS_RR_TXT.C
C:\MIKEY_CLEAN\IPL - DELIVERY 2\CODE\WINDOWS\SECOLLAB-MINISIP-ANDROID-ABFB2CE0694B\LIBMNETUTIL\VS8_PROJ\DEBUG\VC110.PDB
