^C:\MIKEY_CLEAN\IPL - DELIVERY 2\CODE\WINDOWS\MIKEYSAKKEINTEGRATIONGUI\MIKEYSAKKEINTEGRATIONGUI\MIKEYSAKKEINTEGRATIONGUI.RC
C:\MIKEY_CLEAN\IPL - DELIVERY 2\CODE\WINDOWS\MIKEYSAKKEINTEGRATIONGUI\MIKEYSAKKEINTEGRATIONGUI\RESOURCE.H
C:\MIKEY_CLEAN\IPL - DELIVERY 2\CODE\WINDOWS\MIKEYSAKKEINTEGRATIONGUI\MIKEYSAKKEINTEGRATIONGUI\TARGETVER.H
C:\PROGRAM FILES (X86)\WINDOWS KITS\8.0\INCLUDE\SHARED\SDKDDKVER.H
C:\PROGRAM FILES (X86)\WINDOWS KITS\8.0\INCLUDE\UM\WINDOWS.H
C:\PROGRAM FILES (X86)\WINDOWS KITS\8.0\INCLUDE\SHARED\WINAPIFAMILY.H
C:\PROGRAM FILES (X86)\WINDOWS KITS\8.0\INCLUDE\UM\WINRESRC.H
C:\PROGRAM FILES (X86)\WINDOWS KITS\8.0\INCLUDE\UM\WINUSER.RH
C:\PROGRAM FILES (X86)\WINDOWS KITS\8.0\INCLUDE\UM\COMMCTRL.RH
C:\PROGRAM FILES (X86)\WINDOWS KITS\8.0\INCLUDE\UM\DDE.RH
C:\PROGRAM FILES (X86)\WINDOWS KITS\8.0\INCLUDE\UM\WINNT.RH
C:\PROGRAM FILES (X86)\WINDOWS KITS\8.0\INCLUDE\UM\DLGS.H
C:\PROGRAM FILES (X86)\WINDOWS KITS\8.0\INCLUDE\UM\WINVER.H
C:\PROGRAM FILES (X86)\WINDOWS KITS\8.0\INCLUDE\SHARED\SPECSTRINGS.H
C:\PROGRAM FILES (X86)\MICROSOFT VISUAL STUDIO 11.0\VC\INCLUDE\SAL.H
C:\PROGRAM FILES (X86)\MICROSOFT VISUAL STUDIO 11.0\VC\INCLUDE\CONCURRENCYSAL.H
C:\PROGRAM FILES (X86)\WINDOWS KITS\8.0\INCLUDE\SHARED\DRIVERSPECS.H
C:\PROGRAM FILES (X86)\WINDOWS KITS\8.0\INCLUDE\SHARED\SDV_DRIVERSPECS.H
C:\PROGRAM FILES (X86)\WINDOWS KITS\8.0\INCLUDE\UM\VERRSRC.H
C:\MIKEY_CLEAN\IPL - DELIVERY 2\CODE\WINDOWS\MIKEYSAKKEINTEGRATIONGUI\MIKEYSAKKEINTEGRATIONGUI\MIKEYSAKKEINTEGRATIONGUI.ICO
C:\MIKEY_CLEAN\IPL - DELIVERY 2\CODE\WINDOWS\MIKEYSAKKEINTEGRATIONGUI\MIKEYSAKKEINTEGRATIONGUI\SMALL.ICO
