^C:\MIKEY_CLEAN\IPL - DELIVERY 2\CODE\WINDOWS\SECOLLAB-LIBMIKEY-SAKKE-1616CF77B1CD\SELEX\MSKMS\CLIENT\SRC\JSON\JSONCPP.CPP
/c /ZI /nologo /W3 /WX- /Od /Oy- /D WIN32 /D _DEBUG /D _LIB /D _UNICODE /D UNICODE /D CURL_STATICLIB /Gm /EHsc /RTC1 /MDd /GS /fp:precise /Zc:wchar_t /Zc:forScope /Fo"DEBUG\\" /Fd"DEBUG\VC110.PDB" /Gd /TP /analyze- C:\MIKEY_CLEAN\IPL - DELIVERY 2\CODE\WINDOWS\SECOLLAB-LIBMIKEY-SAKKE-1616CF77B1CD\SELEX\MSKMS\CLIENT\SRC\JSON\JSONCPP.CPP
^C:\MIKEY_CLEAN\IPL - DELIVERY 2\CODE\WINDOWS\SECOLLAB-LIBMIKEY-SAKKE-1616CF77B1CD\SELEX\MSKMS\CLIENT\SRC\MSKMS\CLIENT.CPP
/c /ZI /nologo /W3 /WX- /Od /Oy- /D DEBUG /D WIN32 /D _DEBUG /D _LIB /D WIN32 /D _DEBUG /D _LIB /D _UNICODE /D UNICODE /D CURL_STATICLIB /D CURL_STATICLIB /Gm /EHsc /RTC1 /MDd /GS /fp:precise /Zc:wchar_t /Zc:forScope /Fo"DEBUG\\" /Fd"DEBUG\VC110.PDB" /Gd /TP /analyze- C:\MIKEY_CLEAN\IPL - DELIVERY 2\CODE\WINDOWS\SECOLLAB-LIBMIKEY-SAKKE-1616CF77B1CD\SELEX\MSKMS\CLIENT\SRC\MSKMS\CLIENT.CPP
