^C:\MIKEY_CLEAN\IPL - DELIVERY 2\CODE\WINDOWS\MIKEYSAKKEINTEGRATIONGUI\MIKEYSAKKEINTEGRATIONGUI\STDAFX.CPP
C:\MIKEY_CLEAN\IPL - DELIVERY 2\CODE\WINDOWS\MIKEYSAKKEINTEGRATIONGUI\MIKEYSAKKEINTEGRATIONGUI\DEBUG\MIKEYSAKKEINTEGRATIONGUI.PCH
C:\MIKEY_CLEAN\IPL - DELIVERY 2\CODE\WINDOWS\MIKEYSAKKEINTEGRATIONGUI\MIKEYSAKKEINTEGRATIONGUI\DEBUG\STDAFX.OBJ
C:\MIKEY_CLEAN\IPL - DELIVERY 2\CODE\WINDOWS\MIKEYSAKKEINTEGRATIONGUI\MIKEYSAKKEINTEGRATIONGUI\DEBUG\VC110.PDB
^C:\MIKEY_CLEAN\IPL - DELIVERY 2\CODE\WINDOWS\MIKEYSAKKEINTEGRATIONGUI\MIKEYSAKKEINTEGRATIONGUI\MESSAGE.CPP|C:\MIKEY_CLEAN\IPL - DELIVERY 2\CODE\WINDOWS\MIKEYSAKKEINTEGRATIONGUI\MIKEYSAKKEINTEGRATIONGUI\MIKEYSAKKEINTEGRATIONGUI.CPP
C:\MIKEY_CLEAN\IPL - DELIVERY 2\CODE\WINDOWS\MIKEYSAKKEINTEGRATIONGUI\MIKEYSAKKEINTEGRATIONGUI\DEBUG\MESSAGE.OBJ
C:\MIKEY_CLEAN\IPL - DELIVERY 2\CODE\WINDOWS\MIKEYSAKKEINTEGRATIONGUI\MIKEYSAKKEINTEGRATIONGUI\DEBUG\MIKEYSAKKEINTEGRATIONGUI.OBJ
^C:\MIKEY_CLEAN\IPL - DELIVERY 2\CODE\WINDOWS\MIKEYSAKKEINTEGRATIONGUI\MIKEYSAKKEINTEGRATIONGUI\MESSAGE.CPP
C:\MIKEY_CLEAN\IPL - DELIVERY 2\CODE\WINDOWS\MIKEYSAKKEINTEGRATIONGUI\MIKEYSAKKEINTEGRATIONGUI\DEBUG\VC110.PDB
^C:\MIKEY_CLEAN\IPL - DELIVERY 2\CODE\WINDOWS\MIKEYSAKKEINTEGRATIONGUI\MIKEYSAKKEINTEGRATIONGUI\MIKEYSAKKEINTEGRATIONGUI.CPP
C:\MIKEY_CLEAN\IPL - DELIVERY 2\CODE\WINDOWS\MIKEYSAKKEINTEGRATIONGUI\MIKEYSAKKEINTEGRATIONGUI\DEBUG\VC110.PDB
