^C:\MIKEY_CLEAN\IPL - DELIVERY 2\CODE\WINDOWS\SECOLLAB-MINISIP-ANDROID-ABFB2CE0694B\MINISIP\VS8_PROJ\RELEASE\MINISIPTEXTMAIN.OBJ|C:\MIKEY_CLEAN\IPL - DELIVERY 2\CODE\WINDOWS\SECOLLAB-MINISIP-ANDROID-ABFB2CE0694B\MINISIP\VS8_PROJ\RELEASE\MINISIPTEXTUI.OBJ
C:\MIKEY_CLEAN\IPL - DELIVERY 2\CODE\WINDOWS\SECOLLAB-MINISIP-ANDROID-ABFB2CE0694B\MINISIP\OVERALL\GUI_OVERALL\RELEASE\MINISIP_TEXTUI.EXE
C:\MIKEY_CLEAN\IPL - DELIVERY 2\CODE\WINDOWS\SECOLLAB-MINISIP-ANDROID-ABFB2CE0694B\MINISIP\OVERALL\GUI_OVERALL\RELEASE\MINISIP_TEXTUI.PDB
