^C:\MIKEY_CLEAN\IPL - DELIVERY 2\CODE\WINDOWS\SECOLLAB-MINISIP-ANDROID-ABFB2CE0694B\MINISIP\VS12_PROJ_GUI\VS12_PROJ_GUI\STDAFX.CPP
C:\MIKEY_CLEAN\IPL - DELIVERY 2\CODE\WINDOWS\SECOLLAB-MINISIP-ANDROID-ABFB2CE0694B\MINISIP\VS12_PROJ_GUI\VS12_PROJ_GUI\DEBUG\VS12_PROJ_GUI.PCH
C:\MIKEY_CLEAN\IPL - DELIVERY 2\CODE\WINDOWS\SECOLLAB-MINISIP-ANDROID-ABFB2CE0694B\MINISIP\VS12_PROJ_GUI\VS12_PROJ_GUI\DEBUG\STDAFX.OBJ
C:\MIKEY_CLEAN\IPL - DELIVERY 2\CODE\WINDOWS\SECOLLAB-MINISIP-ANDROID-ABFB2CE0694B\MINISIP\VS12_PROJ_GUI\VS12_PROJ_GUI\DEBUG\VC110.PDB
^C:\MIKEY_CLEAN\IPL - DELIVERY 2\CODE\WINDOWS\SECOLLAB-MINISIP-ANDROID-ABFB2CE0694B\MINISIP\VS12_PROJ_GUI\VS12_PROJ_GUI\MINISIPWIN32UI.CPP|C:\MIKEY_CLEAN\IPL - DELIVERY 2\CODE\WINDOWS\SECOLLAB-MINISIP-ANDROID-ABFB2CE0694B\MINISIP\VS12_PROJ_GUI\VS12_PROJ_GUI\VS12_PROJ_GUI.CPP|C:\MIKEY_CLEAN\IPL - DELIVERY 2\CODE\WINDOWS\SECOLLAB-MINISIP-ANDROID-ABFB2CE0694B\MINISIP\VS12_PROJ_GUI\VS12_PROJ_GUI\VS12_PROJ_GUIDLG.CPP
C:\MIKEY_CLEAN\IPL - DELIVERY 2\CODE\WINDOWS\SECOLLAB-MINISIP-ANDROID-ABFB2CE0694B\MINISIP\VS12_PROJ_GUI\VS12_PROJ_GUI\DEBUG\MINISIPWIN32UI.OBJ
C:\MIKEY_CLEAN\IPL - DELIVERY 2\CODE\WINDOWS\SECOLLAB-MINISIP-ANDROID-ABFB2CE0694B\MINISIP\VS12_PROJ_GUI\VS12_PROJ_GUI\DEBUG\VS12_PROJ_GUI.OBJ
C:\MIKEY_CLEAN\IPL - DELIVERY 2\CODE\WINDOWS\SECOLLAB-MINISIP-ANDROID-ABFB2CE0694B\MINISIP\VS12_PROJ_GUI\VS12_PROJ_GUI\DEBUG\VS12_PROJ_GUIDLG.OBJ
^C:\MIKEY_CLEAN\IPL - DELIVERY 2\CODE\WINDOWS\SECOLLAB-MINISIP-ANDROID-ABFB2CE0694B\MINISIP\VS12_PROJ_GUI\VS12_PROJ_GUI\MINISIPWIN32UI.CPP
C:\MIKEY_CLEAN\IPL - DELIVERY 2\CODE\WINDOWS\SECOLLAB-MINISIP-ANDROID-ABFB2CE0694B\MINISIP\VS12_PROJ_GUI\VS12_PROJ_GUI\DEBUG\VC110.PDB
^C:\MIKEY_CLEAN\IPL - DELIVERY 2\CODE\WINDOWS\SECOLLAB-MINISIP-ANDROID-ABFB2CE0694B\MINISIP\VS12_PROJ_GUI\VS12_PROJ_GUI\VS12_PROJ_GUI.CPP
C:\MIKEY_CLEAN\IPL - DELIVERY 2\CODE\WINDOWS\SECOLLAB-MINISIP-ANDROID-ABFB2CE0694B\MINISIP\VS12_PROJ_GUI\VS12_PROJ_GUI\DEBUG\VC110.PDB
^C:\MIKEY_CLEAN\IPL - DELIVERY 2\CODE\WINDOWS\SECOLLAB-MINISIP-ANDROID-ABFB2CE0694B\MINISIP\VS12_PROJ_GUI\VS12_PROJ_GUI\VS12_PROJ_GUIDLG.CPP
C:\MIKEY_CLEAN\IPL - DELIVERY 2\CODE\WINDOWS\SECOLLAB-MINISIP-ANDROID-ABFB2CE0694B\MINISIP\VS12_PROJ_GUI\VS12_PROJ_GUI\DEBUG\VC110.PDB
