^C:\MIKEY_CLEAN\IPL - DELIVERY 2\CODE\WINDOWS\SECOLLAB-MINISIP-ANDROID-ABFB2CE0694B\MINISIP\VS12_PROJ_GUI\VS12_PROJ_GUI\DEBUG\MINISIPWIN32UI.OBJ|C:\MIKEY_CLEAN\IPL - DELIVERY 2\CODE\WINDOWS\SECOLLAB-MINISIP-ANDROID-ABFB2CE0694B\MINISIP\VS12_PROJ_GUI\VS12_PROJ_GUI\DEBUG\STDAFX.OBJ|C:\MIKEY_CLEAN\IPL - DELIVERY 2\CODE\WINDOWS\SECOLLAB-MINISIP-ANDROID-ABFB2CE0694B\MINISIP\VS12_PROJ_GUI\VS12_PROJ_GUI\DEBUG\VS12_PROJ_GUI.OBJ|C:\MIKEY_CLEAN\IPL - DELIVERY 2\CODE\WINDOWS\SECOLLAB-MINISIP-ANDROID-ABFB2CE0694B\MINISIP\VS12_PROJ_GUI\VS12_PROJ_GUI\DEBUG\VS12_PROJ_GUI.RES|C:\MIKEY_CLEAN\IPL - DELIVERY 2\CODE\WINDOWS\SECOLLAB-MINISIP-ANDROID-ABFB2CE0694B\MINISIP\VS12_PROJ_GUI\VS12_PROJ_GUI\DEBUG\VS12_PROJ_GUIDLG.OBJ
C:\MIKEY_CLEAN\IPL - DELIVERY 2\CODE\WINDOWS\SECOLLAB-MINISIP-ANDROID-ABFB2CE0694B\MINISIP\OVERALL\GUI_OVERALL\DEBUG\MINISIP.ILK
C:\MIKEY_CLEAN\IPL - DELIVERY 2\CODE\WINDOWS\SECOLLAB-MINISIP-ANDROID-ABFB2CE0694B\MINISIP\OVERALL\GUI_OVERALL\DEBUG\MINISIP.EXE
C:\MIKEY_CLEAN\IPL - DELIVERY 2\CODE\WINDOWS\SECOLLAB-MINISIP-ANDROID-ABFB2CE0694B\MINISIP\OVERALL\GUI_OVERALL\DEBUG\VS12_PROJ_GUI.PDB
