^C:\CODE\IPL - DELIVERY 2\CODE\WINDOWS\SECOLLAB-MINISIP-ANDROID-ABFB2CE0694B\LIBMSIP\SOURCE\HEADERS\SIPHEADERSNAKESM.CXX
/c /I..\include /I..\..\libmcrypto\include /I..\..\libmnetutil\include /I..\..\libmutil\include /Zi /nologo /W3 /WX- /O2 /Oy- /GL /D _UNICODE /D UNICODE /Gm- /EHsc /MD /GS /fp:precise /Zc:wchar_t /Zc:forScope /Fo"RELEASE\\" /Fd"RELEASE\VC110.PDB" /Gd /TP /analyze- C:\CODE\IPL - DELIVERY 2\CODE\WINDOWS\SECOLLAB-MINISIP-ANDROID-ABFB2CE0694B\LIBMSIP\SOURCE\HEADERS\SIPHEADERSNAKESM.CXX
^C:\CODE\IPL - DELIVERY 2\CODE\WINDOWS\SECOLLAB-MINISIP-ANDROID-ABFB2CE0694B\LIBMSIP\SOURCE\SIPAUTHENTICATIONDIGEST.CXX
/c /I..\include /I..\..\libmcrypto\include /I..\..\libmnetutil\include /I..\..\libmutil\include /Zi /nologo /W3 /WX- /O2 /Oy- /GL /D _UNICODE /D UNICODE /Gm- /EHsc /MD /GS /fp:precise /Zc:wchar_t /Zc:forScope /Fo"RELEASE\\" /Fd"RELEASE\VC110.PDB" /Gd /TP /analyze- C:\CODE\IPL - DELIVERY 2\CODE\WINDOWS\SECOLLAB-MINISIP-ANDROID-ABFB2CE0694B\LIBMSIP\SOURCE\SIPAUTHENTICATIONDIGEST.CXX
^C:\CODE\IPL - DELIVERY 2\CODE\WINDOWS\SECOLLAB-MINISIP-ANDROID-ABFB2CE0694B\LIBMSIP\SOURCE\SIPCOMMANDDISPATCHER.CXX
/c /I..\include /I..\..\libmcrypto\include /I..\..\libmnetutil\include /I..\..\libmutil\include /Zi /nologo /W3 /WX- /O2 /Oy- /GL /D _UNICODE /D UNICODE /Gm- /EHsc /MD /GS /fp:precise /Zc:wchar_t /Zc:forScope /Fo"RELEASE\\" /Fd"RELEASE\VC110.PDB" /Gd /TP /analyze- C:\CODE\IPL - DELIVERY 2\CODE\WINDOWS\SECOLLAB-MINISIP-ANDROID-ABFB2CE0694B\LIBMSIP\SOURCE\SIPCOMMANDDISPATCHER.CXX
^C:\CODE\IPL - DELIVERY 2\CODE\WINDOWS\SECOLLAB-MINISIP-ANDROID-ABFB2CE0694B\LIBMSIP\SOURCE\SIPCOMMANDSTRING.CXX
/c /I..\include /I..\..\libmcrypto\include /I..\..\libmnetutil\include /I..\..\libmutil\include /Zi /nologo /W3 /WX- /O2 /Oy- /GL /D _UNICODE /D UNICODE /Gm- /EHsc /MD /GS /fp:precise /Zc:wchar_t /Zc:forScope /Fo"RELEASE\\" /Fd"RELEASE\VC110.PDB" /Gd /TP /analyze- C:\CODE\IPL - DELIVERY 2\CODE\WINDOWS\SECOLLAB-MINISIP-ANDROID-ABFB2CE0694B\LIBMSIP\SOURCE\SIPCOMMANDSTRING.CXX
^C:\CODE\IPL - DELIVERY 2\CODE\WINDOWS\SECOLLAB-MINISIP-ANDROID-ABFB2CE0694B\LIBMSIP\SOURCE\DIALOGS\SIPDIALOG.CXX
/c /I..\include /I..\..\libmcrypto\include /I..\..\libmnetutil\include /I..\..\libmutil\include /Zi /nologo /W3 /WX- /O2 /Oy- /GL /D _UNICODE /D UNICODE /Gm- /EHsc /MD /GS /fp:precise /Zc:wchar_t /Zc:forScope /Fo"RELEASE\\" /Fd"RELEASE\VC110.PDB" /Gd /TP /analyze- C:\CODE\IPL - DELIVERY 2\CODE\WINDOWS\SECOLLAB-MINISIP-ANDROID-ABFB2CE0694B\LIBMSIP\SOURCE\DIALOGS\SIPDIALOG.CXX
^C:\CODE\IPL - DELIVERY 2\CODE\WINDOWS\SECOLLAB-MINISIP-ANDROID-ABFB2CE0694B\LIBMSIP\SOURCE\SIPDIALOGCONFIG.CXX
/c /I..\include /I..\..\libmcrypto\include /I..\..\libmnetutil\include /I..\..\libmutil\include /Zi /nologo /W3 /WX- /O2 /Oy- /GL /D _UNICODE /D UNICODE /Gm- /EHsc /MD /GS /fp:precise /Zc:wchar_t /Zc:forScope /Fo"RELEASE\\" /Fd"RELEASE\VC110.PDB" /Gd /TP /analyze- C:\CODE\IPL - DELIVERY 2\CODE\WINDOWS\SECOLLAB-MINISIP-ANDROID-ABFB2CE0694B\LIBMSIP\SOURCE\SIPDIALOGCONFIG.CXX
^C:\CODE\IPL - DELIVERY 2\CODE\WINDOWS\SECOLLAB-MINISIP-ANDROID-ABFB2CE0694B\LIBMSIP\SOURCE\DIALOGS\SIPDIALOGMANAGEMENT.CXX
/c /I..\include /I..\..\libmcrypto\include /I..\..\libmnetutil\include /I..\..\libmutil\include /Zi /nologo /W3 /WX- /O2 /Oy- /GL /D _UNICODE /D UNICODE /Gm- /EHsc /MD /GS /fp:precise /Zc:wchar_t /Zc:forScope /Fo"RELEASE\\" /Fd"RELEASE\VC110.PDB" /Gd /TP /analyze- C:\CODE\IPL - DELIVERY 2\CODE\WINDOWS\SECOLLAB-MINISIP-ANDROID-ABFB2CE0694B\LIBMSIP\SOURCE\DIALOGS\SIPDIALOGMANAGEMENT.CXX
^C:\CODE\IPL - DELIVERY 2\CODE\WINDOWS\SECOLLAB-MINISIP-ANDROID-ABFB2CE0694B\LIBMSIP\SOURCE\DIALOGS\SIPDIALOGREGISTER.CXX
/c /I..\include /I..\..\libmcrypto\include /I..\..\libmnetutil\include /I..\..\libmutil\include /Zi /nologo /W3 /WX- /O2 /Oy- /GL /D _UNICODE /D UNICODE /Gm- /EHsc /MD /GS /fp:precise /Zc:wchar_t /Zc:forScope /Fo"RELEASE\\" /Fd"RELEASE\VC110.PDB" /Gd /TP /analyze- C:\CODE\IPL - DELIVERY 2\CODE\WINDOWS\SECOLLAB-MINISIP-ANDROID-ABFB2CE0694B\LIBMSIP\SOURCE\DIALOGS\SIPDIALOGREGISTER.CXX
^C:\CODE\IPL - DELIVERY 2\CODE\WINDOWS\SECOLLAB-MINISIP-ANDROID-ABFB2CE0694B\LIBMSIP\SOURCE\HEADERS\SIPHEADER.CXX
/c /I..\include /I..\..\libmcrypto\include /I..\..\libmnetutil\include /I..\..\libmutil\include /Zi /nologo /W3 /WX- /O2 /Oy- /GL /D _UNICODE /D UNICODE /Gm- /EHsc /MD /GS /fp:precise /Zc:wchar_t /Zc:forScope /Fo"RELEASE\\" /Fd"RELEASE\VC110.PDB" /Gd /TP /analyze- C:\CODE\IPL - DELIVERY 2\CODE\WINDOWS\SECOLLAB-MINISIP-ANDROID-ABFB2CE0694B\LIBMSIP\SOURCE\HEADERS\SIPHEADER.CXX
^C:\CODE\IPL - DELIVERY 2\CODE\WINDOWS\SECOLLAB-MINISIP-ANDROID-ABFB2CE0694B\LIBMSIP\SOURCE\HEADERS\SIPHEADERACCEPT.CXX
/c /I..\include /I..\..\libmcrypto\include /I..\..\libmnetutil\include /I..\..\libmutil\include /Zi /nologo /W3 /WX- /O2 /Oy- /GL /D _UNICODE /D UNICODE /Gm- /EHsc /MD /GS /fp:precise /Zc:wchar_t /Zc:forScope /Fo"RELEASE\\" /Fd"RELEASE\VC110.PDB" /Gd /TP /analyze- C:\CODE\IPL - DELIVERY 2\CODE\WINDOWS\SECOLLAB-MINISIP-ANDROID-ABFB2CE0694B\LIBMSIP\SOURCE\HEADERS\SIPHEADERACCEPT.CXX
^C:\CODE\IPL - DELIVERY 2\CODE\WINDOWS\SECOLLAB-MINISIP-ANDROID-ABFB2CE0694B\LIBMSIP\SOURCE\HEADERS\SIPHEADERACCEPTCONTACT.CXX
/c /I..\include /I..\..\libmcrypto\include /I..\..\libmnetutil\include /I..\..\libmutil\include /Zi /nologo /W3 /WX- /O2 /Oy- /GL /D _UNICODE /D UNICODE /Gm- /EHsc /MD /GS /fp:precise /Zc:wchar_t /Zc:forScope /Fo"RELEASE\\" /Fd"RELEASE\VC110.PDB" /Gd /TP /analyze- C:\CODE\IPL - DELIVERY 2\CODE\WINDOWS\SECOLLAB-MINISIP-ANDROID-ABFB2CE0694B\LIBMSIP\SOURCE\HEADERS\SIPHEADERACCEPTCONTACT.CXX
^C:\CODE\IPL - DELIVERY 2\CODE\WINDOWS\SECOLLAB-MINISIP-ANDROID-ABFB2CE0694B\LIBMSIP\SOURCE\HEADERS\SIPHEADERALLOW.CXX
/c /I..\include /I..\..\libmcrypto\include /I..\..\libmnetutil\include /I..\..\libmutil\include /Zi /nologo /W3 /WX- /O2 /Oy- /GL /D _UNICODE /D UNICODE /Gm- /EHsc /MD /GS /fp:precise /Zc:wchar_t /Zc:forScope /Fo"RELEASE\\" /Fd"RELEASE\VC110.PDB" /Gd /TP /analyze- C:\CODE\IPL - DELIVERY 2\CODE\WINDOWS\SECOLLAB-MINISIP-ANDROID-ABFB2CE0694B\LIBMSIP\SOURCE\HEADERS\SIPHEADERALLOW.CXX
^C:\CODE\IPL - DELIVERY 2\CODE\WINDOWS\SECOLLAB-MINISIP-ANDROID-ABFB2CE0694B\LIBMSIP\SOURCE\HEADERS\SIPHEADERALLOWEVENTS.CXX
/c /I..\include /I..\..\libmcrypto\include /I..\..\libmnetutil\include /I..\..\libmutil\include /Zi /nologo /W3 /WX- /O2 /Oy- /GL /D _UNICODE /D UNICODE /Gm- /EHsc /MD /GS /fp:precise /Zc:wchar_t /Zc:forScope /Fo"RELEASE\\" /Fd"RELEASE\VC110.PDB" /Gd /TP /analyze- C:\CODE\IPL - DELIVERY 2\CODE\WINDOWS\SECOLLAB-MINISIP-ANDROID-ABFB2CE0694B\LIBMSIP\SOURCE\HEADERS\SIPHEADERALLOWEVENTS.CXX
^C:\CODE\IPL - DELIVERY 2\CODE\WINDOWS\SECOLLAB-MINISIP-ANDROID-ABFB2CE0694B\LIBMSIP\SOURCE\HEADERS\SIPHEADERAUTHORIZATION.CXX
/c /I..\include /I..\..\libmcrypto\include /I..\..\libmnetutil\include /I..\..\libmutil\include /Zi /nologo /W3 /WX- /O2 /Oy- /GL /D _UNICODE /D UNICODE /Gm- /EHsc /MD /GS /fp:precise /Zc:wchar_t /Zc:forScope /Fo"RELEASE\\" /Fd"RELEASE\VC110.PDB" /Gd /TP /analyze- C:\CODE\IPL - DELIVERY 2\CODE\WINDOWS\SECOLLAB-MINISIP-ANDROID-ABFB2CE0694B\LIBMSIP\SOURCE\HEADERS\SIPHEADERAUTHORIZATION.CXX
^C:\CODE\IPL - DELIVERY 2\CODE\WINDOWS\SECOLLAB-MINISIP-ANDROID-ABFB2CE0694B\LIBMSIP\SOURCE\HEADERS\SIPHEADERCALLID.CXX
/c /I..\include /I..\..\libmcrypto\include /I..\..\libmnetutil\include /I..\..\libmutil\include /Zi /nologo /W3 /WX- /O2 /Oy- /GL /D _UNICODE /D UNICODE /Gm- /EHsc /MD /GS /fp:precise /Zc:wchar_t /Zc:forScope /Fo"RELEASE\\" /Fd"RELEASE\VC110.PDB" /Gd /TP /analyze- C:\CODE\IPL - DELIVERY 2\CODE\WINDOWS\SECOLLAB-MINISIP-ANDROID-ABFB2CE0694B\LIBMSIP\SOURCE\HEADERS\SIPHEADERCALLID.CXX
^C:\CODE\IPL - DELIVERY 2\CODE\WINDOWS\SECOLLAB-MINISIP-ANDROID-ABFB2CE0694B\LIBMSIP\SOURCE\HEADERS\SIPHEADERCONTACT.CXX
/c /I..\include /I..\..\libmcrypto\include /I..\..\libmnetutil\include /I..\..\libmutil\include /Zi /nologo /W3 /WX- /O2 /Oy- /GL /D _UNICODE /D UNICODE /Gm- /EHsc /MD /GS /fp:precise /Zc:wchar_t /Zc:forScope /Fo"RELEASE\\" /Fd"RELEASE\VC110.PDB" /Gd /TP /analyze- C:\CODE\IPL - DELIVERY 2\CODE\WINDOWS\SECOLLAB-MINISIP-ANDROID-ABFB2CE0694B\LIBMSIP\SOURCE\HEADERS\SIPHEADERCONTACT.CXX
^C:\CODE\IPL - DELIVERY 2\CODE\WINDOWS\SECOLLAB-MINISIP-ANDROID-ABFB2CE0694B\LIBMSIP\SOURCE\HEADERS\SIPHEADERCONTENTLENGTH.CXX
/c /I..\include /I..\..\libmcrypto\include /I..\..\libmnetutil\include /I..\..\libmutil\include /Zi /nologo /W3 /WX- /O2 /Oy- /GL /D _UNICODE /D UNICODE /Gm- /EHsc /MD /GS /fp:precise /Zc:wchar_t /Zc:forScope /Fo"RELEASE\\" /Fd"RELEASE\VC110.PDB" /Gd /TP /analyze- C:\CODE\IPL - DELIVERY 2\CODE\WINDOWS\SECOLLAB-MINISIP-ANDROID-ABFB2CE0694B\LIBMSIP\SOURCE\HEADERS\SIPHEADERCONTENTLENGTH.CXX
^C:\CODE\IPL - DELIVERY 2\CODE\WINDOWS\SECOLLAB-MINISIP-ANDROID-ABFB2CE0694B\LIBMSIP\SOURCE\HEADERS\SIPHEADERCONTENTTYPE.CXX
/c /I..\include /I..\..\libmcrypto\include /I..\..\libmnetutil\include /I..\..\libmutil\include /Zi /nologo /W3 /WX- /O2 /Oy- /GL /D _UNICODE /D UNICODE /Gm- /EHsc /MD /GS /fp:precise /Zc:wchar_t /Zc:forScope /Fo"RELEASE\\" /Fd"RELEASE\VC110.PDB" /Gd /TP /analyze- C:\CODE\IPL - DELIVERY 2\CODE\WINDOWS\SECOLLAB-MINISIP-ANDROID-ABFB2CE0694B\LIBMSIP\SOURCE\HEADERS\SIPHEADERCONTENTTYPE.CXX
^C:\CODE\IPL - DELIVERY 2\CODE\WINDOWS\SECOLLAB-MINISIP-ANDROID-ABFB2CE0694B\LIBMSIP\SOURCE\HEADERS\SIPHEADERCSEQ.CXX
/c /I..\include /I..\..\libmcrypto\include /I..\..\libmnetutil\include /I..\..\libmutil\include /Zi /nologo /W3 /WX- /O2 /Oy- /GL /D _UNICODE /D UNICODE /Gm- /EHsc /MD /GS /fp:precise /Zc:wchar_t /Zc:forScope /Fo"RELEASE\\" /Fd"RELEASE\VC110.PDB" /Gd /TP /analyze- C:\CODE\IPL - DELIVERY 2\CODE\WINDOWS\SECOLLAB-MINISIP-ANDROID-ABFB2CE0694B\LIBMSIP\SOURCE\HEADERS\SIPHEADERCSEQ.CXX
^C:\CODE\IPL - DELIVERY 2\CODE\WINDOWS\SECOLLAB-MINISIP-ANDROID-ABFB2CE0694B\LIBMSIP\SOURCE\HEADERS\SIPHEADEREVENT.CXX
/c /I..\include /I..\..\libmcrypto\include /I..\..\libmnetutil\include /I..\..\libmutil\include /Zi /nologo /W3 /WX- /O2 /Oy- /GL /D _UNICODE /D UNICODE /Gm- /EHsc /MD /GS /fp:precise /Zc:wchar_t /Zc:forScope /Fo"RELEASE\\" /Fd"RELEASE\VC110.PDB" /Gd /TP /analyze- C:\CODE\IPL - DELIVERY 2\CODE\WINDOWS\SECOLLAB-MINISIP-ANDROID-ABFB2CE0694B\LIBMSIP\SOURCE\HEADERS\SIPHEADEREVENT.CXX
^C:\CODE\IPL - DELIVERY 2\CODE\WINDOWS\SECOLLAB-MINISIP-ANDROID-ABFB2CE0694B\LIBMSIP\SOURCE\HEADERS\SIPHEADEREXPIRES.CXX
/c /I..\include /I..\..\libmcrypto\include /I..\..\libmnetutil\include /I..\..\libmutil\include /Zi /nologo /W3 /WX- /O2 /Oy- /GL /D _UNICODE /D UNICODE /Gm- /EHsc /MD /GS /fp:precise /Zc:wchar_t /Zc:forScope /Fo"RELEASE\\" /Fd"RELEASE\VC110.PDB" /Gd /TP /analyze- C:\CODE\IPL - DELIVERY 2\CODE\WINDOWS\SECOLLAB-MINISIP-ANDROID-ABFB2CE0694B\LIBMSIP\SOURCE\HEADERS\SIPHEADEREXPIRES.CXX
^C:\CODE\IPL - DELIVERY 2\CODE\WINDOWS\SECOLLAB-MINISIP-ANDROID-ABFB2CE0694B\LIBMSIP\SOURCE\HEADERS\SIPHEADERFROM.CXX
/c /I..\include /I..\..\libmcrypto\include /I..\..\libmnetutil\include /I..\..\libmutil\include /Zi /nologo /W3 /WX- /O2 /Oy- /GL /D _UNICODE /D UNICODE /Gm- /EHsc /MD /GS /fp:precise /Zc:wchar_t /Zc:forScope /Fo"RELEASE\\" /Fd"RELEASE\VC110.PDB" /Gd /TP /analyze- C:\CODE\IPL - DELIVERY 2\CODE\WINDOWS\SECOLLAB-MINISIP-ANDROID-ABFB2CE0694B\LIBMSIP\SOURCE\HEADERS\SIPHEADERFROM.CXX
^C:\CODE\IPL - DELIVERY 2\CODE\WINDOWS\SECOLLAB-MINISIP-ANDROID-ABFB2CE0694B\LIBMSIP\SOURCE\HEADERS\SIPHEADERMAXFORWARDS.CXX
/c /I..\include /I..\..\libmcrypto\include /I..\..\libmnetutil\include /I..\..\libmutil\include /Zi /nologo /W3 /WX- /O2 /Oy- /GL /D _UNICODE /D UNICODE /Gm- /EHsc /MD /GS /fp:precise /Zc:wchar_t /Zc:forScope /Fo"RELEASE\\" /Fd"RELEASE\VC110.PDB" /Gd /TP /analyze- C:\CODE\IPL - DELIVERY 2\CODE\WINDOWS\SECOLLAB-MINISIP-ANDROID-ABFB2CE0694B\LIBMSIP\SOURCE\HEADERS\SIPHEADERMAXFORWARDS.CXX
^C:\CODE\IPL - DELIVERY 2\CODE\WINDOWS\SECOLLAB-MINISIP-ANDROID-ABFB2CE0694B\LIBMSIP\SOURCE\HEADERS\SIPHEADERPROXYAUTHENTICATE.CXX
/c /I..\include /I..\..\libmcrypto\include /I..\..\libmnetutil\include /I..\..\libmutil\include /Zi /nologo /W3 /WX- /O2 /Oy- /GL /D _UNICODE /D UNICODE /Gm- /EHsc /MD /GS /fp:precise /Zc:wchar_t /Zc:forScope /Fo"RELEASE\\" /Fd"RELEASE\VC110.PDB" /Gd /TP /analyze- C:\CODE\IPL - DELIVERY 2\CODE\WINDOWS\SECOLLAB-MINISIP-ANDROID-ABFB2CE0694B\LIBMSIP\SOURCE\HEADERS\SIPHEADERPROXYAUTHENTICATE.CXX
^C:\CODE\IPL - DELIVERY 2\CODE\WINDOWS\SECOLLAB-MINISIP-ANDROID-ABFB2CE0694B\LIBMSIP\SOURCE\HEADERS\SIPHEADERPROXYAUTHORIZATION.CXX
/c /I..\include /I..\..\libmcrypto\include /I..\..\libmnetutil\include /I..\..\libmutil\include /Zi /nologo /W3 /WX- /O2 /Oy- /GL /D _UNICODE /D UNICODE /Gm- /EHsc /MD /GS /fp:precise /Zc:wchar_t /Zc:forScope /Fo"RELEASE\\" /Fd"RELEASE\VC110.PDB" /Gd /TP /analyze- C:\CODE\IPL - DELIVERY 2\CODE\WINDOWS\SECOLLAB-MINISIP-ANDROID-ABFB2CE0694B\LIBMSIP\SOURCE\HEADERS\SIPHEADERPROXYAUTHORIZATION.CXX
^C:\CODE\IPL - DELIVERY 2\CODE\WINDOWS\SECOLLAB-MINISIP-ANDROID-ABFB2CE0694B\LIBMSIP\SOURCE\HEADERS\SIPHEADERRACK.CXX
/c /I..\include /I..\..\libmcrypto\include /I..\..\libmnetutil\include /I..\..\libmutil\include /Zi /nologo /W3 /WX- /O2 /Oy- /GL /D _UNICODE /D UNICODE /Gm- /EHsc /MD /GS /fp:precise /Zc:wchar_t /Zc:forScope /Fo"RELEASE\\" /Fd"RELEASE\VC110.PDB" /Gd /TP /analyze- C:\CODE\IPL - DELIVERY 2\CODE\WINDOWS\SECOLLAB-MINISIP-ANDROID-ABFB2CE0694B\LIBMSIP\SOURCE\HEADERS\SIPHEADERRACK.CXX
^C:\CODE\IPL - DELIVERY 2\CODE\WINDOWS\SECOLLAB-MINISIP-ANDROID-ABFB2CE0694B\LIBMSIP\SOURCE\HEADERS\SIPHEADERRECORDROUTE.CXX
/c /I..\include /I..\..\libmcrypto\include /I..\..\libmnetutil\include /I..\..\libmutil\include /Zi /nologo /W3 /WX- /O2 /Oy- /GL /D _UNICODE /D UNICODE /Gm- /EHsc /MD /GS /fp:precise /Zc:wchar_t /Zc:forScope /Fo"RELEASE\\" /Fd"RELEASE\VC110.PDB" /Gd /TP /analyze- C:\CODE\IPL - DELIVERY 2\CODE\WINDOWS\SECOLLAB-MINISIP-ANDROID-ABFB2CE0694B\LIBMSIP\SOURCE\HEADERS\SIPHEADERRECORDROUTE.CXX
^C:\CODE\IPL - DELIVERY 2\CODE\WINDOWS\SECOLLAB-MINISIP-ANDROID-ABFB2CE0694B\LIBMSIP\SOURCE\HEADERS\SIPHEADERREFERTO.CXX
/c /I..\include /I..\..\libmcrypto\include /I..\..\libmnetutil\include /I..\..\libmutil\include /Zi /nologo /W3 /WX- /O2 /Oy- /GL /D _UNICODE /D UNICODE /Gm- /EHsc /MD /GS /fp:precise /Zc:wchar_t /Zc:forScope /Fo"RELEASE\\" /Fd"RELEASE\VC110.PDB" /Gd /TP /analyze- C:\CODE\IPL - DELIVERY 2\CODE\WINDOWS\SECOLLAB-MINISIP-ANDROID-ABFB2CE0694B\LIBMSIP\SOURCE\HEADERS\SIPHEADERREFERTO.CXX
^C:\CODE\IPL - DELIVERY 2\CODE\WINDOWS\SECOLLAB-MINISIP-ANDROID-ABFB2CE0694B\LIBMSIP\SOURCE\HEADERS\SIPHEADERREQUIRE.CXX
/c /I..\include /I..\..\libmcrypto\include /I..\..\libmnetutil\include /I..\..\libmutil\include /Zi /nologo /W3 /WX- /O2 /Oy- /GL /D _UNICODE /D UNICODE /Gm- /EHsc /MD /GS /fp:precise /Zc:wchar_t /Zc:forScope /Fo"RELEASE\\" /Fd"RELEASE\VC110.PDB" /Gd /TP /analyze- C:\CODE\IPL - DELIVERY 2\CODE\WINDOWS\SECOLLAB-MINISIP-ANDROID-ABFB2CE0694B\LIBMSIP\SOURCE\HEADERS\SIPHEADERREQUIRE.CXX
^C:\CODE\IPL - DELIVERY 2\CODE\WINDOWS\SECOLLAB-MINISIP-ANDROID-ABFB2CE0694B\LIBMSIP\SOURCE\HEADERS\SIPHEADERROUTE.CXX
/c /I..\include /I..\..\libmcrypto\include /I..\..\libmnetutil\include /I..\..\libmutil\include /Zi /nologo /W3 /WX- /O2 /Oy- /GL /D _UNICODE /D UNICODE /Gm- /EHsc /MD /GS /fp:precise /Zc:wchar_t /Zc:forScope /Fo"RELEASE\\" /Fd"RELEASE\VC110.PDB" /Gd /TP /analyze- C:\CODE\IPL - DELIVERY 2\CODE\WINDOWS\SECOLLAB-MINISIP-ANDROID-ABFB2CE0694B\LIBMSIP\SOURCE\HEADERS\SIPHEADERROUTE.CXX
^C:\CODE\IPL - DELIVERY 2\CODE\WINDOWS\SECOLLAB-MINISIP-ANDROID-ABFB2CE0694B\LIBMSIP\SOURCE\HEADERS\SIPHEADERRSEQ.CXX
/c /I..\include /I..\..\libmcrypto\include /I..\..\libmnetutil\include /I..\..\libmutil\include /Zi /nologo /W3 /WX- /O2 /Oy- /GL /D _UNICODE /D UNICODE /Gm- /EHsc /MD /GS /fp:precise /Zc:wchar_t /Zc:forScope /Fo"RELEASE\\" /Fd"RELEASE\VC110.PDB" /Gd /TP /analyze- C:\CODE\IPL - DELIVERY 2\CODE\WINDOWS\SECOLLAB-MINISIP-ANDROID-ABFB2CE0694B\LIBMSIP\SOURCE\HEADERS\SIPHEADERRSEQ.CXX
^C:\CODE\IPL - DELIVERY 2\CODE\WINDOWS\SECOLLAB-MINISIP-ANDROID-ABFB2CE0694B\LIBMSIP\SOURCE\HEADERS\SIPHEADERSTRING.CXX
/c /I..\include /I..\..\libmcrypto\include /I..\..\libmnetutil\include /I..\..\libmutil\include /Zi /nologo /W3 /WX- /O2 /Oy- /GL /D _UNICODE /D UNICODE /Gm- /EHsc /MD /GS /fp:precise /Zc:wchar_t /Zc:forScope /Fo"RELEASE\\" /Fd"RELEASE\VC110.PDB" /Gd /TP /analyze- C:\CODE\IPL - DELIVERY 2\CODE\WINDOWS\SECOLLAB-MINISIP-ANDROID-ABFB2CE0694B\LIBMSIP\SOURCE\HEADERS\SIPHEADERSTRING.CXX
^C:\CODE\IPL - DELIVERY 2\CODE\WINDOWS\SECOLLAB-MINISIP-ANDROID-ABFB2CE0694B\LIBMSIP\SOURCE\HEADERS\SIPHEADERSUBJECT.CXX
/c /I..\include /I..\..\libmcrypto\include /I..\..\libmnetutil\include /I..\..\libmutil\include /Zi /nologo /W3 /WX- /O2 /Oy- /GL /D _UNICODE /D UNICODE /Gm- /EHsc /MD /GS /fp:precise /Zc:wchar_t /Zc:forScope /Fo"RELEASE\\" /Fd"RELEASE\VC110.PDB" /Gd /TP /analyze- C:\CODE\IPL - DELIVERY 2\CODE\WINDOWS\SECOLLAB-MINISIP-ANDROID-ABFB2CE0694B\LIBMSIP\SOURCE\HEADERS\SIPHEADERSUBJECT.CXX
^C:\CODE\IPL - DELIVERY 2\CODE\WINDOWS\SECOLLAB-MINISIP-ANDROID-ABFB2CE0694B\LIBMSIP\SOURCE\HEADERS\SIPHEADERSUBSCRIPTIONSTATE.CXX
/c /I..\include /I..\..\libmcrypto\include /I..\..\libmnetutil\include /I..\..\libmutil\include /Zi /nologo /W3 /WX- /O2 /Oy- /GL /D _UNICODE /D UNICODE /Gm- /EHsc /MD /GS /fp:precise /Zc:wchar_t /Zc:forScope /Fo"RELEASE\\" /Fd"RELEASE\VC110.PDB" /Gd /TP /analyze- C:\CODE\IPL - DELIVERY 2\CODE\WINDOWS\SECOLLAB-MINISIP-ANDROID-ABFB2CE0694B\LIBMSIP\SOURCE\HEADERS\SIPHEADERSUBSCRIPTIONSTATE.CXX
^C:\CODE\IPL - DELIVERY 2\CODE\WINDOWS\SECOLLAB-MINISIP-ANDROID-ABFB2CE0694B\LIBMSIP\SOURCE\HEADERS\SIPHEADERSUPPORTED.CXX
/c /I..\include /I..\..\libmcrypto\include /I..\..\libmnetutil\include /I..\..\libmutil\include /Zi /nologo /W3 /WX- /O2 /Oy- /GL /D _UNICODE /D UNICODE /Gm- /EHsc /MD /GS /fp:precise /Zc:wchar_t /Zc:forScope /Fo"RELEASE\\" /Fd"RELEASE\VC110.PDB" /Gd /TP /analyze- C:\CODE\IPL - DELIVERY 2\CODE\WINDOWS\SECOLLAB-MINISIP-ANDROID-ABFB2CE0694B\LIBMSIP\SOURCE\HEADERS\SIPHEADERSUPPORTED.CXX
^C:\CODE\IPL - DELIVERY 2\CODE\WINDOWS\SECOLLAB-MINISIP-ANDROID-ABFB2CE0694B\LIBMSIP\SOURCE\HEADERS\SIPHEADERTO.CXX
/c /I..\include /I..\..\libmcrypto\include /I..\..\libmnetutil\include /I..\..\libmutil\include /Zi /nologo /W3 /WX- /O2 /Oy- /GL /D _UNICODE /D UNICODE /Gm- /EHsc /MD /GS /fp:precise /Zc:wchar_t /Zc:forScope /Fo"RELEASE\\" /Fd"RELEASE\VC110.PDB" /Gd /TP /analyze- C:\CODE\IPL - DELIVERY 2\CODE\WINDOWS\SECOLLAB-MINISIP-ANDROID-ABFB2CE0694B\LIBMSIP\SOURCE\HEADERS\SIPHEADERTO.CXX
^C:\CODE\IPL - DELIVERY 2\CODE\WINDOWS\SECOLLAB-MINISIP-ANDROID-ABFB2CE0694B\LIBMSIP\SOURCE\HEADERS\SIPHEADERUNKNOWN.CXX
/c /I..\include /I..\..\libmcrypto\include /I..\..\libmnetutil\include /I..\..\libmutil\include /Zi /nologo /W3 /WX- /O2 /Oy- /GL /D _UNICODE /D UNICODE /Gm- /EHsc /MD /GS /fp:precise /Zc:wchar_t /Zc:forScope /Fo"RELEASE\\" /Fd"RELEASE\VC110.PDB" /Gd /TP /analyze- C:\CODE\IPL - DELIVERY 2\CODE\WINDOWS\SECOLLAB-MINISIP-ANDROID-ABFB2CE0694B\LIBMSIP\SOURCE\HEADERS\SIPHEADERUNKNOWN.CXX
^C:\CODE\IPL - DELIVERY 2\CODE\WINDOWS\SECOLLAB-MINISIP-ANDROID-ABFB2CE0694B\LIBMSIP\SOURCE\HEADERS\SIPHEADERUNSUPPORTED.CXX
/c /I..\include /I..\..\libmcrypto\include /I..\..\libmnetutil\include /I..\..\libmutil\include /Zi /nologo /W3 /WX- /O2 /Oy- /GL /D _UNICODE /D UNICODE /Gm- /EHsc /MD /GS /fp:precise /Zc:wchar_t /Zc:forScope /Fo"RELEASE\\" /Fd"RELEASE\VC110.PDB" /Gd /TP /analyze- C:\CODE\IPL - DELIVERY 2\CODE\WINDOWS\SECOLLAB-MINISIP-ANDROID-ABFB2CE0694B\LIBMSIP\SOURCE\HEADERS\SIPHEADERUNSUPPORTED.CXX
^C:\CODE\IPL - DELIVERY 2\CODE\WINDOWS\SECOLLAB-MINISIP-ANDROID-ABFB2CE0694B\LIBMSIP\SOURCE\HEADERS\SIPHEADERUSERAGENT.CXX
/c /I..\include /I..\..\libmcrypto\include /I..\..\libmnetutil\include /I..\..\libmutil\include /Zi /nologo /W3 /WX- /O2 /Oy- /GL /D _UNICODE /D UNICODE /Gm- /EHsc /MD /GS /fp:precise /Zc:wchar_t /Zc:forScope /Fo"RELEASE\\" /Fd"RELEASE\VC110.PDB" /Gd /TP /analyze- C:\CODE\IPL - DELIVERY 2\CODE\WINDOWS\SECOLLAB-MINISIP-ANDROID-ABFB2CE0694B\LIBMSIP\SOURCE\HEADERS\SIPHEADERUSERAGENT.CXX
^C:\CODE\IPL - DELIVERY 2\CODE\WINDOWS\SECOLLAB-MINISIP-ANDROID-ABFB2CE0694B\LIBMSIP\SOURCE\HEADERS\SIPHEADERVIA.CXX
/c /I..\include /I..\..\libmcrypto\include /I..\..\libmnetutil\include /I..\..\libmutil\include /Zi /nologo /W3 /WX- /O2 /Oy- /GL /D _UNICODE /D UNICODE /Gm- /EHsc /MD /GS /fp:precise /Zc:wchar_t /Zc:forScope /Fo"RELEASE\\" /Fd"RELEASE\VC110.PDB" /Gd /TP /analyze- C:\CODE\IPL - DELIVERY 2\CODE\WINDOWS\SECOLLAB-MINISIP-ANDROID-ABFB2CE0694B\LIBMSIP\SOURCE\HEADERS\SIPHEADERVIA.CXX
^C:\CODE\IPL - DELIVERY 2\CODE\WINDOWS\SECOLLAB-MINISIP-ANDROID-ABFB2CE0694B\LIBMSIP\SOURCE\HEADERS\SIPHEADERWARNING.CXX
/c /I..\include /I..\..\libmcrypto\include /I..\..\libmnetutil\include /I..\..\libmutil\include /Zi /nologo /W3 /WX- /O2 /Oy- /GL /D _UNICODE /D UNICODE /Gm- /EHsc /MD /GS /fp:precise /Zc:wchar_t /Zc:forScope /Fo"RELEASE\\" /Fd"RELEASE\VC110.PDB" /Gd /TP /analyze- C:\CODE\IPL - DELIVERY 2\CODE\WINDOWS\SECOLLAB-MINISIP-ANDROID-ABFB2CE0694B\LIBMSIP\SOURCE\HEADERS\SIPHEADERWARNING.CXX
^C:\CODE\IPL - DELIVERY 2\CODE\WINDOWS\SECOLLAB-MINISIP-ANDROID-ABFB2CE0694B\LIBMSIP\SOURCE\HEADERS\SIPHEADERWWWAUTHENTICATE.CXX
/c /I..\include /I..\..\libmcrypto\include /I..\..\libmnetutil\include /I..\..\libmutil\include /Zi /nologo /W3 /WX- /O2 /Oy- /GL /D _UNICODE /D UNICODE /Gm- /EHsc /MD /GS /fp:precise /Zc:wchar_t /Zc:forScope /Fo"RELEASE\\" /Fd"RELEASE\VC110.PDB" /Gd /TP /analyze- C:\CODE\IPL - DELIVERY 2\CODE\WINDOWS\SECOLLAB-MINISIP-ANDROID-ABFB2CE0694B\LIBMSIP\SOURCE\HEADERS\SIPHEADERWWWAUTHENTICATE.CXX
^C:\CODE\IPL - DELIVERY 2\CODE\WINDOWS\SECOLLAB-MINISIP-ANDROID-ABFB2CE0694B\LIBMSIP\SOURCE\SIPLAYERDIALOG.CXX
/c /I..\include /I..\..\libmcrypto\include /I..\..\libmnetutil\include /I..\..\libmutil\include /Zi /nologo /W3 /WX- /O2 /Oy- /GL /D _UNICODE /D UNICODE /Gm- /EHsc /MD /GS /fp:precise /Zc:wchar_t /Zc:forScope /Fo"RELEASE\\" /Fd"RELEASE\VC110.PDB" /Gd /TP /analyze- C:\CODE\IPL - DELIVERY 2\CODE\WINDOWS\SECOLLAB-MINISIP-ANDROID-ABFB2CE0694B\LIBMSIP\SOURCE\SIPLAYERDIALOG.CXX
^C:\CODE\IPL - DELIVERY 2\CODE\WINDOWS\SECOLLAB-MINISIP-ANDROID-ABFB2CE0694B\LIBMSIP\SOURCE\SIPLAYERTRANSACTION.CXX
/c /I..\include /I..\..\libmcrypto\include /I..\..\libmnetutil\include /I..\..\libmutil\include /Zi /nologo /W3 /WX- /O2 /Oy- /GL /D _UNICODE /D UNICODE /Gm- /EHsc /MD /GS /fp:precise /Zc:wchar_t /Zc:forScope /Fo"RELEASE\\" /Fd"RELEASE\VC110.PDB" /Gd /TP /analyze- C:\CODE\IPL - DELIVERY 2\CODE\WINDOWS\SECOLLAB-MINISIP-ANDROID-ABFB2CE0694B\LIBMSIP\SOURCE\SIPLAYERTRANSACTION.CXX
^C:\CODE\IPL - DELIVERY 2\CODE\WINDOWS\SECOLLAB-MINISIP-ANDROID-ABFB2CE0694B\LIBMSIP\SOURCE\SIPLAYERTRANSPORT.CXX
/c /I..\include /I..\..\libmcrypto\include /I..\..\libmnetutil\include /I..\..\libmutil\include /Zi /nologo /W3 /WX- /O2 /Oy- /GL /D _UNICODE /D UNICODE /Gm- /EHsc /MD /GS /fp:precise /Zc:wchar_t /Zc:forScope /Fo"RELEASE\\" /Fd"RELEASE\VC110.PDB" /Gd /TP /analyze- C:\CODE\IPL - DELIVERY 2\CODE\WINDOWS\SECOLLAB-MINISIP-ANDROID-ABFB2CE0694B\LIBMSIP\SOURCE\SIPLAYERTRANSPORT.CXX
^C:\CODE\IPL - DELIVERY 2\CODE\WINDOWS\SECOLLAB-MINISIP-ANDROID-ABFB2CE0694B\LIBMSIP\SOURCE\MESSAGES\SIPMESSAGE.CXX
/c /I..\include /I..\..\libmcrypto\include /I..\..\libmnetutil\include /I..\..\libmutil\include /Zi /nologo /W3 /WX- /O2 /Oy- /GL /D _UNICODE /D UNICODE /Gm- /EHsc /MD /GS /fp:precise /Zc:wchar_t /Zc:forScope /Fo"RELEASE\\" /Fd"RELEASE\VC110.PDB" /Gd /TP /analyze- C:\CODE\IPL - DELIVERY 2\CODE\WINDOWS\SECOLLAB-MINISIP-ANDROID-ABFB2CE0694B\LIBMSIP\SOURCE\MESSAGES\SIPMESSAGE.CXX
^C:\CODE\IPL - DELIVERY 2\CODE\WINDOWS\SECOLLAB-MINISIP-ANDROID-ABFB2CE0694B\LIBMSIP\SOURCE\SIPMESSAGECONTENTFACTORY.CXX
/c /I..\include /I..\..\libmcrypto\include /I..\..\libmnetutil\include /I..\..\libmutil\include /Zi /nologo /W3 /WX- /O2 /Oy- /GL /D _UNICODE /D UNICODE /Gm- /EHsc /MD /GS /fp:precise /Zc:wchar_t /Zc:forScope /Fo"RELEASE\\" /Fd"RELEASE\VC110.PDB" /Gd /TP /analyze- C:\CODE\IPL - DELIVERY 2\CODE\WINDOWS\SECOLLAB-MINISIP-ANDROID-ABFB2CE0694B\LIBMSIP\SOURCE\SIPMESSAGECONTENTFACTORY.CXX
^C:\CODE\IPL - DELIVERY 2\CODE\WINDOWS\SECOLLAB-MINISIP-ANDROID-ABFB2CE0694B\LIBMSIP\SOURCE\SIPMESSAGECONTENTIM.CXX
/c /I..\include /I..\..\libmcrypto\include /I..\..\libmnetutil\include /I..\..\libmutil\include /Zi /nologo /W3 /WX- /O2 /Oy- /GL /D _UNICODE /D UNICODE /Gm- /EHsc /MD /GS /fp:precise /Zc:wchar_t /Zc:forScope /Fo"RELEASE\\" /Fd"RELEASE\VC110.PDB" /Gd /TP /analyze- C:\CODE\IPL - DELIVERY 2\CODE\WINDOWS\SECOLLAB-MINISIP-ANDROID-ABFB2CE0694B\LIBMSIP\SOURCE\SIPMESSAGECONTENTIM.CXX
^C:\CODE\IPL - DELIVERY 2\CODE\WINDOWS\SECOLLAB-MINISIP-ANDROID-ABFB2CE0694B\LIBMSIP\SOURCE\SIPMESSAGECONTENTMIME.CXX
/c /I..\include /I..\..\libmcrypto\include /I..\..\libmnetutil\include /I..\..\libmutil\include /Zi /nologo /W3 /WX- /O2 /Oy- /GL /D _UNICODE /D UNICODE /Gm- /EHsc /MD /GS /fp:precise /Zc:wchar_t /Zc:forScope /Fo"RELEASE\\" /Fd"RELEASE\VC110.PDB" /Gd /TP /analyze- C:\CODE\IPL - DELIVERY 2\CODE\WINDOWS\SECOLLAB-MINISIP-ANDROID-ABFB2CE0694B\LIBMSIP\SOURCE\SIPMESSAGECONTENTMIME.CXX
^C:\CODE\IPL - DELIVERY 2\CODE\WINDOWS\SECOLLAB-MINISIP-ANDROID-ABFB2CE0694B\LIBMSIP\SOURCE\SIPMESSAGECONTENTUNKNOWN.CXX
/c /I..\include /I..\..\libmcrypto\include /I..\..\libmnetutil\include /I..\..\libmutil\include /Zi /nologo /W3 /WX- /O2 /Oy- /GL /D _UNICODE /D UNICODE /Gm- /EHsc /MD /GS /fp:precise /Zc:wchar_t /Zc:forScope /Fo"RELEASE\\" /Fd"RELEASE\VC110.PDB" /Gd /TP /analyze- C:\CODE\IPL - DELIVERY 2\CODE\WINDOWS\SECOLLAB-MINISIP-ANDROID-ABFB2CE0694B\LIBMSIP\SOURCE\SIPMESSAGECONTENTUNKNOWN.CXX
^C:\CODE\IPL - DELIVERY 2\CODE\WINDOWS\SECOLLAB-MINISIP-ANDROID-ABFB2CE0694B\LIBMSIP\SOURCE\MESSAGES\SIPREQUEST.CXX
/c /I..\include /I..\..\libmcrypto\include /I..\..\libmnetutil\include /I..\..\libmutil\include /Zi /nologo /W3 /WX- /O2 /Oy- /GL /D _UNICODE /D UNICODE /Gm- /EHsc /MD /GS /fp:precise /Zc:wchar_t /Zc:forScope /Fo"RELEASE\\" /Fd"RELEASE\VC110.PDB" /Gd /TP /analyze- C:\CODE\IPL - DELIVERY 2\CODE\WINDOWS\SECOLLAB-MINISIP-ANDROID-ABFB2CE0694B\LIBMSIP\SOURCE\MESSAGES\SIPREQUEST.CXX
^C:\CODE\IPL - DELIVERY 2\CODE\WINDOWS\SECOLLAB-MINISIP-ANDROID-ABFB2CE0694B\LIBMSIP\SOURCE\MESSAGES\SIPRESPONSE.CXX
/c /I..\include /I..\..\libmcrypto\include /I..\..\libmnetutil\include /I..\..\libmutil\include /Zi /nologo /W3 /WX- /O2 /Oy- /GL /D _UNICODE /D UNICODE /Gm- /EHsc /MD /GS /fp:precise /Zc:wchar_t /Zc:forScope /Fo"RELEASE\\" /Fd"RELEASE\VC110.PDB" /Gd /TP /analyze- C:\CODE\IPL - DELIVERY 2\CODE\WINDOWS\SECOLLAB-MINISIP-ANDROID-ABFB2CE0694B\LIBMSIP\SOURCE\MESSAGES\SIPRESPONSE.CXX
^C:\CODE\IPL - DELIVERY 2\CODE\WINDOWS\SECOLLAB-MINISIP-ANDROID-ABFB2CE0694B\LIBMSIP\SOURCE\SIPSMCOMMAND.CXX
/c /I..\include /I..\..\libmcrypto\include /I..\..\libmnetutil\include /I..\..\libmutil\include /Zi /nologo /W3 /WX- /O2 /Oy- /GL /D _UNICODE /D UNICODE /Gm- /EHsc /MD /GS /fp:precise /Zc:wchar_t /Zc:forScope /Fo"RELEASE\\" /Fd"RELEASE\VC110.PDB" /Gd /TP /analyze- C:\CODE\IPL - DELIVERY 2\CODE\WINDOWS\SECOLLAB-MINISIP-ANDROID-ABFB2CE0694B\LIBMSIP\SOURCE\SIPSMCOMMAND.CXX
^C:\CODE\IPL - DELIVERY 2\CODE\WINDOWS\SECOLLAB-MINISIP-ANDROID-ABFB2CE0694B\LIBMSIP\SOURCE\SIPSOCKETSERVER.CXX
/c /I..\include /I..\..\libmcrypto\include /I..\..\libmnetutil\include /I..\..\libmutil\include /Zi /nologo /W3 /WX- /O2 /Oy- /GL /D _UNICODE /D UNICODE /Gm- /EHsc /MD /GS /fp:precise /Zc:wchar_t /Zc:forScope /Fo"RELEASE\\" /Fd"RELEASE\VC110.PDB" /Gd /TP /analyze- C:\CODE\IPL - DELIVERY 2\CODE\WINDOWS\SECOLLAB-MINISIP-ANDROID-ABFB2CE0694B\LIBMSIP\SOURCE\SIPSOCKETSERVER.CXX
^C:\CODE\IPL - DELIVERY 2\CODE\WINDOWS\SECOLLAB-MINISIP-ANDROID-ABFB2CE0694B\LIBMSIP\SOURCE\SIPSTACK.CXX
/c /I..\include /I..\..\libmcrypto\include /I..\..\libmnetutil\include /I..\..\libmutil\include /Zi /nologo /W3 /WX- /O2 /Oy- /GL /D _UNICODE /D UNICODE /Gm- /EHsc /MD /GS /fp:precise /Zc:wchar_t /Zc:forScope /Fo"RELEASE\\" /Fd"RELEASE\VC110.PDB" /Gd /TP /analyze- C:\CODE\IPL - DELIVERY 2\CODE\WINDOWS\SECOLLAB-MINISIP-ANDROID-ABFB2CE0694B\LIBMSIP\SOURCE\SIPSTACK.CXX
^C:\CODE\IPL - DELIVERY 2\CODE\WINDOWS\SECOLLAB-MINISIP-ANDROID-ABFB2CE0694B\LIBMSIP\SOURCE\SIPSTACKINTERNAL.CXX
/c /I..\include /I..\..\libmcrypto\include /I..\..\libmnetutil\include /I..\..\libmutil\include /Zi /nologo /W3 /WX- /O2 /Oy- /GL /D _UNICODE /D UNICODE /Gm- /EHsc /MD /GS /fp:precise /Zc:wchar_t /Zc:forScope /Fo"RELEASE\\" /Fd"RELEASE\VC110.PDB" /Gd /TP /analyze- C:\CODE\IPL - DELIVERY 2\CODE\WINDOWS\SECOLLAB-MINISIP-ANDROID-ABFB2CE0694B\LIBMSIP\SOURCE\SIPSTACKINTERNAL.CXX
^C:\CODE\IPL - DELIVERY 2\CODE\WINDOWS\SECOLLAB-MINISIP-ANDROID-ABFB2CE0694B\LIBMSIP\SOURCE\SIPTIMERS.CXX
/c /I..\include /I..\..\libmcrypto\include /I..\..\libmnetutil\include /I..\..\libmutil\include /Zi /nologo /W3 /WX- /O2 /Oy- /GL /D _UNICODE /D UNICODE /Gm- /EHsc /MD /GS /fp:precise /Zc:wchar_t /Zc:forScope /Fo"RELEASE\\" /Fd"RELEASE\VC110.PDB" /Gd /TP /analyze- C:\CODE\IPL - DELIVERY 2\CODE\WINDOWS\SECOLLAB-MINISIP-ANDROID-ABFB2CE0694B\LIBMSIP\SOURCE\SIPTIMERS.CXX
^C:\CODE\IPL - DELIVERY 2\CODE\WINDOWS\SECOLLAB-MINISIP-ANDROID-ABFB2CE0694B\LIBMSIP\SOURCE\TRANSACTIONS\SIPTRANSACTION.CXX
/c /I..\include /I..\..\libmcrypto\include /I..\..\libmnetutil\include /I..\..\libmutil\include /Zi /nologo /W3 /WX- /O2 /Oy- /GL /D _UNICODE /D UNICODE /Gm- /EHsc /MD /GS /fp:precise /Zc:wchar_t /Zc:forScope /Fo"RELEASE\\" /Fd"RELEASE\VC110.PDB" /Gd /TP /analyze- C:\CODE\IPL - DELIVERY 2\CODE\WINDOWS\SECOLLAB-MINISIP-ANDROID-ABFB2CE0694B\LIBMSIP\SOURCE\TRANSACTIONS\SIPTRANSACTION.CXX
^C:\CODE\IPL - DELIVERY 2\CODE\WINDOWS\SECOLLAB-MINISIP-ANDROID-ABFB2CE0694B\LIBMSIP\SOURCE\TRANSACTIONS\SIPTRANSACTIONINVITECLIENT.CXX
/c /I..\include /I..\..\libmcrypto\include /I..\..\libmnetutil\include /I..\..\libmutil\include /Zi /nologo /W3 /WX- /O2 /Oy- /GL /D _UNICODE /D UNICODE /Gm- /EHsc /MD /GS /fp:precise /Zc:wchar_t /Zc:forScope /Fo"RELEASE\\" /Fd"RELEASE\VC110.PDB" /Gd /TP /analyze- C:\CODE\IPL - DELIVERY 2\CODE\WINDOWS\SECOLLAB-MINISIP-ANDROID-ABFB2CE0694B\LIBMSIP\SOURCE\TRANSACTIONS\SIPTRANSACTIONINVITECLIENT.CXX
^C:\CODE\IPL - DELIVERY 2\CODE\WINDOWS\SECOLLAB-MINISIP-ANDROID-ABFB2CE0694B\LIBMSIP\SOURCE\TRANSACTIONS\SIPTRANSACTIONINVITESERVER.CXX
/c /I..\include /I..\..\libmcrypto\include /I..\..\libmnetutil\include /I..\..\libmutil\include /Zi /nologo /W3 /WX- /O2 /Oy- /GL /D _UNICODE /D UNICODE /Gm- /EHsc /MD /GS /fp:precise /Zc:wchar_t /Zc:forScope /Fo"RELEASE\\" /Fd"RELEASE\VC110.PDB" /Gd /TP /analyze- C:\CODE\IPL - DELIVERY 2\CODE\WINDOWS\SECOLLAB-MINISIP-ANDROID-ABFB2CE0694B\LIBMSIP\SOURCE\TRANSACTIONS\SIPTRANSACTIONINVITESERVER.CXX
^C:\CODE\IPL - DELIVERY 2\CODE\WINDOWS\SECOLLAB-MINISIP-ANDROID-ABFB2CE0694B\LIBMSIP\SOURCE\TRANSACTIONS\SIPTRANSACTIONINVITESERVERUA.CXX
/c /I..\include /I..\..\libmcrypto\include /I..\..\libmnetutil\include /I..\..\libmutil\include /Zi /nologo /W3 /WX- /O2 /Oy- /GL /D _UNICODE /D UNICODE /Gm- /EHsc /MD /GS /fp:precise /Zc:wchar_t /Zc:forScope /Fo"RELEASE\\" /Fd"RELEASE\VC110.PDB" /Gd /TP /analyze- C:\CODE\IPL - DELIVERY 2\CODE\WINDOWS\SECOLLAB-MINISIP-ANDROID-ABFB2CE0694B\LIBMSIP\SOURCE\TRANSACTIONS\SIPTRANSACTIONINVITESERVERUA.CXX
^C:\CODE\IPL - DELIVERY 2\CODE\WINDOWS\SECOLLAB-MINISIP-ANDROID-ABFB2CE0694B\LIBMSIP\SOURCE\TRANSACTIONS\SIPTRANSACTIONNONINVITECLIENT.CXX
/c /I..\include /I..\..\libmcrypto\include /I..\..\libmnetutil\include /I..\..\libmutil\include /Zi /nologo /W3 /WX- /O2 /Oy- /GL /D _UNICODE /D UNICODE /Gm- /EHsc /MD /GS /fp:precise /Zc:wchar_t /Zc:forScope /Fo"RELEASE\\" /Fd"RELEASE\VC110.PDB" /Gd /TP /analyze- C:\CODE\IPL - DELIVERY 2\CODE\WINDOWS\SECOLLAB-MINISIP-ANDROID-ABFB2CE0694B\LIBMSIP\SOURCE\TRANSACTIONS\SIPTRANSACTIONNONINVITECLIENT.CXX
^C:\CODE\IPL - DELIVERY 2\CODE\WINDOWS\SECOLLAB-MINISIP-ANDROID-ABFB2CE0694B\LIBMSIP\SOURCE\TRANSACTIONS\SIPTRANSACTIONNONINVITESERVER.CXX
/c /I..\include /I..\..\libmcrypto\include /I..\..\libmnetutil\include /I..\..\libmutil\include /Zi /nologo /W3 /WX- /O2 /Oy- /GL /D _UNICODE /D UNICODE /Gm- /EHsc /MD /GS /fp:precise /Zc:wchar_t /Zc:forScope /Fo"RELEASE\\" /Fd"RELEASE\VC110.PDB" /Gd /TP /analyze- C:\CODE\IPL - DELIVERY 2\CODE\WINDOWS\SECOLLAB-MINISIP-ANDROID-ABFB2CE0694B\LIBMSIP\SOURCE\TRANSACTIONS\SIPTRANSACTIONNONINVITESERVER.CXX
^C:\CODE\IPL - DELIVERY 2\CODE\WINDOWS\SECOLLAB-MINISIP-ANDROID-ABFB2CE0694B\LIBMSIP\SOURCE\DIALOGS\SIPTRANSITIONUTILS.CXX
/c /I..\include /I..\..\libmcrypto\include /I..\..\libmnetutil\include /I..\..\libmutil\include /Zi /nologo /W3 /WX- /O2 /Oy- /GL /D _UNICODE /D UNICODE /Gm- /EHsc /MD /GS /fp:precise /Zc:wchar_t /Zc:forScope /Fo"RELEASE\\" /Fd"RELEASE\VC110.PDB" /Gd /TP /analyze- C:\CODE\IPL - DELIVERY 2\CODE\WINDOWS\SECOLLAB-MINISIP-ANDROID-ABFB2CE0694B\LIBMSIP\SOURCE\DIALOGS\SIPTRANSITIONUTILS.CXX
^C:\CODE\IPL - DELIVERY 2\CODE\WINDOWS\SECOLLAB-MINISIP-ANDROID-ABFB2CE0694B\LIBMSIP\SOURCE\SIPUTILS.CXX
/c /I..\include /I..\..\libmcrypto\include /I..\..\libmnetutil\include /I..\..\libmutil\include /Zi /nologo /W3 /WX- /O2 /Oy- /GL /D _UNICODE /D UNICODE /Gm- /EHsc /MD /GS /fp:precise /Zc:wchar_t /Zc:forScope /Fo"RELEASE\\" /Fd"RELEASE\VC110.PDB" /Gd /TP /analyze- C:\CODE\IPL - DELIVERY 2\CODE\WINDOWS\SECOLLAB-MINISIP-ANDROID-ABFB2CE0694B\LIBMSIP\SOURCE\SIPUTILS.CXX
^C:\CODE\IPL - DELIVERY 2\CODE\WINDOWS\SECOLLAB-MINISIP-ANDROID-ABFB2CE0694B\LIBMSIP\SOURCE\TRANSPORTS\SIPTRANSPORT.CXX
/c /I..\include /I..\..\libmcrypto\include /I..\..\libmnetutil\include /I..\..\libmutil\include /Zi /nologo /W3 /WX- /O2 /Oy- /GL /D _UNICODE /D UNICODE /Gm- /EHsc /MD /GS /fp:precise /Zc:wchar_t /Zc:forScope /Fo"RELEASE\\" /Fd"RELEASE\VC110.PDB" /Gd /TP /analyze- C:\CODE\IPL - DELIVERY 2\CODE\WINDOWS\SECOLLAB-MINISIP-ANDROID-ABFB2CE0694B\LIBMSIP\SOURCE\TRANSPORTS\SIPTRANSPORT.CXX
^C:\CODE\IPL - DELIVERY 2\CODE\WINDOWS\SECOLLAB-MINISIP-ANDROID-ABFB2CE0694B\LIBMSIP\SOURCE\TRANSPORTS\SIPTRANSPORTTCP.CXX
/c /I..\include /I..\..\libmcrypto\include /I..\..\libmnetutil\include /I..\..\libmutil\include /Zi /nologo /W3 /WX- /O2 /Oy- /GL /D _UNICODE /D UNICODE /Gm- /EHsc /MD /GS /fp:precise /Zc:wchar_t /Zc:forScope /Fo"RELEASE\\" /Fd"RELEASE\VC110.PDB" /Gd /TP /analyze- C:\CODE\IPL - DELIVERY 2\CODE\WINDOWS\SECOLLAB-MINISIP-ANDROID-ABFB2CE0694B\LIBMSIP\SOURCE\TRANSPORTS\SIPTRANSPORTTCP.CXX
^C:\CODE\IPL - DELIVERY 2\CODE\WINDOWS\SECOLLAB-MINISIP-ANDROID-ABFB2CE0694B\LIBMSIP\SOURCE\TRANSPORTS\SIPTRANSPORTTLS.CXX
/c /I..\include /I..\..\libmcrypto\include /I..\..\libmnetutil\include /I..\..\libmutil\include /Zi /nologo /W3 /WX- /O2 /Oy- /GL /D _UNICODE /D UNICODE /Gm- /EHsc /MD /GS /fp:precise /Zc:wchar_t /Zc:forScope /Fo"RELEASE\\" /Fd"RELEASE\VC110.PDB" /Gd /TP /analyze- C:\CODE\IPL - DELIVERY 2\CODE\WINDOWS\SECOLLAB-MINISIP-ANDROID-ABFB2CE0694B\LIBMSIP\SOURCE\TRANSPORTS\SIPTRANSPORTTLS.CXX
^C:\CODE\IPL - DELIVERY 2\CODE\WINDOWS\SECOLLAB-MINISIP-ANDROID-ABFB2CE0694B\LIBMSIP\SOURCE\TRANSPORTS\SIPTRANSPORTUDP.CXX
/c /I..\include /I..\..\libmcrypto\include /I..\..\libmnetutil\include /I..\..\libmutil\include /Zi /nologo /W3 /WX- /O2 /Oy- /GL /D _UNICODE /D UNICODE /Gm- /EHsc /MD /GS /fp:precise /Zc:wchar_t /Zc:forScope /Fo"RELEASE\\" /Fd"RELEASE\VC110.PDB" /Gd /TP /analyze- C:\CODE\IPL - DELIVERY 2\CODE\WINDOWS\SECOLLAB-MINISIP-ANDROID-ABFB2CE0694B\LIBMSIP\SOURCE\TRANSPORTS\SIPTRANSPORTUDP.CXX
